<?xml version="1.0" encoding="UTF-8"?>
<svg xmlns="http://www.w3.org/2000/svg" xmlns:xlink="http://www.w3.org/1999/xlink" viewBox="0 0 70.58 12.955" version="1.2">
<defs>
<g>
<symbol overflow="visible" id="glyph0-0">
<path style="stroke:none;" d=""/>
</symbol>
<symbol overflow="visible" id="glyph0-1">
<path style="stroke:none;" d="M 8.921875 -8.3125 C 8.921875 -8.421875 8.828125 -8.421875 8.8125 -8.421875 C 8.78125 -8.421875 8.734375 -8.421875 8.640625 -8.296875 L 7.8125 -7.296875 C 7.75 -7.40625 7.515625 -7.8125 7.046875 -8.09375 C 6.53125 -8.421875 6.03125 -8.421875 5.84375 -8.421875 C 3.28125 -8.421875 0.59375 -5.8125 0.59375 -2.984375 C 0.59375 -1.015625 1.953125 0.25 3.75 0.25 C 4.609375 0.25 5.703125 -0.03125 6.296875 -0.78125 C 6.4375 -0.328125 6.6875 -0.015625 6.78125 -0.015625 C 6.84375 -0.015625 6.84375 -0.046875 6.859375 -0.046875 C 6.875 -0.078125 6.96875 -0.484375 7.03125 -0.703125 L 7.21875 -1.46875 C 7.3125 -1.859375 7.359375 -2.03125 7.453125 -2.390625 C 7.5625 -2.84375 7.59375 -2.875 8.25 -2.890625 C 8.296875 -2.890625 8.4375 -2.890625 8.4375 -3.125 C 8.4375 -3.234375 8.3125 -3.234375 8.28125 -3.234375 C 8.078125 -3.234375 7.859375 -3.21875 7.640625 -3.21875 L 7 -3.21875 C 6.484375 -3.21875 5.96875 -3.234375 5.46875 -3.234375 C 5.359375 -3.234375 5.21875 -3.234375 5.21875 -3.03125 C 5.21875 -2.90625 5.3125 -2.90625 5.3125 -2.890625 L 5.625 -2.890625 C 6.5625 -2.890625 6.5625 -2.796875 6.5625 -2.625 C 6.5625 -2.609375 6.328125 -1.40625 6.109375 -1.046875 C 5.65625 -0.375 4.703125 -0.09375 4 -0.09375 C 3.078125 -0.09375 1.59375 -0.578125 1.59375 -2.640625 C 1.59375 -3.4375 1.875 -5.265625 3.03125 -6.625 C 3.796875 -7.484375 4.90625 -8.0625 5.953125 -8.0625 C 7.359375 -8.0625 7.859375 -6.859375 7.859375 -5.765625 C 7.859375 -5.5625 7.8125 -5.3125 7.8125 -5.140625 C 7.8125 -5.03125 7.9375 -5.03125 7.96875 -5.03125 C 8.109375 -5.03125 8.109375 -5.046875 8.15625 -5.265625 Z M 8.921875 -8.3125 "/>
</symbol>
<symbol overflow="visible" id="glyph0-2">
<path style="stroke:none;" d="M 4.40625 -7.34375 C 4.5 -7.796875 4.546875 -7.8125 5.015625 -7.8125 L 5.875 -7.8125 C 6.90625 -7.8125 7.671875 -7.5 7.671875 -6.578125 C 7.671875 -5.96875 7.359375 -4.203125 4.953125 -4.203125 L 3.609375 -4.203125 Z M 6.0625 -4.0625 C 7.546875 -4.390625 8.703125 -5.34375 8.703125 -6.375 C 8.703125 -7.296875 7.75 -8.15625 6.09375 -8.15625 L 2.859375 -8.15625 C 2.625 -8.15625 2.515625 -8.15625 2.515625 -7.9375 C 2.515625 -7.8125 2.59375 -7.8125 2.828125 -7.8125 C 3.53125 -7.8125 3.53125 -7.71875 3.53125 -7.59375 C 3.53125 -7.5625 3.53125 -7.5 3.484375 -7.3125 L 1.875 -0.890625 C 1.765625 -0.46875 1.75 -0.34375 0.921875 -0.34375 C 0.640625 -0.34375 0.5625 -0.34375 0.5625 -0.125 C 0.5625 0 0.6875 0 0.734375 0 C 0.9375 0 1.1875 -0.03125 1.421875 -0.03125 L 2.828125 -0.03125 C 3.046875 -0.03125 3.296875 0 3.515625 0 C 3.609375 0 3.734375 0 3.734375 -0.234375 C 3.734375 -0.34375 3.640625 -0.34375 3.453125 -0.34375 C 2.71875 -0.34375 2.71875 -0.4375 2.71875 -0.5625 C 2.71875 -0.578125 2.71875 -0.65625 2.75 -0.75 L 3.546875 -3.96875 L 4.984375 -3.96875 C 6.125 -3.96875 6.328125 -3.25 6.328125 -2.859375 C 6.328125 -2.671875 6.21875 -2.21875 6.125 -1.90625 C 6 -1.34375 5.96875 -1.21875 5.96875 -0.984375 C 5.96875 -0.140625 6.65625 0.25 7.453125 0.25 C 8.421875 0.25 8.84375 -0.9375 8.84375 -1.09375 C 8.84375 -1.1875 8.78125 -1.21875 8.71875 -1.21875 C 8.625 -1.21875 8.59375 -1.140625 8.578125 -1.046875 C 8.28125 -0.203125 7.796875 0.015625 7.5 0.015625 C 7.203125 0.015625 7 -0.125 7 -0.65625 C 7 -0.9375 7.140625 -2.03125 7.15625 -2.09375 C 7.21875 -2.53125 7.21875 -2.578125 7.21875 -2.671875 C 7.21875 -3.546875 6.515625 -3.921875 6.0625 -4.0625 Z M 6.0625 -4.0625 "/>
</symbol>
<symbol overflow="visible" id="glyph0-3">
<path style="stroke:none;" d="M 2.03125 -1.328125 C 1.609375 -0.625 1.203125 -0.375 0.640625 -0.34375 C 0.5 -0.328125 0.40625 -0.328125 0.40625 -0.125 C 0.40625 -0.046875 0.46875 0 0.546875 0 C 0.765625 0 1.296875 -0.03125 1.515625 -0.03125 C 1.859375 -0.03125 2.25 0 2.578125 0 C 2.65625 0 2.796875 0 2.796875 -0.234375 C 2.796875 -0.328125 2.703125 -0.34375 2.625 -0.34375 C 2.359375 -0.375 2.125 -0.46875 2.125 -0.75 C 2.125 -0.921875 2.203125 -1.046875 2.359375 -1.3125 L 3.265625 -2.828125 L 6.3125 -2.828125 C 6.328125 -2.71875 6.328125 -2.625 6.328125 -2.515625 C 6.375 -2.203125 6.515625 -0.953125 6.515625 -0.734375 C 6.515625 -0.375 5.90625 -0.34375 5.71875 -0.34375 C 5.578125 -0.34375 5.453125 -0.34375 5.453125 -0.125 C 5.453125 0 5.5625 0 5.625 0 C 5.828125 0 6.078125 -0.03125 6.28125 -0.03125 L 6.953125 -0.03125 C 7.6875 -0.03125 8.21875 0 8.21875 0 C 8.3125 0 8.4375 0 8.4375 -0.234375 C 8.4375 -0.34375 8.328125 -0.34375 8.15625 -0.34375 C 7.5 -0.34375 7.484375 -0.453125 7.453125 -0.8125 L 6.71875 -8.265625 C 6.6875 -8.515625 6.640625 -8.53125 6.515625 -8.53125 C 6.390625 -8.53125 6.328125 -8.515625 6.21875 -8.328125 Z M 3.46875 -3.171875 L 5.875 -7.1875 L 6.28125 -3.171875 Z M 3.46875 -3.171875 "/>
</symbol>
<symbol overflow="visible" id="glyph0-4">
<path style="stroke:none;" d="M 5.125 -8.515625 C 5.125 -8.53125 5.203125 -8.71875 5.203125 -8.734375 C 5.203125 -8.875 5.078125 -8.96875 4.984375 -8.96875 C 4.921875 -8.96875 4.8125 -8.96875 4.71875 -8.703125 L 0.71875 2.546875 C 0.71875 2.5625 0.640625 2.734375 0.640625 2.765625 C 0.640625 2.90625 0.765625 2.984375 0.859375 2.984375 C 0.9375 2.984375 1.046875 2.96875 1.125 2.71875 Z M 5.125 -8.515625 "/>
</symbol>
<symbol overflow="visible" id="glyph1-0">
<path style="stroke:none;" d=""/>
</symbol>
<symbol overflow="visible" id="glyph1-1">
<path style="stroke:none;" d="M 3.890625 2.90625 C 3.890625 2.875 3.890625 2.84375 3.6875 2.640625 C 2.484375 1.4375 1.8125 -0.53125 1.8125 -2.96875 C 1.8125 -5.296875 2.375 -7.296875 3.765625 -8.703125 C 3.890625 -8.8125 3.890625 -8.828125 3.890625 -8.875 C 3.890625 -8.9375 3.828125 -8.96875 3.78125 -8.96875 C 3.625 -8.96875 2.640625 -8.109375 2.0625 -6.9375 C 1.453125 -5.71875 1.171875 -4.453125 1.171875 -2.96875 C 1.171875 -1.90625 1.34375 -0.484375 1.953125 0.78125 C 2.671875 2.21875 3.640625 3 3.78125 3 C 3.828125 3 3.890625 2.96875 3.890625 2.90625 Z M 3.890625 2.90625 "/>
</symbol>
<symbol overflow="visible" id="glyph1-2">
<path style="stroke:none;" d="M 3.375 -2.96875 C 3.375 -3.890625 3.25 -5.359375 2.578125 -6.75 C 1.875 -8.1875 0.890625 -8.96875 0.765625 -8.96875 C 0.71875 -8.96875 0.65625 -8.9375 0.65625 -8.875 C 0.65625 -8.828125 0.65625 -8.8125 0.859375 -8.609375 C 2.0625 -7.40625 2.71875 -5.421875 2.71875 -2.984375 C 2.71875 -0.671875 2.15625 1.328125 0.78125 2.734375 C 0.65625 2.84375 0.65625 2.875 0.65625 2.90625 C 0.65625 2.96875 0.71875 3 0.765625 3 C 0.921875 3 1.90625 2.140625 2.484375 0.96875 C 3.09375 -0.25 3.375 -1.546875 3.375 -2.96875 Z M 3.375 -2.96875 "/>
</symbol>
<symbol overflow="visible" id="glyph2-0">
<path style="stroke:none;" d=""/>
</symbol>
<symbol overflow="visible" id="glyph2-1">
<path style="stroke:none;" d="M 9.96875 -2.75 C 9.3125 -2.25 8.984375 -1.75 8.890625 -1.609375 C 8.359375 -0.78125 8.265625 -0.03125 8.265625 -0.015625 C 8.265625 0.125 8.40625 0.125 8.5 0.125 C 8.703125 0.125 8.71875 0.109375 8.765625 -0.109375 C 9.03125 -1.28125 9.734375 -2.28125 11.09375 -2.828125 C 11.234375 -2.875 11.265625 -2.90625 11.265625 -2.984375 C 11.265625 -3.078125 11.203125 -3.109375 11.171875 -3.125 C 10.65625 -3.328125 9.203125 -3.921875 8.75 -5.921875 C 8.71875 -6.078125 8.703125 -6.109375 8.5 -6.109375 C 8.40625 -6.109375 8.265625 -6.109375 8.265625 -5.96875 C 8.265625 -5.9375 8.359375 -5.1875 8.875 -4.390625 C 9.109375 -4.03125 9.453125 -3.609375 9.96875 -3.234375 L 1.09375 -3.234375 C 0.875 -3.234375 0.65625 -3.234375 0.65625 -2.984375 C 0.65625 -2.75 0.875 -2.75 1.09375 -2.75 Z M 9.96875 -2.75 "/>
</symbol>
</g>
<clipPath id="clip1">
  <path d="M 10 0 L 14 0 L 14 12.953125 L 10 12.953125 Z M 10 0 "/>
</clipPath>
<clipPath id="clip2">
  <path d="M 23 0 L 27 0 L 27 12.953125 L 23 12.953125 Z M 23 0 "/>
</clipPath>
<clipPath id="clip3">
  <path d="M 46 0 L 70 0 L 70 12.953125 L 46 12.953125 Z M 46 0 "/>
</clipPath>
</defs>
<g id="surface1">
<g style="fill:rgb(0%,0%,0%);fill-opacity:1;">
  <use xlink:href="#glyph0-1" x="0.5" y="9.466"/>
</g>
<g clip-path="url(#clip1)" clip-rule="nonzero">
<g style="fill:rgb(0%,0%,0%);fill-opacity:1;">
  <use xlink:href="#glyph1-1" x="9.734" y="9.466"/>
</g>
</g>
<g style="fill:rgb(0%,0%,0%);fill-opacity:1;">
  <use xlink:href="#glyph0-2" x="14.286" y="9.466"/>
</g>
<g clip-path="url(#clip2)" clip-rule="nonzero">
<g style="fill:rgb(0%,0%,0%);fill-opacity:1;">
  <use xlink:href="#glyph1-2" x="23.294" y="9.466"/>
</g>
</g>
<g style="fill:rgb(0%,0%,0%);fill-opacity:1;">
  <use xlink:href="#glyph2-1" x="31.168" y="9.466"/>
</g>
<g clip-path="url(#clip3)" clip-rule="nonzero">
<g style="fill:rgb(0%,0%,0%);fill-opacity:1;">
  <use xlink:href="#glyph0-3" x="46.444" y="9.466"/>
  <use xlink:href="#glyph0-4" x="55.219117" y="9.466"/>
  <use xlink:href="#glyph0-2" x="61.072383" y="9.466"/>
</g>
</g>
</g>
</svg>
