<?xml version="1.0" encoding="UTF-8"?>
<svg xmlns="http://www.w3.org/2000/svg" xmlns:xlink="http://www.w3.org/1999/xlink" viewBox="0 0 95.946 28.579" version="1.2">
<defs>
<g>
<symbol overflow="visible" id="glyph0-0">
<path style="stroke:none;" d=""/>
</symbol>
<symbol overflow="visible" id="glyph0-1">
<path style="stroke:none;" d="M 2.921875 -8.296875 L 1.359375 -6.671875 L 1.546875 -6.484375 L 2.921875 -7.71875 L 4.296875 -6.484375 L 4.484375 -6.671875 Z M 2.921875 -8.296875 "/>
</symbol>
<symbol overflow="visible" id="glyph0-2">
<path style="stroke:none;" d="M 8.0625 -3.875 C 8.234375 -3.875 8.453125 -3.875 8.453125 -4.09375 C 8.453125 -4.3125 8.25 -4.3125 8.0625 -4.3125 L 1.03125 -4.3125 C 0.859375 -4.3125 0.640625 -4.3125 0.640625 -4.09375 C 0.640625 -3.875 0.84375 -3.875 1.03125 -3.875 Z M 8.0625 -1.65625 C 8.234375 -1.65625 8.453125 -1.65625 8.453125 -1.859375 C 8.453125 -2.09375 8.25 -2.09375 8.0625 -2.09375 L 1.03125 -2.09375 C 0.859375 -2.09375 0.640625 -2.09375 0.640625 -1.875 C 0.640625 -1.65625 0.84375 -1.65625 1.03125 -1.65625 Z M 8.0625 -1.65625 "/>
</symbol>
<symbol overflow="visible" id="glyph1-0">
<path style="stroke:none;" d=""/>
</symbol>
<symbol overflow="visible" id="glyph1-1">
<path style="stroke:none;" d="M 5.3125 -4.8125 C 4.65625 -4.671875 4.578125 -4.09375 4.578125 -3.96875 C 4.578125 -3.703125 4.78125 -3.421875 5.171875 -3.421875 C 5.578125 -3.421875 6.03125 -3.75 6.03125 -4.359375 C 6.03125 -4.90625 5.609375 -5.40625 4.859375 -5.40625 C 4.203125 -5.40625 3.640625 -5.0625 3.28125 -4.6875 C 2.984375 -5.234375 2.3125 -5.40625 1.875 -5.40625 C 1.4375 -5.40625 1.09375 -5.15625 0.84375 -4.71875 C 0.546875 -4.25 0.375 -3.609375 0.375 -3.53125 C 0.375 -3.375 0.5625 -3.375 0.671875 -3.375 C 0.796875 -3.375 0.84375 -3.375 0.90625 -3.4375 C 0.9375 -3.453125 0.9375 -3.484375 1 -3.78125 C 1.234375 -4.6875 1.5 -4.96875 1.8125 -4.96875 C 2 -4.96875 2.09375 -4.859375 2.09375 -4.546875 C 2.09375 -4.328125 2.0625 -4.203125 1.921875 -3.640625 C 1.859375 -3.4375 1.671875 -2.640625 1.59375 -2.34375 C 1.546875 -2.109375 1.40625 -1.578125 1.34375 -1.359375 C 1.28125 -1.046875 1.140625 -0.515625 1.140625 -0.4375 C 1.140625 -0.171875 1.328125 0.09375 1.703125 0.09375 C 1.9375 0.09375 2.359375 -0.046875 2.484375 -0.53125 C 2.5 -0.578125 3.3125 -3.828125 3.328125 -3.890625 C 3.375 -4.078125 3.375 -4.09375 3.53125 -4.28125 C 3.796875 -4.625 4.25 -4.96875 4.84375 -4.96875 C 5.140625 -4.96875 5.265625 -4.84375 5.3125 -4.8125 Z M 5.3125 -4.8125 "/>
</symbol>
<symbol overflow="visible" id="glyph1-2">
<path style="stroke:none;" d="M 3.78125 -7.875 C 3.828125 -8.046875 3.828125 -8.0625 3.828125 -8.078125 C 3.828125 -8.234375 3.6875 -8.296875 3.5625 -8.296875 C 3.515625 -8.296875 3.5 -8.296875 3.484375 -8.28125 L 1.9375 -8.21875 C 1.765625 -8.203125 1.546875 -8.1875 1.546875 -7.859375 C 1.546875 -7.640625 1.78125 -7.640625 1.859375 -7.640625 C 2 -7.640625 2.21875 -7.640625 2.359375 -7.609375 L 0.640625 -0.71875 C 0.640625 -0.671875 0.59375 -0.484375 0.59375 -0.4375 C 0.59375 -0.15625 0.828125 0.09375 1.171875 0.09375 C 1.390625 0.09375 1.734375 -0.015625 1.90625 -0.375 C 1.9375 -0.484375 2.109375 -1.1875 2.453125 -2.5625 C 2.671875 -2.546875 3.71875 -2.40625 3.71875 -1.671875 C 3.71875 -1.59375 3.71875 -1.546875 3.6875 -1.421875 C 3.640625 -1.265625 3.640625 -1.25 3.640625 -1.140625 C 3.640625 -0.359375 4.390625 0.09375 5.171875 0.09375 C 6.375 0.09375 6.8125 -1.671875 6.8125 -1.765625 C 6.8125 -1.9375 6.640625 -1.9375 6.53125 -1.9375 C 6.3125 -1.9375 6.28125 -1.90625 6.234375 -1.703125 C 6.125 -1.34375 5.84375 -0.328125 5.234375 -0.328125 C 5.046875 -0.328125 4.921875 -0.4375 4.921875 -0.796875 C 4.921875 -0.921875 4.953125 -1.140625 5.015625 -1.421875 C 5.0625 -1.546875 5.0625 -1.640625 5.0625 -1.71875 C 5.0625 -2.734375 3.84375 -2.921875 2.984375 -3.015625 C 3.109375 -3.09375 3.390625 -3.28125 4.046875 -3.921875 C 4.96875 -4.828125 5.46875 -4.96875 5.828125 -4.96875 C 6.0625 -4.96875 6.140625 -4.84375 6.140625 -4.828125 C 5.546875 -4.75 5.3125 -4.265625 5.3125 -3.96875 C 5.3125 -3.703125 5.515625 -3.421875 5.921875 -3.421875 C 6.140625 -3.421875 6.78125 -3.578125 6.78125 -4.421875 C 6.78125 -5.046875 6.390625 -5.40625 5.875 -5.40625 C 5.140625 -5.40625 4.484375 -4.875 3.78125 -4.203125 C 3.65625 -4.0625 3.078125 -3.515625 2.625 -3.265625 Z M 3.78125 -7.875 "/>
</symbol>
<symbol overflow="visible" id="glyph1-3">
<path style="stroke:none;" d="M 6.484375 -5.1875 C 6.484375 -5.25 6.4375 -5.40625 6.28125 -5.40625 C 6.265625 -5.40625 5.5625 -5.234375 5.1875 -4.890625 C 5.015625 -5.078125 4.609375 -5.40625 3.90625 -5.40625 C 1.828125 -5.40625 0.53125 -3.515625 0.53125 -1.875 C 0.53125 -0.40625 1.640625 0.09375 2.625 0.09375 C 3.203125 0.09375 3.6875 -0.125 3.9375 -0.28125 L 3.484375 1.53125 C 3.4375 1.703125 3.421875 1.71875 3.328125 1.734375 C 3.203125 1.75 3.015625 1.75 2.875 1.75 C 2.671875 1.75 2.609375 1.75 2.546875 1.828125 C 2.484375 1.90625 2.453125 2.09375 2.453125 2.109375 C 2.453125 2.171875 2.5 2.3125 2.6875 2.3125 C 3.09375 2.3125 3.53125 2.28125 3.953125 2.28125 C 4.40625 2.28125 4.859375 2.3125 5.28125 2.3125 C 5.359375 2.3125 5.59375 2.3125 5.59375 1.96875 C 5.59375 1.765625 5.390625 1.75 5.28125 1.75 C 5.109375 1.75 4.921875 1.75 4.765625 1.75 Z M 4.1875 -1.28125 C 4.125 -1.078125 4.125 -1.046875 4 -0.9375 C 3.609375 -0.546875 3.109375 -0.328125 2.6875 -0.328125 C 1.953125 -0.328125 1.890625 -0.984375 1.890625 -1.25 C 1.890625 -1.859375 2.296875 -3.328125 2.484375 -3.796875 C 2.859375 -4.671875 3.4375 -4.96875 3.9375 -4.96875 C 4.640625 -4.96875 4.921875 -4.40625 4.921875 -4.28125 C 4.921875 -4.234375 4.90625 -4.140625 4.90625 -4.109375 Z M 4.1875 -1.28125 "/>
</symbol>
<symbol overflow="visible" id="glyph2-0">
<path style="stroke:none;" d=""/>
</symbol>
<symbol overflow="visible" id="glyph2-1">
<path style="stroke:none;" d="M 7.875 -2.75 C 8.078125 -2.75 8.296875 -2.75 8.296875 -2.984375 C 8.296875 -3.234375 8.078125 -3.234375 7.875 -3.234375 L 1.40625 -3.234375 C 1.203125 -3.234375 0.984375 -3.234375 0.984375 -2.984375 C 0.984375 -2.75 1.203125 -2.75 1.40625 -2.75 Z M 7.875 -2.75 "/>
</symbol>
<symbol overflow="visible" id="glyph2-2">
<path style="stroke:none;" d="M 1.90625 -8.53125 C 1.90625 -8.75 1.90625 -8.96875 1.65625 -8.96875 C 1.421875 -8.96875 1.421875 -8.75 1.421875 -8.53125 L 1.421875 2.5625 C 1.421875 2.765625 1.421875 2.984375 1.65625 2.984375 C 1.90625 2.984375 1.90625 2.765625 1.90625 2.5625 Z M 1.90625 -8.53125 "/>
</symbol>
<symbol overflow="visible" id="glyph3-0">
<path style="stroke:none;" d=""/>
</symbol>
<symbol overflow="visible" id="glyph3-1">
<path style="stroke:none;" d="M 3.890625 -2.546875 C 3.890625 -3.390625 3.8125 -3.90625 3.546875 -4.421875 C 3.203125 -5.125 2.546875 -5.296875 2.109375 -5.296875 C 1.109375 -5.296875 0.734375 -4.546875 0.625 -4.328125 C 0.34375 -3.75 0.328125 -2.953125 0.328125 -2.546875 C 0.328125 -2.015625 0.34375 -1.21875 0.734375 -0.578125 C 1.09375 0.015625 1.6875 0.171875 2.109375 0.171875 C 2.5 0.171875 3.171875 0.046875 3.578125 -0.734375 C 3.875 -1.3125 3.890625 -2.03125 3.890625 -2.546875 Z M 2.109375 -0.0625 C 1.84375 -0.0625 1.296875 -0.1875 1.125 -1.015625 C 1.03125 -1.46875 1.03125 -2.21875 1.03125 -2.640625 C 1.03125 -3.1875 1.03125 -3.75 1.125 -4.1875 C 1.296875 -5 1.90625 -5.078125 2.109375 -5.078125 C 2.375 -5.078125 2.9375 -4.9375 3.09375 -4.21875 C 3.1875 -3.78125 3.1875 -3.171875 3.1875 -2.640625 C 3.1875 -2.171875 3.1875 -1.453125 3.09375 -1 C 2.921875 -0.171875 2.375 -0.0625 2.109375 -0.0625 Z M 2.109375 -0.0625 "/>
</symbol>
<symbol overflow="visible" id="glyph4-0">
<path style="stroke:none;" d=""/>
</symbol>
<symbol overflow="visible" id="glyph4-1">
<path style="stroke:none;" d="M 2.203125 -0.578125 C 2.203125 -0.921875 1.90625 -1.15625 1.625 -1.15625 C 1.28125 -1.15625 1.046875 -0.875 1.046875 -0.578125 C 1.046875 -0.234375 1.328125 0 1.609375 0 C 1.953125 0 2.203125 -0.28125 2.203125 -0.578125 Z M 2.203125 -0.578125 "/>
</symbol>
</g>
<clipPath id="clip1">
  <path d="M 48 16 L 50 16 L 50 28.578125 L 48 28.578125 Z M 48 16 "/>
</clipPath>
<clipPath id="clip2">
  <path d="M 85 16 L 87 16 L 87 28.578125 L 85 28.578125 Z M 85 16 "/>
</clipPath>
</defs>
<g id="surface1">
<g style="fill:rgb(0%,0%,0%);fill-opacity:1;">
  <use xlink:href="#glyph0-1" x="0.925" y="16.724"/>
</g>
<g style="fill:rgb(0%,0%,0%);fill-opacity:1;">
  <use xlink:href="#glyph1-1" x="0.5" y="16.89"/>
</g>
<g style="fill:rgb(0%,0%,0%);fill-opacity:1;">
  <use xlink:href="#glyph0-2" x="10.523" y="16.89"/>
</g>
<g style="fill:rgb(0%,0%,0%);fill-opacity:1;">
  <use xlink:href="#glyph0-1" x="23.742" y="13.735"/>
</g>
<g style="fill:rgb(0%,0%,0%);fill-opacity:1;">
  <use xlink:href="#glyph1-2" x="22.949" y="16.89"/>
</g>
<g style="fill:rgb(0%,0%,0%);fill-opacity:1;">
  <use xlink:href="#glyph0-2" x="33.709" y="16.89"/>
</g>
<g style="fill:rgb(0%,0%,0%);fill-opacity:1;">
  <use xlink:href="#glyph1-3" x="50.65" y="8.802"/>
</g>
<g style="fill:rgb(0%,0%,0%);fill-opacity:1;">
  <use xlink:href="#glyph2-1" x="60.231" y="8.802"/>
</g>
<g style="fill:rgb(0%,0%,0%);fill-opacity:1;">
  <use xlink:href="#glyph1-2" x="72.186" y="8.802"/>
</g>
<g style="fill:rgb(0%,0%,0%);fill-opacity:1;">
  <use xlink:href="#glyph3-1" x="79.625" y="10.595"/>
</g>
<path style="fill:none;stroke-width:0.478;stroke-linecap:butt;stroke-linejoin:miter;stroke:rgb(0%,0%,0%);stroke-opacity:1;stroke-miterlimit:10;" d="M -0.001875 -0.00134375 L 40.349688 -0.00134375 " transform="matrix(1,0,0,-1,47.33,13.901)"/>
<g clip-path="url(#clip1)" clip-rule="nonzero">
<g style="fill:rgb(0%,0%,0%);fill-opacity:1;">
  <use xlink:href="#glyph2-2" x="47.33" y="25.09"/>
</g>
</g>
<g style="fill:rgb(0%,0%,0%);fill-opacity:1;">
  <use xlink:href="#glyph1-3" x="50.65" y="25.09"/>
</g>
<g style="fill:rgb(0%,0%,0%);fill-opacity:1;">
  <use xlink:href="#glyph2-1" x="60.231" y="25.09"/>
</g>
<g style="fill:rgb(0%,0%,0%);fill-opacity:1;">
  <use xlink:href="#glyph1-2" x="72.186" y="25.09"/>
</g>
<g style="fill:rgb(0%,0%,0%);fill-opacity:1;">
  <use xlink:href="#glyph3-1" x="79.625" y="26.883"/>
</g>
<g clip-path="url(#clip2)" clip-rule="nonzero">
<g style="fill:rgb(0%,0%,0%);fill-opacity:1;">
  <use xlink:href="#glyph2-2" x="84.357" y="25.09"/>
</g>
</g>
<g style="fill:rgb(0%,0%,0%);fill-opacity:1;">
  <use xlink:href="#glyph4-1" x="92.194" y="16.89"/>
</g>
</g>
</svg>
