<?xml version="1.0" encoding="UTF-8"?>
<svg xmlns="http://www.w3.org/2000/svg" xmlns:xlink="http://www.w3.org/1999/xlink" viewBox="0 0 14.542 10.963" version="1.2">
<defs>
<g>
<symbol overflow="visible" id="glyph0-0">
<path style="stroke:none;" d=""/>
</symbol>
<symbol overflow="visible" id="glyph0-1">
<path style="stroke:none;" d="M 2.15625 -1.109375 C 2.796875 -2.109375 3 -2.875 3.15625 -3.515625 C 3.578125 -5.15625 4.03125 -6.59375 4.765625 -7.421875 C 4.90625 -7.578125 5.015625 -7.6875 5.390625 -7.6875 C 6.21875 -7.6875 6.234375 -6.859375 6.234375 -6.6875 C 6.234375 -6.484375 6.1875 -6.3125 6.1875 -6.25 C 6.1875 -6.171875 6.25 -6.171875 6.265625 -6.171875 C 6.453125 -6.171875 6.78125 -6.296875 7.078125 -6.515625 C 7.296875 -6.6875 7.40625 -6.796875 7.40625 -7.296875 C 7.40625 -7.9375 7.0625 -8.421875 6.390625 -8.421875 C 6.015625 -8.421875 4.953125 -8.328125 3.796875 -7.140625 C 2.828125 -6.171875 2.265625 -4.015625 2.046875 -3.125 C 1.828125 -2.296875 1.734375 -1.921875 1.375 -1.203125 C 1.296875 -1.0625 0.984375 -0.53125 0.8125 -0.375 C 0.484375 -0.078125 0.375 0.125 0.375 0.1875 C 0.375 0.21875 0.390625 0.265625 0.484375 0.265625 C 0.53125 0.265625 0.78125 0.21875 1.09375 0.015625 C 1.296875 -0.109375 1.3125 -0.125 1.59375 -0.421875 C 2.1875 -0.40625 2.609375 -0.296875 3.359375 -0.078125 C 3.96875 0.078125 4.578125 0.265625 5.1875 0.265625 C 6.15625 0.265625 7.140625 -0.46875 7.515625 -0.984375 C 7.75 -1.3125 7.828125 -1.609375 7.828125 -1.65625 C 7.828125 -1.734375 7.75 -1.734375 7.75 -1.734375 C 7.546875 -1.734375 7.265625 -1.609375 7.0625 -1.453125 C 6.734375 -1.25 6.71875 -1.1875 6.640625 -0.984375 C 6.59375 -0.78125 6.515625 -0.6875 6.46875 -0.625 C 6.375 -0.484375 6.359375 -0.484375 6.1875 -0.484375 C 5.609375 -0.484375 5.015625 -0.65625 4.21875 -0.875 C 3.890625 -0.96875 3.234375 -1.15625 2.625 -1.15625 C 2.46875 -1.15625 2.3125 -1.140625 2.15625 -1.109375 Z M 2.15625 -1.109375 "/>
</symbol>
<symbol overflow="visible" id="glyph1-0">
<path style="stroke:none;" d=""/>
</symbol>
<symbol overflow="visible" id="glyph1-1">
<path style="stroke:none;" d="M 2.046875 -1.234375 C 2.125 -1.5625 2.21875 -1.90625 2.296875 -2.265625 C 2.328125 -2.359375 2.34375 -2.484375 2.375 -2.578125 C 2.375 -2.59375 2.734375 -3.28125 3.4375 -3.28125 C 3.546875 -3.28125 3.671875 -3.25 3.765625 -3.15625 C 3.390625 -3.078125 3.265625 -2.765625 3.265625 -2.5625 C 3.265625 -2.25 3.484375 -2.140625 3.6875 -2.140625 C 3.953125 -2.140625 4.3125 -2.34375 4.3125 -2.84375 C 4.3125 -3.3125 3.9375 -3.609375 3.46875 -3.609375 C 2.8125 -3.609375 2.375 -3.140625 2.34375 -3.109375 C 2.140625 -3.5 1.640625 -3.609375 1.34375 -3.609375 C 0.515625 -3.609375 0.265625 -2.375 0.265625 -2.359375 C 0.265625 -2.21875 0.390625 -2.21875 0.5 -2.21875 C 0.671875 -2.21875 0.6875 -2.234375 0.734375 -2.421875 C 0.890625 -2.984375 1.046875 -3.28125 1.296875 -3.28125 C 1.484375 -3.28125 1.484375 -3.0625 1.484375 -2.953125 C 1.484375 -2.828125 1.421875 -2.5625 1.375 -2.375 C 1.328125 -2.15625 1.25 -1.828125 1.203125 -1.65625 L 1.015625 -0.953125 C 0.96875 -0.734375 0.875 -0.359375 0.875 -0.3125 C 0.875 -0.0625 1.0625 0.078125 1.28125 0.078125 C 1.484375 0.078125 1.75 -0.078125 1.828125 -0.359375 Z M 2.046875 -1.234375 "/>
</symbol>
</g>
<clipPath id="clip1">
  <path d="M 9 6 L 14 6 L 14 10.964844 L 9 10.964844 Z M 9 6 "/>
</clipPath>
</defs>
<g id="surface1">
<g style="fill:rgb(0%,0%,0%);fill-opacity:1;">
  <use xlink:href="#glyph0-1" x="0.5" y="8.67"/>
</g>
<g clip-path="url(#clip1)" clip-rule="nonzero">
<g style="fill:rgb(0%,0%,0%);fill-opacity:1;">
  <use xlink:href="#glyph1-1" x="8.746" y="10.463"/>
</g>
</g>
</g>
</svg>
