<?xml version="1.0" encoding="UTF-8"?>
<svg xmlns="http://www.w3.org/2000/svg" xmlns:xlink="http://www.w3.org/1999/xlink" viewBox="0 0 54.967 11.527" version="1.2">
<defs>
<g>
<symbol overflow="visible" id="glyph0-0">
<path style="stroke:none;" d=""/>
</symbol>
<symbol overflow="visible" id="glyph0-1">
<path style="stroke:none;" d="M 8.0625 -3.875 C 8.234375 -3.875 8.453125 -3.875 8.453125 -4.09375 C 8.453125 -4.3125 8.25 -4.3125 8.0625 -4.3125 L 1.03125 -4.3125 C 0.859375 -4.3125 0.640625 -4.3125 0.640625 -4.09375 C 0.640625 -3.875 0.84375 -3.875 1.03125 -3.875 Z M 8.0625 -1.65625 C 8.234375 -1.65625 8.453125 -1.65625 8.453125 -1.859375 C 8.453125 -2.09375 8.25 -2.09375 8.0625 -2.09375 L 1.03125 -2.09375 C 0.859375 -2.09375 0.640625 -2.09375 0.640625 -1.875 C 0.640625 -1.65625 0.84375 -1.65625 1.03125 -1.65625 Z M 8.0625 -1.65625 "/>
</symbol>
<symbol overflow="visible" id="glyph1-0">
<path style="stroke:none;" d=""/>
</symbol>
<symbol overflow="visible" id="glyph1-1">
<path style="stroke:none;" d="M 9.328125 -7.90625 C 9.34375 -7.9375 9.390625 -8.015625 9.390625 -8.0625 C 9.390625 -8.15625 9.375 -8.15625 9.09375 -8.15625 L 0.84375 -8.15625 C 0.578125 -8.15625 0.5625 -8.15625 0.5625 -8.0625 C 0.5625 -8.015625 0.59375 -7.9375 0.625 -7.90625 L 4.65625 0.171875 C 4.734375 0.328125 4.765625 0.390625 4.96875 0.390625 C 5.171875 0.390625 5.21875 0.328125 5.296875 0.171875 Z M 2.046875 -7.296875 L 8.609375 -7.296875 L 5.328125 -0.734375 Z M 2.046875 -7.296875 "/>
</symbol>
<symbol overflow="visible" id="glyph1-2">
<path style="stroke:none;" d="M 4.65625 -3.328125 L 2.265625 -5.703125 C 2.109375 -5.84375 2.09375 -5.875 2 -5.875 C 1.875 -5.875 1.75 -5.765625 1.75 -5.625 C 1.75 -5.546875 1.78125 -5.515625 1.90625 -5.390625 L 4.296875 -2.984375 L 1.90625 -0.578125 C 1.78125 -0.453125 1.75 -0.4375 1.75 -0.34375 C 1.75 -0.21875 1.875 -0.109375 2 -0.109375 C 2.09375 -0.109375 2.109375 -0.125 2.265625 -0.28125 L 4.640625 -2.65625 L 7.109375 -0.171875 C 7.140625 -0.171875 7.21875 -0.109375 7.296875 -0.109375 C 7.4375 -0.109375 7.53125 -0.21875 7.53125 -0.34375 C 7.53125 -0.375 7.53125 -0.421875 7.5 -0.484375 C 7.484375 -0.5 5.578125 -2.375 4.984375 -2.984375 L 7.171875 -5.171875 C 7.234375 -5.25 7.40625 -5.40625 7.46875 -5.46875 C 7.484375 -5.5 7.53125 -5.546875 7.53125 -5.625 C 7.53125 -5.765625 7.4375 -5.875 7.296875 -5.875 C 7.203125 -5.875 7.140625 -5.828125 7.015625 -5.6875 Z M 4.65625 -3.328125 "/>
</symbol>
<symbol overflow="visible" id="glyph2-0">
<path style="stroke:none;" d=""/>
</symbol>
<symbol overflow="visible" id="glyph2-1">
<path style="stroke:none;" d="M 7.703125 -8.15625 C 7.65625 -8.453125 7.609375 -8.5 7.296875 -8.5 C 7.046875 -8.5 6.9375 -8.453125 6.78125 -8.203125 L 2.078125 -1.015625 C 1.9375 -0.78125 1.796875 -0.578125 0.921875 -0.5625 C 0.75 -0.5625 0.53125 -0.5625 0.53125 -0.21875 C 0.53125 -0.125 0.625 0 0.765625 0 C 1.125 0 1.53125 -0.03125 1.90625 -0.03125 C 2.34375 -0.03125 2.796875 0 3.234375 0 C 3.3125 0 3.546875 0 3.546875 -0.34375 C 3.546875 -0.5625 3.328125 -0.5625 3.234375 -0.5625 C 3.140625 -0.5625 2.8125 -0.5625 2.546875 -0.6875 L 3.640625 -2.359375 L 6.875 -2.359375 L 7.140625 -0.625 C 6.921875 -0.578125 6.546875 -0.5625 6.375 -0.5625 C 6.125 -0.5625 5.921875 -0.5625 5.921875 -0.21875 C 5.921875 -0.0625 6.0625 0 6.1875 0 C 6.59375 0 7.578125 -0.03125 7.96875 -0.03125 C 8.25 -0.03125 8.515625 -0.03125 8.796875 -0.03125 C 9.078125 -0.03125 9.359375 0 9.640625 0 C 9.734375 0 9.96875 0 9.96875 -0.34375 C 9.96875 -0.5625 9.796875 -0.5625 9.484375 -0.5625 C 9.328125 -0.5625 9.1875 -0.5625 9.03125 -0.578125 C 8.875 -0.578125 8.875 -0.59375 8.828125 -0.796875 Z M 6.265625 -6.375 L 6.796875 -2.921875 L 4.015625 -2.921875 Z M 6.265625 -6.375 "/>
</symbol>
<symbol overflow="visible" id="glyph3-0">
<path style="stroke:none;" d=""/>
</symbol>
<symbol overflow="visible" id="glyph3-1">
<path style="stroke:none;" d="M 2.328125 0.046875 C 2.328125 -0.640625 2.109375 -1.15625 1.609375 -1.15625 C 1.234375 -1.15625 1.046875 -0.84375 1.046875 -0.578125 C 1.046875 -0.328125 1.21875 0 1.625 0 C 1.78125 0 1.90625 -0.046875 2.015625 -0.15625 C 2.046875 -0.171875 2.0625 -0.171875 2.0625 -0.171875 C 2.09375 -0.171875 2.09375 -0.015625 2.09375 0.046875 C 2.09375 0.4375 2.015625 1.21875 1.328125 2 C 1.1875 2.140625 1.1875 2.15625 1.1875 2.1875 C 1.1875 2.25 1.25 2.3125 1.3125 2.3125 C 1.40625 2.3125 2.328125 1.421875 2.328125 0.046875 Z M 2.328125 0.046875 "/>
</symbol>
</g>
<clipPath id="clip1">
  <path d="M 52 7 L 54 7 L 54 11.527344 L 52 11.527344 Z M 52 7 "/>
</clipPath>
</defs>
<g id="surface1">
<g style="fill:rgb(0%,0%,0%);fill-opacity:1;">
  <use xlink:href="#glyph0-1" x="0.5" y="8.702"/>
</g>
<g style="fill:rgb(0%,0%,0%);fill-opacity:1;">
  <use xlink:href="#glyph1-1" x="12.925" y="8.702"/>
</g>
<g style="fill:rgb(0%,0%,0%);fill-opacity:1;">
  <use xlink:href="#glyph1-2" x="25.541323" y="8.702"/>
</g>
<g style="fill:rgb(0%,0%,0%);fill-opacity:1;">
  <use xlink:href="#glyph2-1" x="37.5" y="8.702"/>
</g>
<g clip-path="url(#clip1)" clip-rule="nonzero">
<g style="fill:rgb(0%,0%,0%);fill-opacity:1;">
  <use xlink:href="#glyph3-1" x="51.215" y="8.702"/>
</g>
</g>
</g>
</svg>
