<?xml version="1.0" encoding="UTF-8"?>
<svg xmlns="http://www.w3.org/2000/svg" xmlns:xlink="http://www.w3.org/1999/xlink" viewBox="0 0 9.959 9.047" version="1.2">
<defs>
<g>
<symbol overflow="visible" id="glyph0-0">
<path style="stroke:none;" d=""/>
</symbol>
<symbol overflow="visible" id="glyph0-1">
<path style="stroke:none;" d="M 2.40625 -4.8125 L 3.5 -4.8125 C 3.734375 -4.8125 3.84375 -4.8125 3.84375 -5.015625 C 3.84375 -5.15625 3.78125 -5.15625 3.53125 -5.15625 L 2.484375 -5.15625 L 2.921875 -6.890625 C 2.96875 -7.0625 2.96875 -7.09375 2.96875 -7.171875 C 2.96875 -7.359375 2.828125 -7.46875 2.671875 -7.46875 C 2.5625 -7.46875 2.296875 -7.4375 2.203125 -7.046875 L 1.734375 -5.15625 L 0.609375 -5.15625 C 0.375 -5.15625 0.265625 -5.15625 0.265625 -4.921875 C 0.265625 -4.8125 0.34375 -4.8125 0.578125 -4.8125 L 1.640625 -4.8125 L 0.84375 -1.65625 C 0.75 -1.234375 0.71875 -1.109375 0.71875 -0.953125 C 0.71875 -0.390625 1.109375 0.125 1.78125 0.125 C 2.984375 0.125 3.640625 -1.625 3.640625 -1.703125 C 3.640625 -1.78125 3.578125 -1.8125 3.515625 -1.8125 C 3.484375 -1.8125 3.4375 -1.8125 3.421875 -1.765625 C 3.40625 -1.75 3.390625 -1.75 3.3125 -1.546875 C 3.0625 -0.953125 2.515625 -0.125 1.8125 -0.125 C 1.453125 -0.125 1.4375 -0.421875 1.4375 -0.6875 C 1.4375 -0.6875 1.4375 -0.921875 1.46875 -1.0625 Z M 2.40625 -4.8125 "/>
</symbol>
<symbol overflow="visible" id="glyph1-0">
<path style="stroke:none;" d=""/>
</symbol>
<symbol overflow="visible" id="glyph1-1">
<path style="stroke:none;" d="M 3.296875 -1.046875 C 3.359375 -1 3.390625 -1 3.421875 -1 C 3.546875 -1 3.671875 -1.109375 3.671875 -1.25 C 3.671875 -1.40625 3.578125 -1.4375 3.46875 -1.484375 C 2.9375 -1.734375 2.734375 -1.828125 2.34375 -1.984375 L 3.28125 -2.40625 C 3.34375 -2.4375 3.5 -2.5 3.5625 -2.53125 C 3.640625 -2.578125 3.671875 -2.65625 3.671875 -2.71875 C 3.671875 -2.828125 3.625 -2.96875 3.375 -2.96875 L 2.234375 -2.1875 L 2.34375 -3.375 C 2.359375 -3.5 2.34375 -3.703125 2.109375 -3.703125 C 1.96875 -3.703125 1.859375 -3.578125 1.875 -3.46875 L 1.875 -3.375 L 1.984375 -2.1875 L 0.9375 -2.921875 C 0.859375 -2.96875 0.84375 -2.96875 0.796875 -2.96875 C 0.671875 -2.96875 0.5625 -2.875 0.5625 -2.71875 C 0.5625 -2.578125 0.640625 -2.546875 0.75 -2.484375 C 1.296875 -2.234375 1.484375 -2.15625 1.875 -1.984375 L 0.9375 -1.5625 C 0.875 -1.546875 0.71875 -1.46875 0.65625 -1.453125 C 0.578125 -1.40625 0.5625 -1.328125 0.5625 -1.25 C 0.5625 -1.109375 0.671875 -1 0.796875 -1 C 0.859375 -1 0.875 -1 1.078125 -1.140625 L 1.984375 -1.78125 L 1.875 -0.5 C 1.875 -0.34375 2.015625 -0.265625 2.109375 -0.265625 C 2.21875 -0.265625 2.34375 -0.34375 2.34375 -0.5 C 2.34375 -0.578125 2.3125 -0.84375 2.3125 -0.9375 C 2.28125 -1.203125 2.25 -1.5 2.234375 -1.78125 Z M 3.296875 -1.046875 "/>
</symbol>
</g>
</defs>
<g id="surface1">
<g style="fill:rgb(0%,0%,0%);fill-opacity:1;">
  <use xlink:href="#glyph0-1" x="0.5" y="8.547"/>
</g>
<g style="fill:rgb(0%,0%,0%);fill-opacity:1;">
  <use xlink:href="#glyph1-1" x="4.727" y="4.209"/>
</g>
</g>
</svg>
