<?xml version="1.0" encoding="UTF-8"?>
<svg xmlns="http://www.w3.org/2000/svg" xmlns:xlink="http://www.w3.org/1999/xlink" viewBox="0 0 72.698 12.955" version="1.2">
<defs>
<g>
<symbol overflow="visible" id="glyph0-0">
<path style="stroke:none;" d=""/>
</symbol>
<symbol overflow="visible" id="glyph0-1">
<path style="stroke:none;" d="M 3.078125 -4.9375 C 2.875 -4.9375 2.671875 -4.921875 2.46875 -4.921875 C 2.421875 -5.296875 2.46875 -5.65625 1.9375 -5.65625 C 1.578125 -5.65625 1.390625 -5.40625 1.390625 -5.125 C 1.390625 -4.921875 1.453125 -4.6875 1.640625 -4.546875 C 1.328125 -3.890625 0.015625 -2.5 -0.390625 -2.25 C -0.5 -2.171875 -0.625 -2.03125 -0.625 -1.9375 C -0.625 -1.890625 -0.59375 -1.578125 -0.46875 -1.578125 C -0.390625 -1.578125 -0.171875 -1.78125 -0.09375 -1.84375 C 0.90625 -2.703125 1.578125 -3.421875 2.140625 -4.359375 C 2.359375 -4.390625 2.59375 -4.421875 2.8125 -4.421875 C 3.109375 -4.421875 3.359375 -4.375 3.359375 -4.09375 C 3.359375 -3.71875 1.5625 -0.703125 1.5625 -0.3125 C 1.5625 0.0625 1.8125 0.0625 2.140625 0.0625 C 2.96875 0.0625 5.1875 -1.53125 5.359375 -1.703125 C 5.5 -1.828125 5.515625 -1.859375 5.515625 -2.046875 C 5.515625 -2.140625 5.515625 -2.3125 5.421875 -2.3125 C 5.390625 -2.3125 5.328125 -2.28125 5.265625 -2.234375 C 5.09375 -2.109375 2.96875 -0.59375 2.59375 -0.59375 C 2.53125 -0.59375 2.46875 -0.65625 2.46875 -0.671875 C 2.46875 -1 4.140625 -3.59375 4.140625 -4.171875 C 4.140625 -4.796875 3.84375 -4.9375 3.078125 -4.9375 Z M 3.078125 -4.9375 "/>
</symbol>
<symbol overflow="visible" id="glyph1-0">
<path style="stroke:none;" d=""/>
</symbol>
<symbol overflow="visible" id="glyph1-1">
<path style="stroke:none;" d="M 8.0625 -3.875 C 8.234375 -3.875 8.453125 -3.875 8.453125 -4.09375 C 8.453125 -4.3125 8.25 -4.3125 8.0625 -4.3125 L 1.03125 -4.3125 C 0.859375 -4.3125 0.640625 -4.3125 0.640625 -4.09375 C 0.640625 -3.875 0.84375 -3.875 1.03125 -3.875 Z M 8.0625 -1.65625 C 8.234375 -1.65625 8.453125 -1.65625 8.453125 -1.859375 C 8.453125 -2.09375 8.25 -2.09375 8.0625 -2.09375 L 1.03125 -2.09375 C 0.859375 -2.09375 0.640625 -2.09375 0.640625 -1.875 C 0.640625 -1.65625 0.84375 -1.65625 1.03125 -1.65625 Z M 8.0625 -1.65625 "/>
</symbol>
<symbol overflow="visible" id="glyph1-2">
<path style="stroke:none;" d="M 3.890625 2.90625 C 3.890625 2.875 3.890625 2.84375 3.6875 2.640625 C 2.484375 1.4375 1.8125 -0.53125 1.8125 -2.96875 C 1.8125 -5.296875 2.375 -7.296875 3.765625 -8.703125 C 3.890625 -8.8125 3.890625 -8.828125 3.890625 -8.875 C 3.890625 -8.9375 3.828125 -8.96875 3.78125 -8.96875 C 3.625 -8.96875 2.640625 -8.109375 2.0625 -6.9375 C 1.453125 -5.71875 1.171875 -4.453125 1.171875 -2.96875 C 1.171875 -1.90625 1.34375 -0.484375 1.953125 0.78125 C 2.671875 2.21875 3.640625 3 3.78125 3 C 3.828125 3 3.890625 2.96875 3.890625 2.90625 Z M 3.890625 2.90625 "/>
</symbol>
<symbol overflow="visible" id="glyph1-3">
<path style="stroke:none;" d="M 3.375 -2.96875 C 3.375 -3.890625 3.25 -5.359375 2.578125 -6.75 C 1.875 -8.1875 0.890625 -8.96875 0.765625 -8.96875 C 0.71875 -8.96875 0.65625 -8.9375 0.65625 -8.875 C 0.65625 -8.828125 0.65625 -8.8125 0.859375 -8.609375 C 2.0625 -7.40625 2.71875 -5.421875 2.71875 -2.984375 C 2.71875 -0.671875 2.15625 1.328125 0.78125 2.734375 C 0.65625 2.84375 0.65625 2.875 0.65625 2.90625 C 0.65625 2.96875 0.71875 3 0.765625 3 C 0.921875 3 1.90625 2.140625 2.484375 0.96875 C 3.09375 -0.25 3.375 -1.546875 3.375 -2.96875 Z M 3.375 -2.96875 "/>
</symbol>
<symbol overflow="visible" id="glyph2-0">
<path style="stroke:none;" d=""/>
</symbol>
<symbol overflow="visible" id="glyph2-1">
<path style="stroke:none;" d="M 5.3125 -4.8125 C 4.65625 -4.671875 4.578125 -4.09375 4.578125 -3.96875 C 4.578125 -3.703125 4.78125 -3.421875 5.171875 -3.421875 C 5.578125 -3.421875 6.03125 -3.75 6.03125 -4.359375 C 6.03125 -4.90625 5.609375 -5.40625 4.859375 -5.40625 C 4.203125 -5.40625 3.640625 -5.0625 3.28125 -4.6875 C 2.984375 -5.234375 2.3125 -5.40625 1.875 -5.40625 C 1.4375 -5.40625 1.09375 -5.15625 0.84375 -4.71875 C 0.546875 -4.25 0.375 -3.609375 0.375 -3.53125 C 0.375 -3.375 0.5625 -3.375 0.671875 -3.375 C 0.796875 -3.375 0.84375 -3.375 0.90625 -3.4375 C 0.9375 -3.453125 0.9375 -3.484375 1 -3.78125 C 1.234375 -4.6875 1.5 -4.96875 1.8125 -4.96875 C 2 -4.96875 2.09375 -4.859375 2.09375 -4.546875 C 2.09375 -4.328125 2.0625 -4.203125 1.921875 -3.640625 C 1.859375 -3.4375 1.671875 -2.640625 1.59375 -2.34375 C 1.546875 -2.109375 1.40625 -1.578125 1.34375 -1.359375 C 1.28125 -1.046875 1.140625 -0.515625 1.140625 -0.4375 C 1.140625 -0.171875 1.328125 0.09375 1.703125 0.09375 C 1.9375 0.09375 2.359375 -0.046875 2.484375 -0.53125 C 2.5 -0.578125 3.3125 -3.828125 3.328125 -3.890625 C 3.375 -4.078125 3.375 -4.09375 3.53125 -4.28125 C 3.796875 -4.625 4.25 -4.96875 4.84375 -4.96875 C 5.140625 -4.96875 5.265625 -4.84375 5.3125 -4.8125 Z M 5.3125 -4.8125 "/>
</symbol>
<symbol overflow="visible" id="glyph2-2">
<path style="stroke:none;" d="M 6.640625 -4.25 C 6.6875 -4.421875 6.765625 -4.71875 6.765625 -4.78125 C 6.765625 -5.046875 6.578125 -5.3125 6.203125 -5.3125 C 6.015625 -5.3125 5.5625 -5.21875 5.421875 -4.671875 C 5.21875 -3.921875 5 -3.046875 4.8125 -2.234375 C 4.703125 -1.8125 4.703125 -1.65625 4.703125 -1.5 C 4.703125 -1.1875 4.75 -1.1875 4.75 -1.125 C 4.75 -1.0625 4.421875 -0.328125 3.734375 -0.328125 C 2.765625 -0.328125 2.765625 -1.0625 2.765625 -1.3125 C 2.765625 -1.8125 2.90625 -2.375 3.375 -3.59375 C 3.484375 -3.84375 3.59375 -4.125 3.59375 -4.328125 C 3.59375 -5.015625 2.90625 -5.40625 2.25 -5.40625 C 0.984375 -5.40625 0.375 -3.78125 0.375 -3.53125 C 0.375 -3.375 0.5625 -3.375 0.671875 -3.375 C 0.8125 -3.375 0.890625 -3.375 0.9375 -3.53125 C 1.34375 -4.859375 1.984375 -4.96875 2.171875 -4.96875 C 2.25 -4.96875 2.375 -4.96875 2.375 -4.71875 C 2.375 -4.453125 2.265625 -4.140625 2.109375 -3.78125 C 1.65625 -2.625 1.46875 -2.03125 1.46875 -1.53125 C 1.46875 -0.21875 2.625 0.09375 3.640625 0.09375 C 3.890625 0.09375 4.4375 0.09375 4.984375 -0.578125 C 5.3125 -0.171875 5.84375 0.09375 6.78125 0.09375 C 7.5 0.09375 8.125 -0.25 8.671875 -1.296875 C 9.15625 -2.203125 9.53125 -3.703125 9.53125 -4.328125 C 9.53125 -5.421875 8.71875 -5.421875 8.71875 -5.421875 C 8.265625 -5.421875 7.8125 -4.9375 7.8125 -4.5 C 7.8125 -4.171875 8.0625 -4.03125 8.15625 -3.96875 C 8.625 -3.6875 8.765625 -3.484375 8.765625 -3.21875 C 8.765625 -3.03125 8.46875 -1.90625 8.09375 -1.25 C 7.75 -0.640625 7.375 -0.328125 6.859375 -0.328125 C 6 -0.328125 5.984375 -1.046875 5.984375 -1.28125 C 5.984375 -1.59375 6.03125 -1.765625 6.1875 -2.359375 C 6.265625 -2.71875 6.40625 -3.296875 6.484375 -3.578125 Z M 6.640625 -4.25 "/>
</symbol>
<symbol overflow="visible" id="glyph3-0">
<path style="stroke:none;" d=""/>
</symbol>
<symbol overflow="visible" id="glyph3-1">
<path style="stroke:none;" d="M 7.875 -2.75 C 8.078125 -2.75 8.296875 -2.75 8.296875 -2.984375 C 8.296875 -3.234375 8.078125 -3.234375 7.875 -3.234375 L 1.40625 -3.234375 C 1.203125 -3.234375 0.984375 -3.234375 0.984375 -2.984375 C 0.984375 -2.75 1.203125 -2.75 1.40625 -2.75 Z M 7.875 -2.75 "/>
</symbol>
<symbol overflow="visible" id="glyph4-0">
<path style="stroke:none;" d=""/>
</symbol>
<symbol overflow="visible" id="glyph4-1">
<path style="stroke:none;" d="M 2.40625 -4.8125 L 3.5 -4.8125 C 3.734375 -4.8125 3.84375 -4.8125 3.84375 -5.015625 C 3.84375 -5.15625 3.78125 -5.15625 3.53125 -5.15625 L 2.484375 -5.15625 L 2.921875 -6.890625 C 2.96875 -7.0625 2.96875 -7.09375 2.96875 -7.171875 C 2.96875 -7.359375 2.828125 -7.46875 2.671875 -7.46875 C 2.5625 -7.46875 2.296875 -7.4375 2.203125 -7.046875 L 1.734375 -5.15625 L 0.609375 -5.15625 C 0.375 -5.15625 0.265625 -5.15625 0.265625 -4.921875 C 0.265625 -4.8125 0.34375 -4.8125 0.578125 -4.8125 L 1.640625 -4.8125 L 0.84375 -1.65625 C 0.75 -1.234375 0.71875 -1.109375 0.71875 -0.953125 C 0.71875 -0.390625 1.109375 0.125 1.78125 0.125 C 2.984375 0.125 3.640625 -1.625 3.640625 -1.703125 C 3.640625 -1.78125 3.578125 -1.8125 3.515625 -1.8125 C 3.484375 -1.8125 3.4375 -1.8125 3.421875 -1.765625 C 3.40625 -1.75 3.390625 -1.75 3.3125 -1.546875 C 3.0625 -0.953125 2.515625 -0.125 1.8125 -0.125 C 1.453125 -0.125 1.4375 -0.421875 1.4375 -0.6875 C 1.4375 -0.6875 1.4375 -0.921875 1.46875 -1.0625 Z M 2.40625 -4.8125 "/>
</symbol>
<symbol overflow="visible" id="glyph5-0">
<path style="stroke:none;" d=""/>
</symbol>
<symbol overflow="visible" id="glyph5-1">
<path style="stroke:none;" d="M 1.53125 -1.09375 C 1.625 -1.4375 1.71875 -1.78125 1.796875 -2.140625 C 1.796875 -2.15625 1.859375 -2.375 1.859375 -2.421875 C 1.890625 -2.5 2.09375 -2.828125 2.296875 -3.015625 C 2.546875 -3.25 2.828125 -3.296875 2.96875 -3.296875 C 3.046875 -3.296875 3.203125 -3.28125 3.3125 -3.1875 C 2.96875 -3.109375 2.921875 -2.828125 2.921875 -2.75 C 2.921875 -2.578125 3.046875 -2.453125 3.234375 -2.453125 C 3.4375 -2.453125 3.6875 -2.625 3.6875 -2.953125 C 3.6875 -3.234375 3.4375 -3.515625 2.984375 -3.515625 C 2.4375 -3.515625 2.078125 -3.15625 1.90625 -2.9375 C 1.75 -3.515625 1.203125 -3.515625 1.125 -3.515625 C 0.84375 -3.515625 0.640625 -3.328125 0.515625 -3.078125 C 0.328125 -2.71875 0.234375 -2.3125 0.234375 -2.296875 C 0.234375 -2.21875 0.296875 -2.1875 0.359375 -2.1875 C 0.46875 -2.1875 0.46875 -2.21875 0.53125 -2.4375 C 0.625 -2.828125 0.765625 -3.296875 1.09375 -3.296875 C 1.3125 -3.296875 1.359375 -3.09375 1.359375 -2.921875 C 1.359375 -2.765625 1.3125 -2.625 1.25 -2.359375 C 1.234375 -2.296875 1.109375 -1.828125 1.078125 -1.71875 L 0.78125 -0.515625 C 0.75 -0.390625 0.703125 -0.203125 0.703125 -0.171875 C 0.703125 0.015625 0.859375 0.078125 0.96875 0.078125 C 1.25 0.078125 1.296875 -0.140625 1.359375 -0.421875 Z M 1.53125 -1.09375 "/>
</symbol>
</g>
<clipPath id="clip1">
  <path d="M 0.5 3.707031 L 6.980469 3.707031 L 6.980469 9.464844 L 0.5 9.464844 Z M 0.5 3.707031 "/>
</clipPath>
<clipPath id="clip3">
  <path d="M 1 0.707031 L 6.980469 0.707031 L 6.980469 6.464844 L 1 6.464844 Z M 1 0.707031 "/>
</clipPath>
<clipPath id="clip2">
  <rect x="0" y="0" width="7" height="7"/>
</clipPath>
<g id="surface5" clip-path="url(#clip2)">
<g clip-path="url(#clip3)" clip-rule="nonzero">
<g style="fill:rgb(0%,0%,0%);fill-opacity:1;">
  <use xlink:href="#glyph0-1" x="1.778091" y="6.357016"/>
</g>
</g>
</g>
<clipPath id="clip4">
  <path d="M 55 0 L 59 0 L 59 12.953125 L 55 12.953125 Z M 55 0 "/>
</clipPath>
<clipPath id="clip5">
  <path d="M 68 0 L 72 0 L 72 12.953125 L 68 12.953125 Z M 68 0 "/>
</clipPath>
</defs>
<g id="surface1">
<g clip-path="url(#clip1)" clip-rule="nonzero">
<use xlink:href="#surface5" transform="matrix(1,0,0,1,-0.000000000000000056,3)"/>
</g>
<g style="fill:rgb(0%,0%,0%);fill-opacity:1;">
  <use xlink:href="#glyph1-1" x="10.299" y="9.466"/>
</g>
<g style="fill:rgb(0%,0%,0%);fill-opacity:1;">
  <use xlink:href="#glyph2-1" x="22.725" y="9.466"/>
</g>
<g style="fill:rgb(0%,0%,0%);fill-opacity:1;">
  <use xlink:href="#glyph3-1" x="32.084" y="9.466"/>
</g>
<g style="fill:rgb(0%,0%,0%);fill-opacity:1;">
  <use xlink:href="#glyph2-2" x="44.039" y="9.466"/>
</g>
<g clip-path="url(#clip4)" clip-rule="nonzero">
<g style="fill:rgb(0%,0%,0%);fill-opacity:1;">
  <use xlink:href="#glyph1-2" x="54.312" y="9.466"/>
</g>
</g>
<g style="fill:rgb(0%,0%,0%);fill-opacity:1;">
  <use xlink:href="#glyph4-1" x="58.864" y="9.466"/>
</g>
<g style="fill:rgb(0%,0%,0%);fill-opacity:1;">
  <use xlink:href="#glyph5-1" x="63.091" y="11.259"/>
</g>
<g clip-path="url(#clip5)" clip-rule="nonzero">
<g style="fill:rgb(0%,0%,0%);fill-opacity:1;">
  <use xlink:href="#glyph1-3" x="67.646" y="9.466"/>
</g>
</g>
</g>
</svg>
