<?xml version="1.0" encoding="UTF-8"?>
<svg xmlns="http://www.w3.org/2000/svg" xmlns:xlink="http://www.w3.org/1999/xlink" viewBox="0 0 129.753 27.982" version="1.2">
<defs>
<g>
<symbol overflow="visible" id="glyph0-0">
<path style="stroke:none;" d=""/>
</symbol>
<symbol overflow="visible" id="glyph0-1">
<path style="stroke:none;" d="M 7.40625 -6.84375 C 7.8125 -7.484375 8.171875 -7.765625 8.78125 -7.8125 C 8.90625 -7.828125 9 -7.828125 9 -8.046875 C 9 -8.09375 8.984375 -8.15625 8.875 -8.15625 C 8.65625 -8.15625 8.140625 -8.140625 7.921875 -8.140625 C 7.578125 -8.140625 7.21875 -8.15625 6.890625 -8.15625 C 6.796875 -8.15625 6.671875 -8.15625 6.671875 -7.9375 C 6.671875 -7.828125 6.78125 -7.8125 6.828125 -7.8125 C 7.265625 -7.78125 7.3125 -7.5625 7.3125 -7.421875 C 7.3125 -7.25 7.140625 -6.96875 7.140625 -6.953125 L 3.375 -1 L 2.546875 -7.453125 C 2.546875 -7.796875 3.171875 -7.8125 3.296875 -7.8125 C 3.484375 -7.8125 3.578125 -7.8125 3.578125 -8.046875 C 3.578125 -8.15625 3.453125 -8.15625 3.421875 -8.15625 C 3.21875 -8.15625 2.96875 -8.140625 2.765625 -8.140625 L 2.109375 -8.140625 C 1.234375 -8.140625 0.875 -8.15625 0.859375 -8.15625 C 0.78125 -8.15625 0.640625 -8.15625 0.640625 -7.953125 C 0.640625 -7.8125 0.734375 -7.8125 0.921875 -7.8125 C 1.53125 -7.8125 1.5625 -7.703125 1.609375 -7.40625 L 2.5625 -0.03125 C 2.59375 0.21875 2.59375 0.25 2.765625 0.25 C 2.90625 0.25 2.96875 0.21875 3.078125 0.03125 Z M 7.40625 -6.84375 "/>
</symbol>
<symbol overflow="visible" id="glyph0-2">
<path style="stroke:none;" d="M 2.328125 0.046875 C 2.328125 -0.640625 2.109375 -1.15625 1.609375 -1.15625 C 1.234375 -1.15625 1.046875 -0.84375 1.046875 -0.578125 C 1.046875 -0.328125 1.21875 0 1.625 0 C 1.78125 0 1.90625 -0.046875 2.015625 -0.15625 C 2.046875 -0.171875 2.0625 -0.171875 2.0625 -0.171875 C 2.09375 -0.171875 2.09375 -0.015625 2.09375 0.046875 C 2.09375 0.4375 2.015625 1.21875 1.328125 2 C 1.1875 2.140625 1.1875 2.15625 1.1875 2.1875 C 1.1875 2.25 1.25 2.3125 1.3125 2.3125 C 1.40625 2.3125 2.328125 1.421875 2.328125 0.046875 Z M 2.328125 0.046875 "/>
</symbol>
<symbol overflow="visible" id="glyph0-3">
<path style="stroke:none;" d="M 2.40625 -4.8125 L 3.5 -4.8125 C 3.734375 -4.8125 3.84375 -4.8125 3.84375 -5.015625 C 3.84375 -5.15625 3.78125 -5.15625 3.53125 -5.15625 L 2.484375 -5.15625 L 2.921875 -6.890625 C 2.96875 -7.0625 2.96875 -7.09375 2.96875 -7.171875 C 2.96875 -7.359375 2.828125 -7.46875 2.671875 -7.46875 C 2.5625 -7.46875 2.296875 -7.4375 2.203125 -7.046875 L 1.734375 -5.15625 L 0.609375 -5.15625 C 0.375 -5.15625 0.265625 -5.15625 0.265625 -4.921875 C 0.265625 -4.8125 0.34375 -4.8125 0.578125 -4.8125 L 1.640625 -4.8125 L 0.84375 -1.65625 C 0.75 -1.234375 0.71875 -1.109375 0.71875 -0.953125 C 0.71875 -0.390625 1.109375 0.125 1.78125 0.125 C 2.984375 0.125 3.640625 -1.625 3.640625 -1.703125 C 3.640625 -1.78125 3.578125 -1.8125 3.515625 -1.8125 C 3.484375 -1.8125 3.4375 -1.8125 3.421875 -1.765625 C 3.40625 -1.75 3.390625 -1.75 3.3125 -1.546875 C 3.0625 -0.953125 2.515625 -0.125 1.8125 -0.125 C 1.453125 -0.125 1.4375 -0.421875 1.4375 -0.6875 C 1.4375 -0.6875 1.4375 -0.921875 1.46875 -1.0625 Z M 2.40625 -4.8125 "/>
</symbol>
<symbol overflow="visible" id="glyph0-4">
<path style="stroke:none;" d="M 3.09375 -4.5 L 4.453125 -4.5 C 4.125 -3.171875 3.921875 -2.296875 3.921875 -1.34375 C 3.921875 -1.171875 3.921875 0.125 4.40625 0.125 C 4.65625 0.125 4.875 -0.109375 4.875 -0.3125 C 4.875 -0.375 4.875 -0.390625 4.796875 -0.578125 C 4.46875 -1.40625 4.46875 -2.421875 4.46875 -2.515625 C 4.46875 -2.578125 4.46875 -3.4375 4.71875 -4.5 L 6.0625 -4.5 C 6.21875 -4.5 6.609375 -4.5 6.609375 -4.890625 C 6.609375 -5.15625 6.390625 -5.15625 6.171875 -5.15625 L 2.234375 -5.15625 C 1.953125 -5.15625 1.546875 -5.15625 1 -4.5625 C 0.6875 -4.21875 0.3125 -3.578125 0.3125 -3.515625 C 0.3125 -3.4375 0.375 -3.421875 0.4375 -3.421875 C 0.53125 -3.421875 0.53125 -3.453125 0.59375 -3.53125 C 1.21875 -4.5 1.84375 -4.5 2.140625 -4.5 L 2.828125 -4.5 C 2.5625 -3.609375 2.265625 -2.5625 1.28125 -0.484375 C 1.1875 -0.28125 1.1875 -0.265625 1.1875 -0.1875 C 1.1875 0.0625 1.40625 0.125 1.5 0.125 C 1.859375 0.125 1.953125 -0.1875 2.09375 -0.6875 C 2.28125 -1.296875 2.28125 -1.328125 2.40625 -1.8125 Z M 3.09375 -4.5 "/>
</symbol>
<symbol overflow="visible" id="glyph0-5">
<path style="stroke:none;" d="M 3.484375 -2.71875 C 3.65625 -2.71875 3.859375 -2.71875 3.859375 -2.90625 C 3.859375 -3.0625 3.734375 -3.0625 3.53125 -3.0625 L 1.59375 -3.0625 C 1.890625 -4.140625 2.59375 -4.8125 3.65625 -4.8125 L 4 -4.8125 C 4.203125 -4.8125 4.390625 -4.8125 4.390625 -5 C 4.390625 -5.15625 4.25 -5.15625 4.046875 -5.15625 L 3.640625 -5.15625 C 2.15625 -5.15625 0.546875 -3.984375 0.546875 -2.109375 C 0.546875 -0.78125 1.453125 0.125 2.625 0.125 C 3.390625 0.125 4.140625 -0.359375 4.140625 -0.484375 C 4.140625 -0.546875 4.109375 -0.625 4.046875 -0.625 C 4 -0.625 3.984375 -0.609375 3.921875 -0.5625 C 3.46875 -0.265625 3.03125 -0.125 2.671875 -0.125 C 2.03125 -0.125 1.359375 -0.53125 1.359375 -1.703125 C 1.359375 -1.921875 1.390625 -2.234375 1.5 -2.71875 Z M 3.484375 -2.71875 "/>
</symbol>
<symbol overflow="visible" id="glyph0-6">
<path style="stroke:none;" d="M 5.265625 -5.15625 C 5.265625 -5.21875 5.21875 -5.265625 5.15625 -5.265625 C 5.0625 -5.265625 4.609375 -4.828125 4.375 -4.40625 C 4.15625 -4.953125 3.796875 -5.265625 3.28125 -5.265625 C 1.921875 -5.265625 0.46875 -3.53125 0.46875 -1.75 C 0.46875 -0.578125 1.15625 0.125 1.96875 0.125 C 2.609375 0.125 3.125 -0.359375 3.375 -0.640625 L 3.390625 -0.625 L 2.9375 1.171875 L 2.828125 1.609375 C 2.71875 1.953125 2.546875 1.953125 1.984375 1.96875 C 1.859375 1.96875 1.734375 1.96875 1.734375 2.203125 C 1.734375 2.28125 1.8125 2.3125 1.890625 2.3125 C 2.0625 2.3125 2.265625 2.296875 2.4375 2.296875 L 3.65625 2.296875 C 3.84375 2.296875 4.046875 2.3125 4.21875 2.3125 C 4.296875 2.3125 4.4375 2.3125 4.4375 2.09375 C 4.4375 1.96875 4.34375 1.96875 4.15625 1.96875 C 3.59375 1.96875 3.5625 1.890625 3.5625 1.796875 C 3.5625 1.734375 3.578125 1.71875 3.609375 1.5625 Z M 3.578125 -1.421875 C 3.53125 -1.21875 3.53125 -1.1875 3.359375 -0.96875 C 3.09375 -0.640625 2.5625 -0.125 2.015625 -0.125 C 1.515625 -0.125 1.25 -0.5625 1.25 -1.265625 C 1.25 -1.921875 1.609375 -3.265625 1.84375 -3.765625 C 2.25 -4.609375 2.8125 -5.03125 3.28125 -5.03125 C 4.0625 -5.03125 4.21875 -4.046875 4.21875 -3.953125 C 4.21875 -3.9375 4.1875 -3.796875 4.171875 -3.765625 Z M 3.578125 -1.421875 "/>
</symbol>
<symbol overflow="visible" id="glyph1-0">
<path style="stroke:none;" d=""/>
</symbol>
<symbol overflow="visible" id="glyph1-1">
<path style="stroke:none;" d="M 3.890625 2.90625 C 3.890625 2.875 3.890625 2.84375 3.6875 2.640625 C 2.484375 1.4375 1.8125 -0.53125 1.8125 -2.96875 C 1.8125 -5.296875 2.375 -7.296875 3.765625 -8.703125 C 3.890625 -8.8125 3.890625 -8.828125 3.890625 -8.875 C 3.890625 -8.9375 3.828125 -8.96875 3.78125 -8.96875 C 3.625 -8.96875 2.640625 -8.109375 2.0625 -6.9375 C 1.453125 -5.71875 1.171875 -4.453125 1.171875 -2.96875 C 1.171875 -1.90625 1.34375 -0.484375 1.953125 0.78125 C 2.671875 2.21875 3.640625 3 3.78125 3 C 3.828125 3 3.890625 2.96875 3.890625 2.90625 Z M 3.890625 2.90625 "/>
</symbol>
<symbol overflow="visible" id="glyph1-2">
<path style="stroke:none;" d="M 3.375 -2.96875 C 3.375 -3.890625 3.25 -5.359375 2.578125 -6.75 C 1.875 -8.1875 0.890625 -8.96875 0.765625 -8.96875 C 0.71875 -8.96875 0.65625 -8.9375 0.65625 -8.875 C 0.65625 -8.828125 0.65625 -8.8125 0.859375 -8.609375 C 2.0625 -7.40625 2.71875 -5.421875 2.71875 -2.984375 C 2.71875 -0.671875 2.15625 1.328125 0.78125 2.734375 C 0.65625 2.84375 0.65625 2.875 0.65625 2.90625 C 0.65625 2.96875 0.71875 3 0.765625 3 C 0.921875 3 1.90625 2.140625 2.484375 0.96875 C 3.09375 -0.25 3.375 -1.546875 3.375 -2.96875 Z M 3.375 -2.96875 "/>
</symbol>
<symbol overflow="visible" id="glyph1-3">
<path style="stroke:none;" d="M 8.0625 -3.875 C 8.234375 -3.875 8.453125 -3.875 8.453125 -4.09375 C 8.453125 -4.3125 8.25 -4.3125 8.0625 -4.3125 L 1.03125 -4.3125 C 0.859375 -4.3125 0.640625 -4.3125 0.640625 -4.09375 C 0.640625 -3.875 0.84375 -3.875 1.03125 -3.875 Z M 8.0625 -1.65625 C 8.234375 -1.65625 8.453125 -1.65625 8.453125 -1.859375 C 8.453125 -2.09375 8.25 -2.09375 8.0625 -2.09375 L 1.03125 -2.09375 C 0.859375 -2.09375 0.640625 -2.09375 0.640625 -1.875 C 0.640625 -1.65625 0.84375 -1.65625 1.03125 -1.65625 Z M 8.0625 -1.65625 "/>
</symbol>
<symbol overflow="visible" id="glyph1-4">
<path style="stroke:none;" d="M 3.4375 -7.65625 C 3.4375 -7.9375 3.4375 -7.953125 3.203125 -7.953125 C 2.921875 -7.625 2.3125 -7.1875 1.09375 -7.1875 L 1.09375 -6.84375 C 1.359375 -6.84375 1.953125 -6.84375 2.625 -7.140625 L 2.625 -0.921875 C 2.625 -0.484375 2.578125 -0.34375 1.53125 -0.34375 L 1.15625 -0.34375 L 1.15625 0 C 1.484375 -0.03125 2.640625 -0.03125 3.03125 -0.03125 C 3.4375 -0.03125 4.578125 -0.03125 4.90625 0 L 4.90625 -0.34375 L 4.53125 -0.34375 C 3.484375 -0.34375 3.4375 -0.484375 3.4375 -0.921875 Z M 3.4375 -7.65625 "/>
</symbol>
<symbol overflow="visible" id="glyph1-5">
<path style="stroke:none;" d="M 4.3125 -7.78125 C 4.3125 -8.015625 4.3125 -8.0625 4.140625 -8.0625 C 4.046875 -8.0625 4.015625 -8.0625 3.921875 -7.921875 L 0.328125 -2.34375 L 0.328125 -2 L 3.46875 -2 L 3.46875 -0.90625 C 3.46875 -0.46875 3.4375 -0.34375 2.5625 -0.34375 L 2.328125 -0.34375 L 2.328125 0 C 2.609375 -0.03125 3.546875 -0.03125 3.890625 -0.03125 C 4.21875 -0.03125 5.171875 -0.03125 5.453125 0 L 5.453125 -0.34375 L 5.21875 -0.34375 C 4.34375 -0.34375 4.3125 -0.46875 4.3125 -0.90625 L 4.3125 -2 L 5.515625 -2 L 5.515625 -2.34375 L 4.3125 -2.34375 Z M 3.53125 -6.84375 L 3.53125 -2.34375 L 0.625 -2.34375 Z M 3.53125 -6.84375 "/>
</symbol>
<symbol overflow="visible" id="glyph2-0">
<path style="stroke:none;" d=""/>
</symbol>
<symbol overflow="visible" id="glyph2-1">
<path style="stroke:none;" d="M 5.3125 -4.8125 C 4.65625 -4.671875 4.578125 -4.09375 4.578125 -3.96875 C 4.578125 -3.703125 4.78125 -3.421875 5.171875 -3.421875 C 5.578125 -3.421875 6.03125 -3.75 6.03125 -4.359375 C 6.03125 -4.90625 5.609375 -5.40625 4.859375 -5.40625 C 4.203125 -5.40625 3.640625 -5.0625 3.28125 -4.6875 C 2.984375 -5.234375 2.3125 -5.40625 1.875 -5.40625 C 1.4375 -5.40625 1.09375 -5.15625 0.84375 -4.71875 C 0.546875 -4.25 0.375 -3.609375 0.375 -3.53125 C 0.375 -3.375 0.5625 -3.375 0.671875 -3.375 C 0.796875 -3.375 0.84375 -3.375 0.90625 -3.4375 C 0.9375 -3.453125 0.9375 -3.484375 1 -3.78125 C 1.234375 -4.6875 1.5 -4.96875 1.8125 -4.96875 C 2 -4.96875 2.09375 -4.859375 2.09375 -4.546875 C 2.09375 -4.328125 2.0625 -4.203125 1.921875 -3.640625 C 1.859375 -3.4375 1.671875 -2.640625 1.59375 -2.34375 C 1.546875 -2.109375 1.40625 -1.578125 1.34375 -1.359375 C 1.28125 -1.046875 1.140625 -0.515625 1.140625 -0.4375 C 1.140625 -0.171875 1.328125 0.09375 1.703125 0.09375 C 1.9375 0.09375 2.359375 -0.046875 2.484375 -0.53125 C 2.5 -0.578125 3.3125 -3.828125 3.328125 -3.890625 C 3.375 -4.078125 3.375 -4.09375 3.53125 -4.28125 C 3.796875 -4.625 4.25 -4.96875 4.84375 -4.96875 C 5.140625 -4.96875 5.265625 -4.84375 5.3125 -4.8125 Z M 5.3125 -4.8125 "/>
</symbol>
<symbol overflow="visible" id="glyph2-2">
<path style="stroke:none;" d="M 0.234375 1.953125 C 0.234375 1.984375 0.1875 2.140625 0.1875 2.15625 C 0.1875 2.3125 0.375 2.3125 0.484375 2.3125 C 0.71875 2.3125 0.71875 2.296875 0.78125 2.046875 C 0.828125 1.859375 1.546875 -1.015625 1.546875 -1.046875 C 2.0625 -0.203125 2.96875 0.140625 3.9375 0.140625 C 6.328125 0.140625 7.671875 -1.6875 7.671875 -3.25 C 7.671875 -4.09375 7.296875 -4.546875 6.90625 -4.84375 C 7.34375 -5.203125 7.828125 -5.96875 7.828125 -6.796875 C 7.828125 -7.8125 7.09375 -8.390625 5.96875 -8.390625 C 4.25 -8.390625 2.484375 -7.0625 2.0625 -5.328125 Z M 5.65625 -4.796875 C 5.359375 -4.59375 5.0625 -4.59375 4.90625 -4.59375 C 4.859375 -4.59375 4.328125 -4.59375 4.328125 -4.6875 C 4.328125 -4.875 4.90625 -4.875 5.0625 -4.875 C 5.28125 -4.875 5.421875 -4.875 5.65625 -4.796875 Z M 6.0625 -5.21875 C 5.671875 -5.3125 5.328125 -5.3125 5.109375 -5.3125 C 4.71875 -5.3125 3.75 -5.3125 3.75 -4.65625 C 3.75 -4.15625 4.46875 -4.15625 4.890625 -4.15625 C 5.09375 -4.15625 5.625 -4.15625 6.171875 -4.390625 C 6.265625 -4.203125 6.296875 -3.96875 6.296875 -3.765625 C 6.296875 -3.328125 5.984375 -1.890625 5.625 -1.265625 C 5.25 -0.6875 4.65625 -0.28125 3.90625 -0.28125 C 2.796875 -0.28125 1.859375 -0.953125 1.859375 -2.03125 C 1.859375 -2.265625 1.921875 -2.515625 1.953125 -2.640625 C 2.125 -3.34375 2.515625 -4.90625 2.65625 -5.4375 C 3.03125 -6.734375 4.484375 -7.953125 5.90625 -7.953125 C 6.34375 -7.953125 6.609375 -7.75 6.609375 -7.28125 C 6.609375 -6.90625 6.328125 -5.671875 6.0625 -5.21875 Z M 6.0625 -5.21875 "/>
</symbol>
<symbol overflow="visible" id="glyph3-0">
<path style="stroke:none;" d=""/>
</symbol>
<symbol overflow="visible" id="glyph3-1">
<path style="stroke:none;" d="M 3.890625 -2.546875 C 3.890625 -3.390625 3.8125 -3.90625 3.546875 -4.421875 C 3.203125 -5.125 2.546875 -5.296875 2.109375 -5.296875 C 1.109375 -5.296875 0.734375 -4.546875 0.625 -4.328125 C 0.34375 -3.75 0.328125 -2.953125 0.328125 -2.546875 C 0.328125 -2.015625 0.34375 -1.21875 0.734375 -0.578125 C 1.09375 0.015625 1.6875 0.171875 2.109375 0.171875 C 2.5 0.171875 3.171875 0.046875 3.578125 -0.734375 C 3.875 -1.3125 3.890625 -2.03125 3.890625 -2.546875 Z M 2.109375 -0.0625 C 1.84375 -0.0625 1.296875 -0.1875 1.125 -1.015625 C 1.03125 -1.46875 1.03125 -2.21875 1.03125 -2.640625 C 1.03125 -3.1875 1.03125 -3.75 1.125 -4.1875 C 1.296875 -5 1.90625 -5.078125 2.109375 -5.078125 C 2.375 -5.078125 2.9375 -4.9375 3.09375 -4.21875 C 3.1875 -3.78125 3.1875 -3.171875 3.1875 -2.640625 C 3.1875 -2.171875 3.1875 -1.453125 3.09375 -1 C 2.921875 -0.171875 2.375 -0.0625 2.109375 -0.0625 Z M 2.109375 -0.0625 "/>
</symbol>
<symbol overflow="visible" id="glyph4-0">
<path style="stroke:none;" d=""/>
</symbol>
<symbol overflow="visible" id="glyph4-1">
<path style="stroke:none;" d="M 1.90625 -8.53125 C 1.90625 -8.75 1.90625 -8.96875 1.65625 -8.96875 C 1.421875 -8.96875 1.421875 -8.75 1.421875 -8.53125 L 1.421875 2.5625 C 1.421875 2.765625 1.421875 2.984375 1.65625 2.984375 C 1.90625 2.984375 1.90625 2.765625 1.90625 2.5625 Z M 1.90625 -8.53125 "/>
</symbol>
<symbol overflow="visible" id="glyph4-2">
<path style="stroke:none;" d="M 7.875 -2.75 C 8.078125 -2.75 8.296875 -2.75 8.296875 -2.984375 C 8.296875 -3.234375 8.078125 -3.234375 7.875 -3.234375 L 1.40625 -3.234375 C 1.203125 -3.234375 0.984375 -3.234375 0.984375 -2.984375 C 0.984375 -2.75 1.203125 -2.75 1.40625 -2.75 Z M 7.875 -2.75 "/>
</symbol>
<symbol overflow="visible" id="glyph4-3">
<path style="stroke:none;" d="M 2.296875 -2.984375 C 2.296875 -3.328125 2.015625 -3.625 1.65625 -3.625 C 1.3125 -3.625 1.03125 -3.328125 1.03125 -2.984375 C 1.03125 -2.640625 1.3125 -2.359375 1.65625 -2.359375 C 2.015625 -2.359375 2.296875 -2.640625 2.296875 -2.984375 Z M 2.296875 -2.984375 "/>
</symbol>
<symbol overflow="visible" id="glyph5-0">
<path style="stroke:none;" d=""/>
</symbol>
<symbol overflow="visible" id="glyph5-1">
<path style="stroke:none;" d="M 3.078125 -4.9375 C 2.875 -4.9375 2.671875 -4.921875 2.46875 -4.921875 C 2.421875 -5.296875 2.46875 -5.65625 1.9375 -5.65625 C 1.578125 -5.65625 1.390625 -5.40625 1.390625 -5.125 C 1.390625 -4.921875 1.453125 -4.6875 1.640625 -4.546875 C 1.328125 -3.890625 0.015625 -2.5 -0.390625 -2.25 C -0.5 -2.171875 -0.625 -2.03125 -0.625 -1.9375 C -0.625 -1.890625 -0.59375 -1.578125 -0.46875 -1.578125 C -0.390625 -1.578125 -0.171875 -1.78125 -0.09375 -1.84375 C 0.90625 -2.703125 1.578125 -3.421875 2.140625 -4.359375 C 2.359375 -4.390625 2.59375 -4.421875 2.8125 -4.421875 C 3.109375 -4.421875 3.359375 -4.375 3.359375 -4.09375 C 3.359375 -3.71875 1.5625 -0.703125 1.5625 -0.3125 C 1.5625 0.0625 1.8125 0.0625 2.140625 0.0625 C 2.96875 0.0625 5.1875 -1.53125 5.359375 -1.703125 C 5.5 -1.828125 5.515625 -1.859375 5.515625 -2.046875 C 5.515625 -2.140625 5.515625 -2.3125 5.421875 -2.3125 C 5.390625 -2.3125 5.328125 -2.28125 5.265625 -2.234375 C 5.09375 -2.109375 2.96875 -0.59375 2.59375 -0.59375 C 2.53125 -0.59375 2.46875 -0.65625 2.46875 -0.671875 C 2.46875 -1 4.140625 -3.59375 4.140625 -4.171875 C 4.140625 -4.796875 3.84375 -4.9375 3.078125 -4.9375 Z M 3.078125 -4.9375 "/>
</symbol>
<symbol overflow="visible" id="glyph6-0">
<path style="stroke:none;" d=""/>
</symbol>
<symbol overflow="visible" id="glyph6-1">
<path style="stroke:none;" d="M 1.484375 -4.859375 C 1.484375 -4.6875 1.546875 -4.46875 1.703125 -4.359375 C 1.203125 -3.59375 0.546875 -2.921875 -0.28125 -2.265625 C -0.359375 -2.1875 -0.375 -2.078125 -0.375 -1.609375 C -0.375 -1.296875 -0.375 -1.140625 -0.265625 -1.140625 C -0.171875 -1.140625 1.875 -2.703125 2.46875 -3.46875 C 2.703125 -3.734375 2.78125 -3.828125 3.09375 -3.828125 C 3.25 -3.828125 3.390625 -3.8125 3.390625 -3.71875 C 3.390625 -3.5625 1.84375 -1.15625 1.84375 -0.65625 C 1.84375 -0.171875 2.109375 0.078125 2.8125 0.078125 C 3.484375 0.078125 4.890625 -0.59375 5.765625 -1.265625 C 5.90625 -1.359375 5.9375 -1.5 5.9375 -1.796875 C 5.9375 -2.203125 5.828125 -2.375 5.734375 -2.375 C 5.65625 -2.375 5.5625 -2.265625 5.34375 -2.078125 C 5.015625 -1.828125 3.984375 -1.234375 3.828125 -1.234375 C 3.734375 -1.234375 3.625 -1.265625 3.625 -1.375 C 3.625 -1.390625 3.671875 -1.46875 3.734375 -1.578125 C 4.453125 -2.8125 5.015625 -3.65625 5.015625 -4.0625 C 5.015625 -4.53125 4.609375 -4.8125 4.078125 -4.8125 C 3.796875 -4.8125 3.5 -4.734375 3.328125 -4.734375 C 3.1875 -4.734375 3.15625 -5.078125 3.15625 -5.1875 C 3.15625 -5.375 2.859375 -5.734375 2.34375 -5.734375 C 1.8125 -5.734375 1.484375 -5.3125 1.484375 -4.859375 Z M 1.484375 -4.859375 "/>
</symbol>
</g>
<clipPath id="clip1">
  <path d="M 78 15 L 79 15 L 79 27.980469 L 78 27.980469 Z M 78 15 "/>
</clipPath>
<clipPath id="clip2">
  <path d="M 80.238281 18.734375 L 86.71875 18.734375 L 86.71875 24.492188 L 80.238281 24.492188 Z M 80.238281 18.734375 "/>
</clipPath>
<clipPath id="clip4">
  <path d="M 0.238281 0.734375 L 6.71875 0.734375 L 6.71875 6.492188 L 0.238281 6.492188 Z M 0.238281 0.734375 "/>
</clipPath>
<clipPath id="clip3">
  <rect x="0" y="0" width="7" height="7"/>
</clipPath>
<g id="surface5" clip-path="url(#clip3)">
<g clip-path="url(#clip4)" clip-rule="nonzero">
<g style="fill:rgb(0%,0%,0%);fill-opacity:1;">
  <use xlink:href="#glyph5-1" x="1.517091" y="6.384016"/>
</g>
</g>
</g>
<clipPath id="clip5">
  <path d="M 101.328125 18.734375 L 107.808594 18.734375 L 107.808594 24.492188 L 101.328125 24.492188 Z M 101.328125 18.734375 "/>
</clipPath>
<clipPath id="clip7">
  <path d="M 1 0.734375 L 6.808594 0.734375 L 6.808594 6.492188 L 1 6.492188 Z M 1 0.734375 "/>
</clipPath>
<clipPath id="clip6">
  <rect x="0" y="0" width="7" height="7"/>
</clipPath>
<g id="surface8" clip-path="url(#clip6)">
<g clip-path="url(#clip7)" clip-rule="nonzero">
<g style="fill:rgb(13.729858%,12.159729%,12.548828%);fill-opacity:1;">
  <use xlink:href="#glyph6-1" x="1.395781" y="6.3778"/>
</g>
</g>
</g>
<clipPath id="clip8">
  <path d="M 126 15 L 127 15 L 127 27.980469 L 126 27.980469 Z M 126 15 "/>
</clipPath>
</defs>
<g id="surface1">
<g style="fill:rgb(0%,0%,0%);fill-opacity:1;">
  <use xlink:href="#glyph0-1" x="0.5" y="16.293"/>
</g>
<g style="fill:rgb(0%,0%,0%);fill-opacity:1;">
  <use xlink:href="#glyph1-1" x="9.926" y="16.293"/>
</g>
<g style="fill:rgb(0%,0%,0%);fill-opacity:1;">
  <use xlink:href="#glyph2-1" x="14.478" y="16.293"/>
</g>
<g style="fill:rgb(0%,0%,0%);fill-opacity:1;">
  <use xlink:href="#glyph0-2" x="21.181" y="16.293"/>
</g>
<g style="fill:rgb(0%,0%,0%);fill-opacity:1;">
  <use xlink:href="#glyph0-3" x="26.429333" y="16.293"/>
</g>
<g style="fill:rgb(0%,0%,0%);fill-opacity:1;">
  <use xlink:href="#glyph1-2" x="30.652" y="16.293"/>
</g>
<g style="fill:rgb(0%,0%,0%);fill-opacity:1;">
  <use xlink:href="#glyph1-3" x="38.528086" y="16.293"/>
</g>
<g style="fill:rgb(0%,0%,0%);fill-opacity:1;">
  <use xlink:href="#glyph1-4" x="60.41" y="8.205"/>
</g>
<path style="fill:none;stroke-width:0.478;stroke-linecap:butt;stroke-linejoin:miter;stroke:rgb(0%,0%,0%);stroke-opacity:1;stroke-miterlimit:10;" d="M -0.00146875 -0.0006875 L 22.381344 -0.0006875 " transform="matrix(1,0,0,-1,52.146,13.304)"/>
<g style="fill:rgb(0%,0%,0%);fill-opacity:1;">
  <use xlink:href="#glyph1-5" x="52.146" y="24.493"/>
</g>
<g style="fill:rgb(0%,0%,0%);fill-opacity:1;">
  <use xlink:href="#glyph0-4" x="57.999" y="24.493"/>
</g>
<g style="fill:rgb(0%,0%,0%);fill-opacity:1;">
  <use xlink:href="#glyph0-5" x="65.069305" y="24.493"/>
</g>
<g style="fill:rgb(0%,0%,0%);fill-opacity:1;">
  <use xlink:href="#glyph3-1" x="69.795" y="26.286"/>
</g>
<g style="fill:rgb(0%,0%,0%);fill-opacity:1;">
  <use xlink:href="#glyph0-6" x="99.678" y="8.205"/>
</g>
<path style="fill:none;stroke-width:0.478;stroke-linecap:butt;stroke-linejoin:miter;stroke:rgb(0%,0%,0%);stroke-opacity:1;stroke-miterlimit:10;" d="M -0.00003125 -0.0006875 L 51.140594 -0.0006875 " transform="matrix(1,0,0,-1,76.918,13.304)"/>
<g clip-path="url(#clip1)" clip-rule="nonzero">
<g style="fill:rgb(0%,0%,0%);fill-opacity:1;">
  <use xlink:href="#glyph4-1" x="76.918" y="24.493"/>
</g>
</g>
<g clip-path="url(#clip2)" clip-rule="nonzero">
<use xlink:href="#surface5" transform="matrix(1,0,0,1,80,18)"/>
</g>
<g style="fill:rgb(0%,0%,0%);fill-opacity:1;">
  <use xlink:href="#glyph4-2" x="89.375" y="24.493"/>
</g>
<g clip-path="url(#clip5)" clip-rule="nonzero">
<use xlink:href="#surface8" transform="matrix(1,0,0,1,101,18)"/>
</g>
<g style="fill:rgb(0%,0%,0%);fill-opacity:1;">
  <use xlink:href="#glyph4-3" x="110.465" y="24.493"/>
</g>
<g style="fill:rgb(0%,0%,0%);fill-opacity:1;">
  <use xlink:href="#glyph2-2" x="116.443" y="24.493"/>
</g>
<g clip-path="url(#clip8)" clip-rule="nonzero">
<g style="fill:rgb(0%,0%,0%);fill-opacity:1;">
  <use xlink:href="#glyph4-1" x="124.736" y="24.493"/>
</g>
</g>
</g>
</svg>
