<?xml version="1.0" encoding="UTF-8"?>
<svg xmlns="http://www.w3.org/2000/svg" xmlns:xlink="http://www.w3.org/1999/xlink" viewBox="0 0 24.075 12.955" version="1.2">
<defs>
<g>
<symbol overflow="visible" id="glyph0-0">
<path style="stroke:none;" d=""/>
</symbol>
<symbol overflow="visible" id="glyph0-1">
<path style="stroke:none;" d="M 5.328125 -4.8125 C 5.5625 -4.8125 5.671875 -4.8125 5.671875 -5.03125 C 5.671875 -5.15625 5.5625 -5.15625 5.359375 -5.15625 L 4.390625 -5.15625 C 4.609375 -6.390625 4.78125 -7.234375 4.875 -7.609375 C 4.953125 -7.90625 5.203125 -8.171875 5.515625 -8.171875 C 5.765625 -8.171875 6.015625 -8.0625 6.125 -7.953125 C 5.671875 -7.90625 5.515625 -7.5625 5.515625 -7.359375 C 5.515625 -7.125 5.703125 -6.984375 5.921875 -6.984375 C 6.171875 -6.984375 6.53125 -7.1875 6.53125 -7.640625 C 6.53125 -8.140625 6.03125 -8.421875 5.5 -8.421875 C 4.984375 -8.421875 4.484375 -8.03125 4.25 -7.5625 C 4.03125 -7.140625 3.90625 -6.71875 3.640625 -5.15625 L 2.828125 -5.15625 C 2.609375 -5.15625 2.484375 -5.15625 2.484375 -4.9375 C 2.484375 -4.8125 2.5625 -4.8125 2.796875 -4.8125 L 3.5625 -4.8125 C 3.34375 -3.6875 2.859375 -0.984375 2.578125 0.28125 C 2.375 1.328125 2.203125 2.203125 1.609375 2.203125 C 1.5625 2.203125 1.21875 2.203125 1 1.96875 C 1.609375 1.921875 1.609375 1.40625 1.609375 1.390625 C 1.609375 1.140625 1.4375 1 1.203125 1 C 0.96875 1 0.609375 1.203125 0.609375 1.65625 C 0.609375 2.171875 1.140625 2.4375 1.609375 2.4375 C 2.828125 2.4375 3.328125 0.25 3.453125 -0.34375 C 3.671875 -1.265625 4.25 -4.453125 4.3125 -4.8125 Z M 5.328125 -4.8125 "/>
</symbol>
<symbol overflow="visible" id="glyph1-0">
<path style="stroke:none;" d=""/>
</symbol>
<symbol overflow="visible" id="glyph1-1">
<path style="stroke:none;" d="M 3.890625 2.90625 C 3.890625 2.875 3.890625 2.84375 3.6875 2.640625 C 2.484375 1.4375 1.8125 -0.53125 1.8125 -2.96875 C 1.8125 -5.296875 2.375 -7.296875 3.765625 -8.703125 C 3.890625 -8.8125 3.890625 -8.828125 3.890625 -8.875 C 3.890625 -8.9375 3.828125 -8.96875 3.78125 -8.96875 C 3.625 -8.96875 2.640625 -8.109375 2.0625 -6.9375 C 1.453125 -5.71875 1.171875 -4.453125 1.171875 -2.96875 C 1.171875 -1.90625 1.34375 -0.484375 1.953125 0.78125 C 2.671875 2.21875 3.640625 3 3.78125 3 C 3.828125 3 3.890625 2.96875 3.890625 2.90625 Z M 3.890625 2.90625 "/>
</symbol>
<symbol overflow="visible" id="glyph1-2">
<path style="stroke:none;" d="M 3.375 -2.96875 C 3.375 -3.890625 3.25 -5.359375 2.578125 -6.75 C 1.875 -8.1875 0.890625 -8.96875 0.765625 -8.96875 C 0.71875 -8.96875 0.65625 -8.9375 0.65625 -8.875 C 0.65625 -8.828125 0.65625 -8.8125 0.859375 -8.609375 C 2.0625 -7.40625 2.71875 -5.421875 2.71875 -2.984375 C 2.71875 -0.671875 2.15625 1.328125 0.78125 2.734375 C 0.65625 2.84375 0.65625 2.875 0.65625 2.90625 C 0.65625 2.96875 0.71875 3 0.765625 3 C 0.921875 3 1.90625 2.140625 2.484375 0.96875 C 3.09375 -0.25 3.375 -1.546875 3.375 -2.96875 Z M 3.375 -2.96875 "/>
</symbol>
<symbol overflow="visible" id="glyph2-0">
<path style="stroke:none;" d=""/>
</symbol>
<symbol overflow="visible" id="glyph2-1">
<path style="stroke:none;" d="M 6.484375 -5.1875 C 6.484375 -5.25 6.4375 -5.40625 6.28125 -5.40625 C 6.265625 -5.40625 5.5625 -5.234375 5.1875 -4.890625 C 5.015625 -5.078125 4.609375 -5.40625 3.90625 -5.40625 C 1.828125 -5.40625 0.53125 -3.515625 0.53125 -1.875 C 0.53125 -0.40625 1.640625 0.09375 2.625 0.09375 C 3.203125 0.09375 3.6875 -0.125 3.9375 -0.28125 L 3.484375 1.53125 C 3.4375 1.703125 3.421875 1.71875 3.328125 1.734375 C 3.203125 1.75 3.015625 1.75 2.875 1.75 C 2.671875 1.75 2.609375 1.75 2.546875 1.828125 C 2.484375 1.90625 2.453125 2.09375 2.453125 2.109375 C 2.453125 2.171875 2.5 2.3125 2.6875 2.3125 C 3.09375 2.3125 3.53125 2.28125 3.953125 2.28125 C 4.40625 2.28125 4.859375 2.3125 5.28125 2.3125 C 5.359375 2.3125 5.59375 2.3125 5.59375 1.96875 C 5.59375 1.765625 5.390625 1.75 5.28125 1.75 C 5.109375 1.75 4.921875 1.75 4.765625 1.75 Z M 4.1875 -1.28125 C 4.125 -1.078125 4.125 -1.046875 4 -0.9375 C 3.609375 -0.546875 3.109375 -0.328125 2.6875 -0.328125 C 1.953125 -0.328125 1.890625 -0.984375 1.890625 -1.25 C 1.890625 -1.859375 2.296875 -3.328125 2.484375 -3.796875 C 2.859375 -4.671875 3.4375 -4.96875 3.9375 -4.96875 C 4.640625 -4.96875 4.921875 -4.40625 4.921875 -4.28125 C 4.921875 -4.234375 4.90625 -4.140625 4.90625 -4.109375 Z M 4.1875 -1.28125 "/>
</symbol>
</g>
<clipPath id="clip1">
  <path d="M 8 0 L 12 0 L 12 12.953125 L 8 12.953125 Z M 8 0 "/>
</clipPath>
<clipPath id="clip2">
  <path d="M 19 0 L 23 0 L 23 12.953125 L 19 12.953125 Z M 19 0 "/>
</clipPath>
</defs>
<g id="surface1">
<g style="fill:rgb(0%,0%,0%);fill-opacity:1;">
  <use xlink:href="#glyph0-1" x="0.5" y="9.466"/>
</g>
<g clip-path="url(#clip1)" clip-rule="nonzero">
<g style="fill:rgb(0%,0%,0%);fill-opacity:1;">
  <use xlink:href="#glyph1-1" x="7.546" y="9.466"/>
</g>
</g>
<g style="fill:rgb(0%,0%,0%);fill-opacity:1;">
  <use xlink:href="#glyph2-1" x="12.099" y="9.466"/>
</g>
<g clip-path="url(#clip2)" clip-rule="nonzero">
<g style="fill:rgb(0%,0%,0%);fill-opacity:1;">
  <use xlink:href="#glyph1-2" x="19.023" y="9.466"/>
</g>
</g>
</g>
</svg>
