<?xml version="1.0" encoding="UTF-8"?>
<svg xmlns="http://www.w3.org/2000/svg" xmlns:xlink="http://www.w3.org/1999/xlink" viewBox="0 0 12.202 10.963" version="1.2">
<defs>
<g>
<symbol overflow="visible" id="glyph0-0">
<path style="stroke:none;" d=""/>
</symbol>
<symbol overflow="visible" id="glyph0-1">
<path style="stroke:none;" d="M 6.390625 -7.34375 C 6.484375 -7.703125 6.5 -7.8125 7.09375 -7.8125 C 7.28125 -7.8125 7.40625 -7.8125 7.40625 -8.03125 C 7.40625 -8.15625 7.296875 -8.15625 7.25 -8.15625 C 7.046875 -8.15625 6.8125 -8.140625 6.59375 -8.140625 L 5.9375 -8.140625 C 5.4375 -8.140625 4.90625 -8.15625 4.40625 -8.15625 C 4.296875 -8.15625 4.15625 -8.15625 4.15625 -7.953125 C 4.15625 -7.828125 4.25 -7.828125 4.25 -7.8125 L 4.546875 -7.8125 C 5.515625 -7.8125 5.515625 -7.71875 5.515625 -7.546875 C 5.515625 -7.53125 5.515625 -7.453125 5.46875 -7.25 L 4.09375 -1.796875 C 3.78125 -0.578125 2.96875 0.015625 2.40625 0.015625 C 2 0.015625 1.421875 -0.171875 1.28125 -0.8125 C 1.328125 -0.796875 1.390625 -0.78125 1.4375 -0.78125 C 1.828125 -0.78125 2.140625 -1.140625 2.140625 -1.484375 C 2.140625 -1.671875 2.015625 -1.921875 1.65625 -1.921875 C 1.453125 -1.921875 0.9375 -1.8125 0.9375 -1.03125 C 0.9375 -0.28125 1.5625 0.25 2.421875 0.25 C 3.515625 0.25 4.6875 -0.578125 4.96875 -1.703125 Z M 6.390625 -7.34375 "/>
</symbol>
<symbol overflow="visible" id="glyph1-0">
<path style="stroke:none;" d=""/>
</symbol>
<symbol overflow="visible" id="glyph1-1">
<path style="stroke:none;" d="M 3.890625 -2.546875 C 3.890625 -3.390625 3.8125 -3.90625 3.546875 -4.421875 C 3.203125 -5.125 2.546875 -5.296875 2.109375 -5.296875 C 1.109375 -5.296875 0.734375 -4.546875 0.625 -4.328125 C 0.34375 -3.75 0.328125 -2.953125 0.328125 -2.546875 C 0.328125 -2.015625 0.34375 -1.21875 0.734375 -0.578125 C 1.09375 0.015625 1.6875 0.171875 2.109375 0.171875 C 2.5 0.171875 3.171875 0.046875 3.578125 -0.734375 C 3.875 -1.3125 3.890625 -2.03125 3.890625 -2.546875 Z M 2.109375 -0.0625 C 1.84375 -0.0625 1.296875 -0.1875 1.125 -1.015625 C 1.03125 -1.46875 1.03125 -2.21875 1.03125 -2.640625 C 1.03125 -3.1875 1.03125 -3.75 1.125 -4.1875 C 1.296875 -5 1.90625 -5.078125 2.109375 -5.078125 C 2.375 -5.078125 2.9375 -4.9375 3.09375 -4.21875 C 3.1875 -3.78125 3.1875 -3.171875 3.1875 -2.640625 C 3.1875 -2.171875 3.1875 -1.453125 3.09375 -1 C 2.921875 -0.171875 2.375 -0.0625 2.109375 -0.0625 Z M 2.109375 -0.0625 "/>
</symbol>
</g>
<clipPath id="clip1">
  <path d="M 7 5 L 11 5 L 11 10.964844 L 7 10.964844 Z M 7 5 "/>
</clipPath>
</defs>
<g id="surface1">
<g style="fill:rgb(0%,0%,0%);fill-opacity:1;">
  <use xlink:href="#glyph0-1" x="0.5" y="8.67"/>
</g>
<g clip-path="url(#clip1)" clip-rule="nonzero">
<g style="fill:rgb(0%,0%,0%);fill-opacity:1;">
  <use xlink:href="#glyph1-1" x="6.97" y="10.463"/>
</g>
</g>
</g>
</svg>
