<?xml version="1.0" encoding="UTF-8"?>
<svg xmlns="http://www.w3.org/2000/svg" xmlns:xlink="http://www.w3.org/1999/xlink" viewBox="0 0 50.672 27.317" version="1.2">
<defs>
<g>
<symbol overflow="visible" id="glyph0-0">
<path style="stroke:none;" d=""/>
</symbol>
<symbol overflow="visible" id="glyph0-1">
<path style="stroke:none;" d="M 8.484375 -7.984375 C 8.5 -8.015625 8.53125 -8.203125 8.53125 -8.21875 C 8.53125 -8.375 8.40625 -8.40625 8.3125 -8.40625 C 8.234375 -8.40625 8.21875 -8.40625 8.0625 -8.265625 L 7.40625 -7.703125 C 6.9375 -8.1875 6.296875 -8.40625 5.5 -8.40625 C 3.28125 -8.40625 2.203125 -6.6875 2.203125 -5.46875 C 2.203125 -4.84375 2.484375 -4.390625 2.765625 -4.109375 C 3.1875 -3.734375 3.484375 -3.6875 4.359375 -3.484375 C 4.640625 -3.40625 4.953125 -3.328125 5.296875 -3.265625 C 5.5 -3.21875 6.234375 -3.046875 6.234375 -2.1875 C 6.234375 -1.609375 5.75 -0.359375 4.203125 -0.359375 C 3.90625 -0.359375 3.125 -0.390625 2.5625 -0.71875 C 1.890625 -1.140625 1.890625 -1.703125 1.890625 -1.953125 C 1.890625 -2.046875 1.890625 -2.21875 1.953125 -2.4375 C 1.953125 -2.46875 1.953125 -2.53125 1.953125 -2.5625 C 1.953125 -2.71875 1.796875 -2.71875 1.6875 -2.71875 C 1.453125 -2.71875 1.4375 -2.671875 1.375 -2.453125 L 0.765625 0.03125 C 0.765625 0.171875 0.875 0.203125 0.96875 0.203125 C 1.078125 0.203125 1.078125 0.1875 1.203125 0.078125 C 1.25 0.0625 1.703125 -0.328125 1.890625 -0.484375 C 2.5625 0.109375 3.578125 0.203125 4.140625 0.203125 C 6.484375 0.203125 7.53125 -1.75 7.53125 -2.96875 C 7.53125 -3.609375 7.265625 -4.09375 7 -4.359375 C 6.5625 -4.796875 6.28125 -4.859375 5.265625 -5.078125 L 4.34375 -5.296875 C 3.8125 -5.421875 3.484375 -5.78125 3.484375 -6.25 C 3.484375 -6.828125 4.015625 -7.890625 5.46875 -7.890625 C 6.453125 -7.890625 7.359375 -7.46875 7.359375 -6.125 C 7.359375 -5.90625 7.328125 -5.6875 7.328125 -5.65625 C 7.328125 -5.46875 7.5 -5.46875 7.609375 -5.46875 C 7.84375 -5.46875 7.859375 -5.5 7.90625 -5.734375 Z M 8.484375 -7.984375 "/>
</symbol>
<symbol overflow="visible" id="glyph0-2">
<path style="stroke:none;" d="M 9.328125 -2.84375 C 9.40625 -3 9.40625 -3.046875 9.40625 -3.0625 C 9.40625 -3.28125 9.1875 -3.28125 9.125 -3.28125 C 8.921875 -3.28125 8.921875 -3.25 8.78125 -2.921875 C 8.0625 -1.34375 7.4375 -0.5625 5.421875 -0.5625 L 3.859375 -0.5625 C 3.6875 -0.5625 3.65625 -0.5625 3.578125 -0.578125 L 4.40625 -3.9375 L 5.234375 -3.9375 C 5.9375 -3.9375 6.1875 -3.828125 6.1875 -3.421875 C 6.1875 -3.234375 6.09375 -2.90625 6.078125 -2.875 L 6.078125 -2.75 C 6.078125 -2.5625 6.234375 -2.53125 6.34375 -2.53125 C 6.578125 -2.53125 6.59375 -2.609375 6.640625 -2.828125 L 7.3125 -5.484375 C 7.359375 -5.640625 7.359375 -5.671875 7.359375 -5.671875 C 7.359375 -5.890625 7.125 -5.890625 7.078125 -5.890625 C 6.84375 -5.890625 6.828125 -5.8125 6.765625 -5.578125 C 6.53125 -4.6875 6.171875 -4.5 5.265625 -4.5 L 4.546875 -4.5 L 5.3125 -7.546875 C 5.46875 -7.5625 5.59375 -7.5625 5.71875 -7.5625 L 7.28125 -7.5625 C 8.578125 -7.5625 9.109375 -7.28125 9.109375 -6.140625 C 9.109375 -5.921875 9.0625 -5.671875 9.0625 -5.46875 C 9.0625 -5.25 9.28125 -5.25 9.34375 -5.25 C 9.59375 -5.25 9.609375 -5.359375 9.640625 -5.578125 L 9.84375 -7.71875 L 9.859375 -7.90625 C 9.859375 -8.125 9.65625 -8.125 9.46875 -8.125 L 2.84375 -8.125 C 2.59375 -8.125 2.578125 -8.109375 2.515625 -8.0625 C 2.4375 -8.015625 2.421875 -7.796875 2.421875 -7.78125 C 2.421875 -7.5625 2.578125 -7.5625 2.90625 -7.5625 C 3.15625 -7.5625 3.375 -7.546875 3.640625 -7.546875 L 1.953125 -0.796875 C 1.90625 -0.609375 1.890625 -0.59375 1.671875 -0.578125 C 1.46875 -0.5625 1.234375 -0.5625 1.046875 -0.5625 C 0.734375 -0.5625 0.703125 -0.5625 0.65625 -0.53125 C 0.515625 -0.453125 0.515625 -0.265625 0.515625 -0.21875 C 0.515625 0 0.71875 0 0.921875 0 L 7.75 0 C 8.03125 0 8.078125 0 8.1875 -0.25 Z M 9.328125 -2.84375 "/>
</symbol>
<symbol overflow="visible" id="glyph1-0">
<path style="stroke:none;" d=""/>
</symbol>
<symbol overflow="visible" id="glyph1-1">
<path style="stroke:none;" d="M 8.0625 -3.875 C 8.234375 -3.875 8.453125 -3.875 8.453125 -4.09375 C 8.453125 -4.3125 8.25 -4.3125 8.0625 -4.3125 L 1.03125 -4.3125 C 0.859375 -4.3125 0.640625 -4.3125 0.640625 -4.09375 C 0.640625 -3.875 0.84375 -3.875 1.03125 -3.875 Z M 8.0625 -1.65625 C 8.234375 -1.65625 8.453125 -1.65625 8.453125 -1.859375 C 8.453125 -2.09375 8.25 -2.09375 8.0625 -2.09375 L 1.03125 -2.09375 C 0.859375 -2.09375 0.640625 -2.09375 0.640625 -1.875 C 0.640625 -1.65625 0.84375 -1.65625 1.03125 -1.65625 Z M 8.0625 -1.65625 "/>
</symbol>
<symbol overflow="visible" id="glyph1-2">
<path style="stroke:none;" d="M 3.4375 -7.65625 C 3.4375 -7.9375 3.4375 -7.953125 3.203125 -7.953125 C 2.921875 -7.625 2.3125 -7.1875 1.09375 -7.1875 L 1.09375 -6.84375 C 1.359375 -6.84375 1.953125 -6.84375 2.625 -7.140625 L 2.625 -0.921875 C 2.625 -0.484375 2.578125 -0.34375 1.53125 -0.34375 L 1.15625 -0.34375 L 1.15625 0 C 1.484375 -0.03125 2.640625 -0.03125 3.03125 -0.03125 C 3.4375 -0.03125 4.578125 -0.03125 4.90625 0 L 4.90625 -0.34375 L 4.53125 -0.34375 C 3.484375 -0.34375 3.4375 -0.484375 3.4375 -0.921875 Z M 3.4375 -7.65625 "/>
</symbol>
<symbol overflow="visible" id="glyph2-0">
<path style="stroke:none;" d=""/>
</symbol>
<symbol overflow="visible" id="glyph2-1">
<path style="stroke:none;" d="M 1.71875 -0.265625 C 2.015625 0.015625 2.46875 0.125 2.875 0.125 C 3.640625 0.125 4.15625 -0.390625 4.4375 -0.765625 C 4.546875 -0.125 5.0625 0.125 5.46875 0.125 C 5.828125 0.125 6.125 -0.09375 6.328125 -0.53125 C 6.53125 -0.9375 6.6875 -1.65625 6.6875 -1.703125 C 6.6875 -1.765625 6.640625 -1.8125 6.578125 -1.8125 C 6.46875 -1.8125 6.453125 -1.75 6.40625 -1.578125 C 6.234375 -0.875 6 -0.125 5.515625 -0.125 C 5.15625 -0.125 5.140625 -0.4375 5.140625 -0.671875 C 5.140625 -0.9375 5.25 -1.375 5.328125 -1.734375 L 5.671875 -3.03125 C 5.71875 -3.25 5.84375 -3.796875 5.90625 -4 C 5.96875 -4.296875 6.109375 -4.8125 6.109375 -4.859375 C 6.109375 -5.03125 5.96875 -5.15625 5.78125 -5.15625 C 5.671875 -5.15625 5.421875 -5.109375 5.328125 -4.75 L 4.5 -1.421875 C 4.4375 -1.1875 4.4375 -1.15625 4.28125 -0.96875 C 4.140625 -0.765625 3.671875 -0.125 2.921875 -0.125 C 2.25 -0.125 2.03125 -0.609375 2.03125 -1.171875 C 2.03125 -1.515625 2.140625 -1.9375 2.1875 -2.140625 L 2.71875 -4.296875 C 2.78125 -4.515625 2.875 -4.90625 2.875 -4.96875 C 2.875 -5.15625 2.71875 -5.265625 2.5625 -5.265625 C 2.46875 -5.265625 2.203125 -5.234375 2.109375 -4.859375 L 0.375 2.0625 C 0.359375 2.125 0.328125 2.203125 0.328125 2.265625 C 0.328125 2.453125 0.484375 2.5625 0.65625 2.5625 C 1 2.5625 1.078125 2.296875 1.15625 1.953125 Z M 1.71875 -0.265625 "/>
</symbol>
<symbol overflow="visible" id="glyph3-0">
<path style="stroke:none;" d=""/>
</symbol>
<symbol overflow="visible" id="glyph3-1">
<path style="stroke:none;" d="M 3.890625 -2.546875 C 3.890625 -3.390625 3.8125 -3.90625 3.546875 -4.421875 C 3.203125 -5.125 2.546875 -5.296875 2.109375 -5.296875 C 1.109375 -5.296875 0.734375 -4.546875 0.625 -4.328125 C 0.34375 -3.75 0.328125 -2.953125 0.328125 -2.546875 C 0.328125 -2.015625 0.34375 -1.21875 0.734375 -0.578125 C 1.09375 0.015625 1.6875 0.171875 2.109375 0.171875 C 2.5 0.171875 3.171875 0.046875 3.578125 -0.734375 C 3.875 -1.3125 3.890625 -2.03125 3.890625 -2.546875 Z M 2.109375 -0.0625 C 1.84375 -0.0625 1.296875 -0.1875 1.125 -1.015625 C 1.03125 -1.46875 1.03125 -2.21875 1.03125 -2.640625 C 1.03125 -3.1875 1.03125 -3.75 1.125 -4.1875 C 1.296875 -5 1.90625 -5.078125 2.109375 -5.078125 C 2.375 -5.078125 2.9375 -4.9375 3.09375 -4.21875 C 3.1875 -3.78125 3.1875 -3.171875 3.1875 -2.640625 C 3.1875 -2.171875 3.1875 -1.453125 3.09375 -1 C 2.921875 -0.171875 2.375 -0.0625 2.109375 -0.0625 Z M 2.109375 -0.0625 "/>
</symbol>
</g>
<clipPath id="clip1">
  <path d="M 26 19 L 34 19 L 34 27.316406 L 26 27.316406 Z M 26 19 "/>
</clipPath>
</defs>
<g id="surface1">
<g style="fill:rgb(0%,0%,0%);fill-opacity:1;">
  <use xlink:href="#glyph0-1" x="0.5" y="16.292"/>
</g>
<g style="fill:rgb(0%,0%,0%);fill-opacity:1;">
  <use xlink:href="#glyph1-1" x="12.746" y="16.292"/>
</g>
<g style="fill:rgb(0%,0%,0%);fill-opacity:1;">
  <use xlink:href="#glyph1-2" x="29.328" y="8.204"/>
</g>
<path style="fill:none;stroke-width:0.478;stroke-linecap:butt;stroke-linejoin:miter;stroke:rgb(0%,0%,0%);stroke-opacity:1;stroke-miterlimit:10;" d="M 0.0001875 -0.0016875 L 11.773625 -0.0016875 " transform="matrix(1,0,0,-1,26.367,13.303)"/>
<g clip-path="url(#clip1)" clip-rule="nonzero">
<g style="fill:rgb(0%,0%,0%);fill-opacity:1;">
  <use xlink:href="#glyph2-1" x="26.367" y="24.492"/>
</g>
</g>
<g style="fill:rgb(0%,0%,0%);fill-opacity:1;">
  <use xlink:href="#glyph3-1" x="33.41" y="26.286"/>
</g>
<g style="fill:rgb(0%,0%,0%);fill-opacity:1;">
  <use xlink:href="#glyph0-2" x="39.337" y="16.292"/>
</g>
</g>
</svg>
