<?xml version="1.0" encoding="UTF-8"?>
<svg xmlns="http://www.w3.org/2000/svg" xmlns:xlink="http://www.w3.org/1999/xlink" viewBox="0 0 8.439 9.302" version="1.2">
<defs>
<g>
<symbol overflow="visible" id="glyph0-0">
<path style="stroke:none;" d=""/>
</symbol>
<symbol overflow="visible" id="glyph0-1">
<path style="stroke:none;" d="M 3.78125 -7.875 C 3.828125 -8.046875 3.828125 -8.0625 3.828125 -8.078125 C 3.828125 -8.234375 3.6875 -8.296875 3.5625 -8.296875 C 3.515625 -8.296875 3.5 -8.296875 3.484375 -8.28125 L 1.9375 -8.21875 C 1.765625 -8.203125 1.546875 -8.1875 1.546875 -7.859375 C 1.546875 -7.640625 1.78125 -7.640625 1.859375 -7.640625 C 2 -7.640625 2.21875 -7.640625 2.359375 -7.609375 L 0.640625 -0.71875 C 0.640625 -0.671875 0.59375 -0.484375 0.59375 -0.4375 C 0.59375 -0.15625 0.828125 0.09375 1.171875 0.09375 C 1.390625 0.09375 1.734375 -0.015625 1.90625 -0.375 C 1.9375 -0.484375 2.109375 -1.1875 2.453125 -2.5625 C 2.671875 -2.546875 3.71875 -2.40625 3.71875 -1.671875 C 3.71875 -1.59375 3.71875 -1.546875 3.6875 -1.421875 C 3.640625 -1.265625 3.640625 -1.25 3.640625 -1.140625 C 3.640625 -0.359375 4.390625 0.09375 5.171875 0.09375 C 6.375 0.09375 6.8125 -1.671875 6.8125 -1.765625 C 6.8125 -1.9375 6.640625 -1.9375 6.53125 -1.9375 C 6.3125 -1.9375 6.28125 -1.90625 6.234375 -1.703125 C 6.125 -1.34375 5.84375 -0.328125 5.234375 -0.328125 C 5.046875 -0.328125 4.921875 -0.4375 4.921875 -0.796875 C 4.921875 -0.921875 4.953125 -1.140625 5.015625 -1.421875 C 5.0625 -1.546875 5.0625 -1.640625 5.0625 -1.71875 C 5.0625 -2.734375 3.84375 -2.921875 2.984375 -3.015625 C 3.109375 -3.09375 3.390625 -3.28125 4.046875 -3.921875 C 4.96875 -4.828125 5.46875 -4.96875 5.828125 -4.96875 C 6.0625 -4.96875 6.140625 -4.84375 6.140625 -4.828125 C 5.546875 -4.75 5.3125 -4.265625 5.3125 -3.96875 C 5.3125 -3.703125 5.515625 -3.421875 5.921875 -3.421875 C 6.140625 -3.421875 6.78125 -3.578125 6.78125 -4.421875 C 6.78125 -5.046875 6.390625 -5.40625 5.875 -5.40625 C 5.140625 -5.40625 4.484375 -4.875 3.78125 -4.203125 C 3.65625 -4.0625 3.078125 -3.515625 2.625 -3.265625 Z M 3.78125 -7.875 "/>
</symbol>
</g>
</defs>
<g id="surface1">
<g style="fill:rgb(0%,0%,0%);fill-opacity:1;">
  <use xlink:href="#glyph0-1" x="0.5" y="8.802"/>
</g>
</g>
</svg>
