[
{
"fs_vec": [
-2.712e-07,
-0.0001999988,
0.0
],
"n_fs": 128,
"n_ss": 64,
"name": "p0a0",
"parent_data_shape": [
16,
512,
128
],
"parent_data_slice": [
0,
[
0,
64,
null
],
[
0,
128,
null
]
],
"ss_vec": [
0.0001999988,
-2.712e-07,
0.0
],
"t_vec": [
-0.10676880000000001,
0.12600360000000002,
0.126089
]
},
{
"fs_vec": [
-2.712e-07,
-0.0001999988,
0.0
],
"n_fs": 128,
"n_ss": 64,
"name": "p0a1",
"parent_data_shape": [
16,
512,
128
],
"parent_data_slice": [
0,
[
64,
128,
null
],
[
0,
128,
null
]
],
"ss_vec": [
0.0001999988,
-2.712e-07,
0.0
],
"t_vec": [
-0.09356900000000001,
0.1259816,
0.126089
]
},
{
"fs_vec": [
-2.712e-07,
-0.0001999988,
0.0
],
"n_fs": 128,
"n_ss": 64,
"name": "p0a2",
"parent_data_shape": [
16,
512,
128
],
"parent_data_slice": [
0,
[
128,
192,
null
],
[
0,
128,
null
]
],
"ss_vec": [
0.0001999988,
-2.712e-07,
0.0
],
"t_vec": [
-0.0803702,
0.1259594,
0.126089
]
},
{
"fs_vec": [
-2.712e-07,
-0.0001999988,
0.0
],
"n_fs": 128,
"n_ss": 64,
"name": "p0a3",
"parent_data_shape": [
16,
512,
128
],
"parent_data_slice": [
0,
[
192,
256,
null
],
[
0,
128,
null
]
],
"ss_vec": [
0.0001999988,
-2.712e-07,
0.0
],
"t_vec": [
-0.0671698,
0.1259374,
0.126089
]
},
{
"fs_vec": [
-2.712e-07,
-0.0001999988,
0.0
],
"n_fs": 128,
"n_ss": 64,
"name": "p0a4",
"parent_data_shape": [
16,
512,
128
],
"parent_data_slice": [
0,
[
256,
320,
null
],
[
0,
128,
null
]
],
"ss_vec": [
0.0001999988,
-2.712e-07,
0.0
],
"t_vec": [
-0.0539698,
0.1259144,
0.126089
]
},
{
"fs_vec": [
-2.712e-07,
-0.0001999988,
0.0
],
"n_fs": 128,
"n_ss": 64,
"name": "p0a5",
"parent_data_shape": [
16,
512,
128
],
"parent_data_slice": [
0,
[
320,
384,
null
],
[
0,
128,
null
]
],
"ss_vec": [
0.0001999988,
-2.712e-07,
0.0
],
"t_vec": [
-0.040769400000000004,
0.12591460000000002,
0.126089
]
},
{
"fs_vec": [
-2.712e-07,
-0.0001999988,
0.0
],
"n_fs": 128,
"n_ss": 64,
"name": "p0a6",
"parent_data_shape": [
16,
512,
128
],
"parent_data_slice": [
0,
[
384,
448,
null
],
[
0,
128,
null
]
],
"ss_vec": [
0.0001999988,
-2.712e-07,
0.0
],
"t_vec": [
-0.027569400000000004,
0.1258966,
0.126089
]
},
{
"fs_vec": [
-2.712e-07,
-0.0001999988,
0.0
],
"n_fs": 128,
"n_ss": 64,
"name": "p0a7",
"parent_data_shape": [
16,
512,
128
],
"parent_data_slice": [
0,
[
448,
512,
null
],
[
0,
128,
null
]
],
"ss_vec": [
0.0001999988,
-2.712e-07,
0.0
],
"t_vec": [
-0.014369300000000002,
0.1258786,
0.126089
]
},
{
"fs_vec": [
-1.3200000000000002e-08,
-0.0002,
0.0
],
"n_fs": 128,
"n_ss": 64,
"name": "p1a0",
"parent_data_shape": [
16,
512,
128
],
"parent_data_slice": [
1,
[
0,
64,
null
],
[
0,
128,
null
]
],
"ss_vec": [
0.0002,
-1.3200000000000002e-08,
0.0
],
"t_vec": [
-0.10692700000000001,
0.09454860000000001,
0.125911
]
},
{
"fs_vec": [
-1.3200000000000002e-08,
-0.0002,
0.0
],
"n_fs": 128,
"n_ss": 64,
"name": "p1a1",
"parent_data_shape": [
16,
512,
128
],
"parent_data_slice": [
1,
[
64,
128,
null
],
[
0,
128,
null
]
],
"ss_vec": [
0.0002,
-1.3200000000000002e-08,
0.0
],
"t_vec": [
-0.09372720000000001,
0.09455000000000001,
0.125911
]
},
{
"fs_vec": [
-1.3200000000000002e-08,
-0.0002,
0.0
],
"n_fs": 128,
"n_ss": 64,
"name": "p1a2",
"parent_data_shape": [
16,
512,
128
],
"parent_data_slice": [
1,
[
128,
192,
null
],
[
0,
128,
null
]
],
"ss_vec": [
0.0002,
-1.3200000000000002e-08,
0.0
],
"t_vec": [
-0.0805274,
0.0945516,
0.125911
]
},
{
"fs_vec": [
-1.3200000000000002e-08,
-0.0002,
0.0
],
"n_fs": 128,
"n_ss": 64,
"name": "p1a3",
"parent_data_shape": [
16,
512,
128
],
"parent_data_slice": [
1,
[
192,
256,
null
],
[
0,
128,
null
]
],
"ss_vec": [
0.0002,
-1.3200000000000002e-08,
0.0
],
"t_vec": [
-0.0673282,
0.0945528,
0.125911
]
},
{
"fs_vec": [
-1.3200000000000002e-08,
-0.0002,
0.0
],
"n_fs": 128,
"n_ss": 64,
"name": "p1a4",
"parent_data_shape": [
16,
512,
128
],
"parent_data_slice": [
1,
[
256,
320,
null
],
[
0,
128,
null
]
],
"ss_vec": [
0.0002,
-1.3200000000000002e-08,
0.0
],
"t_vec": [
-0.0541286,
0.0945544,
0.125911
]
},
{
"fs_vec": [
-1.3200000000000002e-08,
-0.0002,
0.0
],
"n_fs": 128,
"n_ss": 64,
"name": "p1a5",
"parent_data_shape": [
16,
512,
128
],
"parent_data_slice": [
1,
[
320,
384,
null
],
[
0,
128,
null
]
],
"ss_vec": [
0.0002,
-1.3200000000000002e-08,
0.0
],
"t_vec": [
-0.0409294,
0.09455580000000001,
0.125911
]
},
{
"fs_vec": [
-1.3200000000000002e-08,
-0.0002,
0.0
],
"n_fs": 128,
"n_ss": 64,
"name": "p1a6",
"parent_data_shape": [
16,
512,
128
],
"parent_data_slice": [
1,
[
384,
448,
null
],
[
0,
128,
null
]
],
"ss_vec": [
0.0002,
-1.3200000000000002e-08,
0.0
],
"t_vec": [
-0.027725400000000004,
0.0945576,
0.125911
]
},
{
"fs_vec": [
-1.3200000000000002e-08,
-0.0002,
0.0
],
"n_fs": 128,
"n_ss": 64,
"name": "p1a7",
"parent_data_shape": [
16,
512,
128
],
"parent_data_slice": [
1,
[
448,
512,
null
],
[
0,
128,
null
]
],
"ss_vec": [
0.0002,
-1.3200000000000002e-08,
0.0
],
"t_vec": [
-0.014525640000000003,
0.094559,
0.125911
]
},
{
"fs_vec": [
2.744e-07,
-0.0002,
0.0
],
"n_fs": 128,
"n_ss": 64,
"name": "p2a0",
"parent_data_shape": [
16,
512,
128
],
"parent_data_slice": [
2,
[
0,
64,
null
],
[
0,
128,
null
]
],
"ss_vec": [
0.0002,
2.744e-07,
0.0
],
"t_vec": [
-0.10682080000000001,
0.06302780000000001,
0.125662
]
},
{
"fs_vec": [
2.744e-07,
-0.0002,
0.0
],
"n_fs": 128,
"n_ss": 64,
"name": "p2a1",
"parent_data_shape": [
16,
512,
128
],
"parent_data_slice": [
2,
[
64,
128,
null
],
[
0,
128,
null
]
],
"ss_vec": [
0.0002,
2.744e-07,
0.0
],
"t_vec": [
-0.0936212,
0.06304420000000001,
0.125662
]
},
{
"fs_vec": [
2.744e-07,
-0.0002,
0.0
],
"n_fs": 128,
"n_ss": 64,
"name": "p2a2",
"parent_data_shape": [
16,
512,
128
],
"parent_data_slice": [
2,
[
128,
192,
null
],
[
0,
128,
null
]
],
"ss_vec": [
0.0002,
2.744e-07,
0.0
],
"t_vec": [
-0.0804214,
0.0630608,
0.125662
]
},
{
"fs_vec": [
2.744e-07,
-0.0002,
0.0
],
"n_fs": 128,
"n_ss": 64,
"name": "p2a3",
"parent_data_shape": [
16,
512,
128
],
"parent_data_slice": [
2,
[
192,
256,
null
],
[
0,
128,
null
]
],
"ss_vec": [
0.0002,
2.744e-07,
0.0
],
"t_vec": [
-0.06722140000000001,
0.0630776,
0.125662
]
},
{
"fs_vec": [
2.744e-07,
-0.0002,
0.0
],
"n_fs": 128,
"n_ss": 64,
"name": "p2a4",
"parent_data_shape": [
16,
512,
128
],
"parent_data_slice": [
2,
[
256,
320,
null
],
[
0,
128,
null
]
],
"ss_vec": [
0.0002,
2.744e-07,
0.0
],
"t_vec": [
-0.0540216,
0.0630938,
0.125662
]
},
{
"fs_vec": [
2.744e-07,
-0.0002,
0.0
],
"n_fs": 128,
"n_ss": 64,
"name": "p2a5",
"parent_data_shape": [
16,
512,
128
],
"parent_data_slice": [
2,
[
320,
384,
null
],
[
0,
128,
null
]
],
"ss_vec": [
0.0002,
2.744e-07,
0.0
],
"t_vec": [
-0.040822000000000004,
0.06311040000000001,
0.125662
]
},
{
"fs_vec": [
2.744e-07,
-0.0002,
0.0
],
"n_fs": 128,
"n_ss": 64,
"name": "p2a6",
"parent_data_shape": [
16,
512,
128
],
"parent_data_slice": [
2,
[
384,
448,
null
],
[
0,
128,
null
]
],
"ss_vec": [
0.0002,
2.744e-07,
0.0
],
"t_vec": [
-0.027619400000000002,
0.063127,
0.125662
]
},
{
"fs_vec": [
2.744e-07,
-0.0002,
0.0
],
"n_fs": 128,
"n_ss": 64,
"name": "p2a7",
"parent_data_shape": [
16,
512,
128
],
"parent_data_slice": [
2,
[
448,
512,
null
],
[
0,
128,
null
]
],
"ss_vec": [
0.0002,
2.744e-07,
0.0
],
"t_vec": [
-0.01441872,
0.06314320000000001,
0.125662
]
},
{
"fs_vec": [
7.824e-07,
-0.0001999988,
0.0
],
"n_fs": 128,
"n_ss": 64,
"name": "p3a0",
"parent_data_shape": [
16,
512,
128
],
"parent_data_slice": [
3,
[
0,
64,
null
],
[
0,
128,
null
]
],
"ss_vec": [
0.0001999988,
7.824e-07,
0.0
],
"t_vec": [
-0.10689860000000001,
0.0315338,
0.125897
]
},
{
"fs_vec": [
7.824e-07,
-0.0001999988,
0.0
],
"n_fs": 128,
"n_ss": 64,
"name": "p3a1",
"parent_data_shape": [
16,
512,
128
],
"parent_data_slice": [
3,
[
64,
128,
null
],
[
0,
128,
null
]
],
"ss_vec": [
0.0001999988,
7.824e-07,
0.0
],
"t_vec": [
-0.09369960000000001,
0.0315862,
0.125897
]
},
{
"fs_vec": [
7.824e-07,
-0.0001999988,
0.0
],
"n_fs": 128,
"n_ss": 64,
"name": "p3a2",
"parent_data_shape": [
16,
512,
128
],
"parent_data_slice": [
3,
[
128,
192,
null
],
[
0,
128,
null
]
],
"ss_vec": [
0.0001999988,
7.824e-07,
0.0
],
"t_vec": [
-0.0805,
0.031638,
0.125897
]
},
{
"fs_vec": [
7.824e-07,
-0.0001999988,
0.0
],
"n_fs": 128,
"n_ss": 64,
"name": "p3a3",
"parent_data_shape": [
16,
512,
128
],
"parent_data_slice": [
3,
[
192,
256,
null
],
[
0,
128,
null
]
],
"ss_vec": [
0.0001999988,
7.824e-07,
0.0
],
"t_vec": [
-0.06730119999999999,
0.031689800000000004,
0.125897
]
},
{
"fs_vec": [
7.824e-07,
-0.0001999988,
0.0
],
"n_fs": 128,
"n_ss": 64,
"name": "p3a4",
"parent_data_shape": [
16,
512,
128
],
"parent_data_slice": [
3,
[
256,
320,
null
],
[
0,
128,
null
]
],
"ss_vec": [
0.0001999988,
7.824e-07,
0.0
],
"t_vec": [
-0.054101,
0.0317418,
0.125897
]
},
{
"fs_vec": [
7.824e-07,
-0.0001999988,
0.0
],
"n_fs": 128,
"n_ss": 64,
"name": "p3a5",
"parent_data_shape": [
16,
512,
128
],
"parent_data_slice": [
3,
[
320,
384,
null
],
[
0,
128,
null
]
],
"ss_vec": [
0.0001999988,
7.824e-07,
0.0
],
"t_vec": [
-0.0408982,
0.031794,
0.125897
]
},
{
"fs_vec": [
7.824e-07,
-0.0001999988,
0.0
],
"n_fs": 128,
"n_ss": 64,
"name": "p3a6",
"parent_data_shape": [
16,
512,
128
],
"parent_data_slice": [
3,
[
384,
448,
null
],
[
0,
128,
null
]
],
"ss_vec": [
0.0001999988,
7.824e-07,
0.0
],
"t_vec": [
-0.027697600000000003,
0.031846400000000004,
0.125897
]
},
{
"fs_vec": [
7.824e-07,
-0.0001999988,
0.0
],
"n_fs": 128,
"n_ss": 64,
"name": "p3a7",
"parent_data_shape": [
16,
512,
128
],
"parent_data_slice": [
3,
[
448,
512,
null
],
[
0,
128,
null
]
],
"ss_vec": [
0.0001999988,
7.824e-07,
0.0
],
"t_vec": [
-0.014498120000000001,
0.0318984,
0.125897
]
},
{
"fs_vec": [
-2.376e-07,
-0.0002000002,
0.0
],
"n_fs": 128,
"n_ss": 64,
"name": "p4a0",
"parent_data_shape": [
16,
512,
128
],
"parent_data_slice": [
4,
[
0,
64,
null
],
[
0,
128,
null
]
],
"ss_vec": [
0.0002000002,
-2.376e-07,
0.0
],
"t_vec": [
-0.1097866,
-0.00516604,
0.125727
]
},
{
"fs_vec": [
-2.376e-07,
-0.0002000002,
0.0
],
"n_fs": 128,
"n_ss": 64,
"name": "p4a1",
"parent_data_shape": [
16,
512,
128
],
"parent_data_slice": [
4,
[
64,
128,
null
],
[
0,
128,
null
]
],
"ss_vec": [
0.0002000002,
-2.376e-07,
0.0
],
"t_vec": [
-0.09658680000000001,
-0.00518008,
0.125727
]
},
{
"fs_vec": [
-2.376e-07,
-0.0002000002,
0.0
],
"n_fs": 128,
"n_ss": 64,
"name": "p4a2",
"parent_data_shape": [
16,
512,
128
],
"parent_data_slice": [
4,
[
128,
192,
null
],
[
0,
128,
null
]
],
"ss_vec": [
0.0002000002,
-2.376e-07,
0.0
],
"t_vec": [
-0.08338780000000001,
-0.005194120000000001,
0.125727
]
},
{
"fs_vec": [
-2.376e-07,
-0.0002000002,
0.0
],
"n_fs": 128,
"n_ss": 64,
"name": "p4a3",
"parent_data_shape": [
16,
512,
128
],
"parent_data_slice": [
4,
[
192,
256,
null
],
[
0,
128,
null
]
],
"ss_vec": [
0.0002000002,
-2.376e-07,
0.0
],
"t_vec": [
-0.070188,
-0.005208160000000001,
0.125727
]
},
{
"fs_vec": [
-2.376e-07,
-0.0002000002,
0.0
],
"n_fs": 128,
"n_ss": 64,
"name": "p4a4",
"parent_data_shape": [
16,
512,
128
],
"parent_data_slice": [
4,
[
256,
320,
null
],
[
0,
128,
null
]
],
"ss_vec": [
0.0002000002,
-2.376e-07,
0.0
],
"t_vec": [
-0.056988199999999996,
-0.00522212,
0.125727
]
},
{
"fs_vec": [
-2.376e-07,
-0.0002000002,
0.0
],
"n_fs": 128,
"n_ss": 64,
"name": "p4a5",
"parent_data_shape": [
16,
512,
128
],
"parent_data_slice": [
4,
[
320,
384,
null
],
[
0,
128,
null
]
],
"ss_vec": [
0.0002000002,
-2.376e-07,
0.0
],
"t_vec": [
-0.043788600000000004,
-0.00523614,
0.125727
]
},
{
"fs_vec": [
-2.376e-07,
-0.0002000002,
0.0
],
"n_fs": 128,
"n_ss": 64,
"name": "p4a6",
"parent_data_shape": [
16,
512,
128
],
"parent_data_slice": [
4,
[
384,
448,
null
],
[
0,
128,
null
]
],
"ss_vec": [
0.0002000002,
-2.376e-07,
0.0
],
"t_vec": [
-0.0305892,
-0.0052501399999999995,
0.125727
]
},
{
"fs_vec": [
-2.376e-07,
-0.0002000002,
0.0
],
"n_fs": 128,
"n_ss": 64,
"name": "p4a7",
"parent_data_shape": [
16,
512,
128
],
"parent_data_slice": [
4,
[
448,
512,
null
],
[
0,
128,
null
]
],
"ss_vec": [
0.0002000002,
-2.376e-07,
0.0
],
"t_vec": [
-0.01738998,
-0.00526418,
0.125727
]
},
{
"fs_vec": [
3.4380000000000005e-07,
-0.0002,
0.0
],
"n_fs": 128,
"n_ss": 64,
"name": "p5a0",
"parent_data_shape": [
16,
512,
128
],
"parent_data_slice": [
5,
[
0,
64,
null
],
[
0,
128,
null
]
],
"ss_vec": [
0.0002,
3.4380000000000005e-07,
0.0
],
"t_vec": [
-0.1094644,
-0.0367356,
0.12584
]
},
{
"fs_vec": [
3.4380000000000005e-07,
-0.0002,
0.0
],
"n_fs": 128,
"n_ss": 64,
"name": "p5a1",
"parent_data_shape": [
16,
512,
128
],
"parent_data_slice": [
5,
[
64,
128,
null
],
[
0,
128,
null
]
],
"ss_vec": [
0.0002,
3.4380000000000005e-07,
0.0
],
"t_vec": [
-0.09626480000000001,
-0.0367138,
0.12584
]
},
{
"fs_vec": [
3.4380000000000005e-07,
-0.0002,
0.0
],
"n_fs": 128,
"n_ss": 64,
"name": "p5a2",
"parent_data_shape": [
16,
512,
128
],
"parent_data_slice": [
5,
[
128,
192,
null
],
[
0,
128,
null
]
],
"ss_vec": [
0.0002,
3.4380000000000005e-07,
0.0
],
"t_vec": [
-0.0830654,
-0.036693,
0.12584
]
},
{
"fs_vec": [
3.4380000000000005e-07,
-0.0002,
0.0
],
"n_fs": 128,
"n_ss": 64,
"name": "p5a3",
"parent_data_shape": [
16,
512,
128
],
"parent_data_slice": [
5,
[
192,
256,
null
],
[
0,
128,
null
]
],
"ss_vec": [
0.0002,
3.4380000000000005e-07,
0.0
],
"t_vec": [
-0.069866,
-0.036672,
0.12584
]
},
{
"fs_vec": [
3.4380000000000005e-07,
-0.0002,
0.0
],
"n_fs": 128,
"n_ss": 64,
"name": "p5a4",
"parent_data_shape": [
16,
512,
128
],
"parent_data_slice": [
5,
[
256,
320,
null
],
[
0,
128,
null
]
],
"ss_vec": [
0.0002,
3.4380000000000005e-07,
0.0
],
"t_vec": [
-0.05666620000000001,
-0.0366502,
0.12584
]
},
{
"fs_vec": [
3.4380000000000005e-07,
-0.0002,
0.0
],
"n_fs": 128,
"n_ss": 64,
"name": "p5a5",
"parent_data_shape": [
16,
512,
128
],
"parent_data_slice": [
5,
[
320,
384,
null
],
[
0,
128,
null
]
],
"ss_vec": [
0.0002,
3.4380000000000005e-07,
0.0
],
"t_vec": [
-0.043463600000000005,
-0.0366292,
0.12584
]
},
{
"fs_vec": [
3.4380000000000005e-07,
-0.0002,
0.0
],
"n_fs": 128,
"n_ss": 64,
"name": "p5a6",
"parent_data_shape": [
16,
512,
128
],
"parent_data_slice": [
5,
[
384,
448,
null
],
[
0,
128,
null
]
],
"ss_vec": [
0.0002,
3.4380000000000005e-07,
0.0
],
"t_vec": [
-0.030263400000000003,
-0.036608,
0.12584
]
},
{
"fs_vec": [
3.4380000000000005e-07,
-0.0002,
0.0
],
"n_fs": 128,
"n_ss": 64,
"name": "p5a7",
"parent_data_shape": [
16,
512,
128
],
"parent_data_slice": [
5,
[
448,
512,
null
],
[
0,
128,
null
]
],
"ss_vec": [
0.0002,
3.4380000000000005e-07,
0.0
],
"t_vec": [
-0.0170634,
-0.0365864,
0.12584
]
},
{
"fs_vec": [
-2.882e-07,
-0.0002,
0.0
],
"n_fs": 128,
"n_ss": 64,
"name": "p6a0",
"parent_data_shape": [
16,
512,
128
],
"parent_data_slice": [
6,
[
0,
64,
null
],
[
0,
128,
null
]
],
"ss_vec": [
0.0002,
-2.882e-07,
0.0
],
"t_vec": [
-0.10962000000000001,
-0.0680328,
0.125903
]
},
{
"fs_vec": [
-2.882e-07,
-0.0002,
0.0
],
"n_fs": 128,
"n_ss": 64,
"name": "p6a1",
"parent_data_shape": [
16,
512,
128
],
"parent_data_slice": [
6,
[
64,
128,
null
],
[
0,
128,
null
]
],
"ss_vec": [
0.0002,
-2.882e-07,
0.0
],
"t_vec": [
-0.09642060000000001,
-0.0680538,
0.125903
]
},
{
"fs_vec": [
-2.882e-07,
-0.0002,
0.0
],
"n_fs": 128,
"n_ss": 64,
"name": "p6a2",
"parent_data_shape": [
16,
512,
128
],
"parent_data_slice": [
6,
[
128,
192,
null
],
[
0,
128,
null
]
],
"ss_vec": [
0.0002,
-2.882e-07,
0.0
],
"t_vec": [
-0.083221,
-0.0680748,
0.125903
]
},
{
"fs_vec": [
-2.882e-07,
-0.0002,
0.0
],
"n_fs": 128,
"n_ss": 64,
"name": "p6a3",
"parent_data_shape": [
16,
512,
128
],
"parent_data_slice": [
6,
[
192,
256,
null
],
[
0,
128,
null
]
],
"ss_vec": [
0.0002,
-2.882e-07,
0.0
],
"t_vec": [
-0.0700212,
-0.0680954,
0.125903
]
},
{
"fs_vec": [
-2.882e-07,
-0.0002,
0.0
],
"n_fs": 128,
"n_ss": 64,
"name": "p6a4",
"parent_data_shape": [
16,
512,
128
],
"parent_data_slice": [
6,
[
256,
320,
null
],
[
0,
128,
null
]
],
"ss_vec": [
0.0002,
-2.882e-07,
0.0
],
"t_vec": [
-0.0568218,
-0.068116,
0.125903
]
},
{
"fs_vec": [
-2.882e-07,
-0.0002,
0.0
],
"n_fs": 128,
"n_ss": 64,
"name": "p6a5",
"parent_data_shape": [
16,
512,
128
],
"parent_data_slice": [
6,
[
320,
384,
null
],
[
0,
128,
null
]
],
"ss_vec": [
0.0002,
-2.882e-07,
0.0
],
"t_vec": [
-0.0436218,
-0.0681366,
0.125903
]
},
{
"fs_vec": [
-2.882e-07,
-0.0002,
0.0
],
"n_fs": 128,
"n_ss": 64,
"name": "p6a6",
"parent_data_shape": [
16,
512,
128
],
"parent_data_slice": [
6,
[
384,
448,
null
],
[
0,
128,
null
]
],
"ss_vec": [
0.0002,
-2.882e-07,
0.0
],
"t_vec": [
-0.0304222,
-0.0681572,
0.125903
]
},
{
"fs_vec": [
-2.882e-07,
-0.0002,
0.0
],
"n_fs": 128,
"n_ss": 64,
"name": "p6a7",
"parent_data_shape": [
16,
512,
128
],
"parent_data_slice": [
6,
[
448,
512,
null
],
[
0,
128,
null
]
],
"ss_vec": [
0.0002,
-2.882e-07,
0.0
],
"t_vec": [
-0.01722276,
-0.0681784,
0.125903
]
},
{
"fs_vec": [
3.3860000000000003e-07,
-0.0001999992,
0.0
],
"n_fs": 128,
"n_ss": 64,
"name": "p7a0",
"parent_data_shape": [
16,
512,
128
],
"parent_data_slice": [
7,
[
0,
64,
null
],
[
0,
128,
null
]
],
"ss_vec": [
0.0001999992,
3.3860000000000003e-07,
0.0
],
"t_vec": [
-0.10971300000000002,
-0.1000404,
0.126398
]
},
{
"fs_vec": [
3.3860000000000003e-07,
-0.0001999992,
0.0
],
"n_fs": 128,
"n_ss": 64,
"name": "p7a1",
"parent_data_shape": [
16,
512,
128
],
"parent_data_slice": [
7,
[
64,
128,
null
],
[
0,
128,
null
]
],
"ss_vec": [
0.0001999992,
3.3860000000000003e-07,
0.0
],
"t_vec": [
-0.09651420000000001,
-0.1000182,
0.126398
]
},
{
"fs_vec": [
3.3860000000000003e-07,
-0.0001999992,
0.0
],
"n_fs": 128,
"n_ss": 64,
"name": "p7a2",
"parent_data_shape": [
16,
512,
128
],
"parent_data_slice": [
7,
[
128,
192,
null
],
[
0,
128,
null
]
],
"ss_vec": [
0.0001999992,
3.3860000000000003e-07,
0.0
],
"t_vec": [
-0.083315,
-0.099997,
0.126398
]
},
{
"fs_vec": [
3.3860000000000003e-07,
-0.0001999992,
0.0
],
"n_fs": 128,
"n_ss": 64,
"name": "p7a3",
"parent_data_shape": [
16,
512,
128
],
"parent_data_slice": [
7,
[
192,
256,
null
],
[
0,
128,
null
]
],
"ss_vec": [
0.0001999992,
3.3860000000000003e-07,
0.0
],
"t_vec": [
-0.0701152,
-0.09997480000000002,
0.126398
]
},
{
"fs_vec": [
3.3860000000000003e-07,
-0.0001999992,
0.0
],
"n_fs": 128,
"n_ss": 64,
"name": "p7a4",
"parent_data_shape": [
16,
512,
128
],
"parent_data_slice": [
7,
[
256,
320,
null
],
[
0,
128,
null
]
],
"ss_vec": [
0.0001999992,
3.3860000000000003e-07,
0.0
],
"t_vec": [
-0.0569164,
-0.099953,
0.126398
]
},
{
"fs_vec": [
3.3860000000000003e-07,
-0.0001999992,
0.0
],
"n_fs": 128,
"n_ss": 64,
"name": "p7a5",
"parent_data_shape": [
16,
512,
128
],
"parent_data_slice": [
7,
[
320,
384,
null
],
[
0,
128,
null
]
],
"ss_vec": [
0.0001999992,
3.3860000000000003e-07,
0.0
],
"t_vec": [
-0.043717000000000006,
-0.0999314,
0.126398
]
},
{
"fs_vec": [
3.3860000000000003e-07,
-0.0001999992,
0.0
],
"n_fs": 128,
"n_ss": 64,
"name": "p7a6",
"parent_data_shape": [
16,
512,
128
],
"parent_data_slice": [
7,
[
384,
448,
null
],
[
0,
128,
null
]
],
"ss_vec": [
0.0001999992,
3.3860000000000003e-07,
0.0
],
"t_vec": [
-0.0305174,
-0.09990940000000001,
0.126398
]
},
{
"fs_vec": [
3.3860000000000003e-07,
-0.0001999992,
0.0
],
"n_fs": 128,
"n_ss": 64,
"name": "p7a7",
"parent_data_shape": [
16,
512,
128
],
"parent_data_slice": [
7,
[
448,
512,
null
],
[
0,
128,
null
]
],
"ss_vec": [
0.0001999992,
3.3860000000000003e-07,
0.0
],
"t_vec": [
-0.0173178,
-0.0998874,
0.126398
]
},
{
"fs_vec": [
-8.840000000000001e-08,
0.0002,
0.0
],
"n_fs": 128,
"n_ss": 64,
"name": "p8a0",
"parent_data_shape": [
16,
512,
128
],
"parent_data_slice": [
8,
[
0,
64,
null
],
[
0,
128,
null
]
],
"ss_vec": [
-0.0002,
-8.840000000000001e-08,
0.0
],
"t_vec": [
0.109204,
-0.0326616,
0.125589
]
},
{
"fs_vec": [
-8.840000000000001e-08,
0.0002,
0.0
],
"n_fs": 128,
"n_ss": 64,
"name": "p8a1",
"parent_data_shape": [
16,
512,
128
],
"parent_data_slice": [
8,
[
64,
128,
null
],
[
0,
128,
null
]
],
"ss_vec": [
-0.0002,
-8.840000000000001e-08,
0.0
],
"t_vec": [
0.0960044,
-0.0326682,
0.125589
]
},
{
"fs_vec": [
-8.840000000000001e-08,
0.0002,
0.0
],
"n_fs": 128,
"n_ss": 64,
"name": "p8a2",
"parent_data_shape": [
16,
512,
128
],
"parent_data_slice": [
8,
[
128,
192,
null
],
[
0,
128,
null
]
],
"ss_vec": [
-0.0002,
-8.840000000000001e-08,
0.0
],
"t_vec": [
0.0828046,
-0.032675,
0.125589
]
},
{
"fs_vec": [
-8.840000000000001e-08,
0.0002,
0.0
],
"n_fs": 128,
"n_ss": 64,
"name": "p8a3",
"parent_data_shape": [
16,
512,
128
],
"parent_data_slice": [
8,
[
192,
256,
null
],
[
0,
128,
null
]
],
"ss_vec": [
-0.0002,
-8.840000000000001e-08,
0.0
],
"t_vec": [
0.0696052,
-0.0326816,
0.125589
]
},
{
"fs_vec": [
-8.840000000000001e-08,
0.0002,
0.0
],
"n_fs": 128,
"n_ss": 64,
"name": "p8a4",
"parent_data_shape": [
16,
512,
128
],
"parent_data_slice": [
8,
[
256,
320,
null
],
[
0,
128,
null
]
],
"ss_vec": [
-0.0002,
-8.840000000000001e-08,
0.0
],
"t_vec": [
0.0564052,
-0.0326892,
0.125589
]
},
{
"fs_vec": [
-8.840000000000001e-08,
0.0002,
0.0
],
"n_fs": 128,
"n_ss": 64,
"name": "p8a5",
"parent_data_shape": [
16,
512,
128
],
"parent_data_slice": [
8,
[
320,
384,
null
],
[
0,
128,
null
]
],
"ss_vec": [
-0.0002,
-8.840000000000001e-08,
0.0
],
"t_vec": [
0.043205600000000004,
-0.032695600000000005,
0.125589
]
},
{
"fs_vec": [
-8.840000000000001e-08,
0.0002,
0.0
],
"n_fs": 128,
"n_ss": 64,
"name": "p8a6",
"parent_data_shape": [
16,
512,
128
],
"parent_data_slice": [
8,
[
384,
448,
null
],
[
0,
128,
null
]
],
"ss_vec": [
-0.0002,
-8.840000000000001e-08,
0.0
],
"t_vec": [
0.030006200000000004,
-0.032702600000000005,
0.125589
]
},
{
"fs_vec": [
-8.840000000000001e-08,
0.0002,
0.0
],
"n_fs": 128,
"n_ss": 64,
"name": "p8a7",
"parent_data_shape": [
16,
512,
128
],
"parent_data_slice": [
8,
[
448,
512,
null
],
[
0,
128,
null
]
],
"ss_vec": [
-0.0002,
-8.840000000000001e-08,
0.0
],
"t_vec": [
0.01680668,
-0.0327102,
0.125589
]
},
{
"fs_vec": [
-6.804000000000001e-07,
0.000199999,
0.0
],
"n_fs": 128,
"n_ss": 64,
"name": "p9a0",
"parent_data_shape": [
16,
512,
128
],
"parent_data_slice": [
9,
[
0,
64,
null
],
[
0,
128,
null
]
],
"ss_vec": [
-0.000199999,
-6.804000000000001e-07,
0.0
],
"t_vec": [
0.1090734,
-0.06398200000000001,
0.125742
]
},
{
"fs_vec": [
-6.804000000000001e-07,
0.000199999,
0.0
],
"n_fs": 128,
"n_ss": 64,
"name": "p9a1",
"parent_data_shape": [
16,
512,
128
],
"parent_data_slice": [
9,
[
64,
128,
null
],
[
0,
128,
null
]
],
"ss_vec": [
-0.000199999,
-6.804000000000001e-07,
0.0
],
"t_vec": [
0.095874,
-0.06402780000000001,
0.125742
]
},
{
"fs_vec": [
-6.804000000000001e-07,
0.000199999,
0.0
],
"n_fs": 128,
"n_ss": 64,
"name": "p9a2",
"parent_data_shape": [
16,
512,
128
],
"parent_data_slice": [
9,
[
128,
192,
null
],
[
0,
128,
null
]
],
"ss_vec": [
-0.000199999,
-6.804000000000001e-07,
0.0
],
"t_vec": [
0.08267440000000001,
-0.0640732,
0.125742
]
},
{
"fs_vec": [
-6.804000000000001e-07,
0.000199999,
0.0
],
"n_fs": 128,
"n_ss": 64,
"name": "p9a3",
"parent_data_shape": [
16,
512,
128
],
"parent_data_slice": [
9,
[
192,
256,
null
],
[
0,
128,
null
]
],
"ss_vec": [
-0.000199999,
-6.804000000000001e-07,
0.0
],
"t_vec": [
0.0694754,
-0.06411860000000001,
0.125742
]
},
{
"fs_vec": [
-6.804000000000001e-07,
0.000199999,
0.0
],
"n_fs": 128,
"n_ss": 64,
"name": "p9a4",
"parent_data_shape": [
16,
512,
128
],
"parent_data_slice": [
9,
[
256,
320,
null
],
[
0,
128,
null
]
],
"ss_vec": [
-0.000199999,
-6.804000000000001e-07,
0.0
],
"t_vec": [
0.05627580000000001,
-0.06416440000000001,
0.125742
]
},
{
"fs_vec": [
-6.804000000000001e-07,
0.000199999,
0.0
],
"n_fs": 128,
"n_ss": 64,
"name": "p9a5",
"parent_data_shape": [
16,
512,
128
],
"parent_data_slice": [
9,
[
320,
384,
null
],
[
0,
128,
null
]
],
"ss_vec": [
-0.000199999,
-6.804000000000001e-07,
0.0
],
"t_vec": [
0.04307660000000001,
-0.06421,
0.125742
]
},
{
"fs_vec": [
-6.804000000000001e-07,
0.000199999,
0.0
],
"n_fs": 128,
"n_ss": 64,
"name": "p9a6",
"parent_data_shape": [
16,
512,
128
],
"parent_data_slice": [
9,
[
384,
448,
null
],
[
0,
128,
null
]
],
"ss_vec": [
-0.000199999,
-6.804000000000001e-07,
0.0
],
"t_vec": [
0.029872600000000003,
-0.0642554,
0.125742
]
},
{
"fs_vec": [
-6.804000000000001e-07,
0.000199999,
0.0
],
"n_fs": 128,
"n_ss": 64,
"name": "p9a7",
"parent_data_shape": [
16,
512,
128
],
"parent_data_slice": [
9,
[
448,
512,
null
],
[
0,
128,
null
]
],
"ss_vec": [
-0.000199999,
-6.804000000000001e-07,
0.0
],
"t_vec": [
0.01667234,
-0.064301,
0.125742
]
},
{
"fs_vec": [
-3.588e-07,
0.0001999992,
0.0
],
"n_fs": 128,
"n_ss": 64,
"name": "p10a0",
"parent_data_shape": [
16,
512,
128
],
"parent_data_slice": [
10,
[
0,
64,
null
],
[
0,
128,
null
]
],
"ss_vec": [
-0.0001999992,
-3.588e-07,
0.0
],
"t_vec": [
0.10905260000000001,
-0.0954518,
0.125942
]
},
{
"fs_vec": [
-3.588e-07,
0.0001999992,
0.0
],
"n_fs": 128,
"n_ss": 64,
"name": "p10a1",
"parent_data_shape": [
16,
512,
128
],
"parent_data_slice": [
10,
[
64,
128,
null
],
[
0,
128,
null
]
],
"ss_vec": [
-0.0001999992,
-3.588e-07,
0.0
],
"t_vec": [
0.09585320000000001,
-0.095477,
0.125942
]
},
{
"fs_vec": [
-3.588e-07,
0.0001999992,
0.0
],
"n_fs": 128,
"n_ss": 64,
"name": "p10a2",
"parent_data_shape": [
16,
512,
128
],
"parent_data_slice": [
10,
[
128,
192,
null
],
[
0,
128,
null
]
],
"ss_vec": [
-0.0001999992,
-3.588e-07,
0.0
],
"t_vec": [
0.0826536,
-0.09550320000000001,
0.125942
]
},
{
"fs_vec": [
-3.588e-07,
0.0001999992,
0.0
],
"n_fs": 128,
"n_ss": 64,
"name": "p10a3",
"parent_data_shape": [
16,
512,
128
],
"parent_data_slice": [
10,
[
192,
256,
null
],
[
0,
128,
null
]
],
"ss_vec": [
-0.0001999992,
-3.588e-07,
0.0
],
"t_vec": [
0.0694546,
-0.09552820000000001,
0.125942
]
},
{
"fs_vec": [
-3.588e-07,
0.0001999992,
0.0
],
"n_fs": 128,
"n_ss": 64,
"name": "p10a4",
"parent_data_shape": [
16,
512,
128
],
"parent_data_slice": [
10,
[
256,
320,
null
],
[
0,
128,
null
]
],
"ss_vec": [
-0.0001999992,
-3.588e-07,
0.0
],
"t_vec": [
0.056255,
-0.09555340000000001,
0.125942
]
},
{
"fs_vec": [
-3.588e-07,
0.0001999992,
0.0
],
"n_fs": 128,
"n_ss": 64,
"name": "p10a5",
"parent_data_shape": [
16,
512,
128
],
"parent_data_slice": [
10,
[
320,
384,
null
],
[
0,
128,
null
]
],
"ss_vec": [
-0.0001999992,
-3.588e-07,
0.0
],
"t_vec": [
0.0430556,
-0.09557940000000001,
0.125942
]
},
{
"fs_vec": [
-3.588e-07,
0.0001999992,
0.0
],
"n_fs": 128,
"n_ss": 64,
"name": "p10a6",
"parent_data_shape": [
16,
512,
128
],
"parent_data_slice": [
10,
[
384,
448,
null
],
[
0,
128,
null
]
],
"ss_vec": [
-0.0001999992,
-3.588e-07,
0.0
],
"t_vec": [
0.029856400000000005,
-0.095605,
0.125942
]
},
{
"fs_vec": [
-3.588e-07,
0.0001999992,
0.0
],
"n_fs": 128,
"n_ss": 64,
"name": "p10a7",
"parent_data_shape": [
16,
512,
128
],
"parent_data_slice": [
10,
[
448,
512,
null
],
[
0,
128,
null
]
],
"ss_vec": [
-0.0001999992,
-3.588e-07,
0.0
],
"t_vec": [
0.01665648,
-0.09562960000000001,
0.125942
]
},
{
"fs_vec": [
-5.664e-07,
0.0001999992,
0.0
],
"n_fs": 128,
"n_ss": 64,
"name": "p11a0",
"parent_data_shape": [
16,
512,
128
],
"parent_data_slice": [
11,
[
0,
64,
null
],
[
0,
128,
null
]
],
"ss_vec": [
-0.0001999992,
-5.664e-07,
0.0
],
"t_vec": [
0.1091888,
-0.12684800000000002,
0.126051
]
},
{
"fs_vec": [
-5.664e-07,
0.0001999992,
0.0
],
"n_fs": 128,
"n_ss": 64,
"name": "p11a1",
"parent_data_shape": [
16,
512,
128
],
"parent_data_slice": [
11,
[
64,
128,
null
],
[
0,
128,
null
]
],
"ss_vec": [
-0.0001999992,
-5.664e-07,
0.0
],
"t_vec": [
0.095989,
-0.1268862,
0.126051
]
},
{
"fs_vec": [
-5.664e-07,
0.0001999992,
0.0
],
"n_fs": 128,
"n_ss": 64,
"name": "p11a2",
"parent_data_shape": [
16,
512,
128
],
"parent_data_slice": [
11,
[
128,
192,
null
],
[
0,
128,
null
]
],
"ss_vec": [
-0.0001999992,
-5.664e-07,
0.0
],
"t_vec": [
0.0827896,
-0.1269254,
0.126051
]
},
{
"fs_vec": [
-5.664e-07,
0.0001999992,
0.0
],
"n_fs": 128,
"n_ss": 64,
"name": "p11a3",
"parent_data_shape": [
16,
512,
128
],
"parent_data_slice": [
11,
[
192,
256,
null
],
[
0,
128,
null
]
],
"ss_vec": [
-0.0001999992,
-5.664e-07,
0.0
],
"t_vec": [
0.0695902,
-0.1269638,
0.126051
]
},
{
"fs_vec": [
-5.664e-07,
0.0001999992,
0.0
],
"n_fs": 128,
"n_ss": 64,
"name": "p11a4",
"parent_data_shape": [
16,
512,
128
],
"parent_data_slice": [
11,
[
256,
320,
null
],
[
0,
128,
null
]
],
"ss_vec": [
-0.0001999992,
-5.664e-07,
0.0
],
"t_vec": [
0.0563914,
-0.1270024,
0.126051
]
},
{
"fs_vec": [
-5.664e-07,
0.0001999992,
0.0
],
"n_fs": 128,
"n_ss": 64,
"name": "p11a5",
"parent_data_shape": [
16,
512,
128
],
"parent_data_slice": [
11,
[
320,
384,
null
],
[
0,
128,
null
]
],
"ss_vec": [
-0.0001999992,
-5.664e-07,
0.0
],
"t_vec": [
0.0431918,
-0.12704120000000002,
0.126051
]
},
{
"fs_vec": [
-5.664e-07,
0.0001999992,
0.0
],
"n_fs": 128,
"n_ss": 64,
"name": "p11a6",
"parent_data_shape": [
16,
512,
128
],
"parent_data_slice": [
11,
[
384,
448,
null
],
[
0,
128,
null
]
],
"ss_vec": [
-0.0001999992,
-5.664e-07,
0.0
],
"t_vec": [
0.0299928,
-0.1270792,
0.126051
]
},
{
"fs_vec": [
-5.664e-07,
0.0001999992,
0.0
],
"n_fs": 128,
"n_ss": 64,
"name": "p11a7",
"parent_data_shape": [
16,
512,
128
],
"parent_data_slice": [
11,
[
448,
512,
null
],
[
0,
128,
null
]
],
"ss_vec": [
-0.0001999992,
-5.664e-07,
0.0
],
"t_vec": [
0.016792460000000002,
-0.127118,
0.126051
]
},
{
"fs_vec": [
-9.726e-07,
0.00019999780000000002,
0.0
],
"n_fs": 128,
"n_ss": 64,
"name": "p12a0",
"parent_data_shape": [
16,
512,
128
],
"parent_data_slice": [
12,
[
0,
64,
null
],
[
0,
128,
null
]
],
"ss_vec": [
-0.00019999780000000002,
-9.726e-07,
0.0
],
"t_vec": [
0.1109972,
0.0981274,
0.125575
]
},
{
"fs_vec": [
-9.726e-07,
0.00019999780000000002,
0.0
],
"n_fs": 128,
"n_ss": 64,
"name": "p12a1",
"parent_data_shape": [
16,
512,
128
],
"parent_data_slice": [
12,
[
64,
128,
null
],
[
0,
128,
null
]
],
"ss_vec": [
-0.00019999780000000002,
-9.726e-07,
0.0
],
"t_vec": [
0.0977974,
0.0980546,
0.125575
]
},
{
"fs_vec": [
-9.726e-07,
0.00019999780000000002,
0.0
],
"n_fs": 128,
"n_ss": 64,
"name": "p12a2",
"parent_data_shape": [
16,
512,
128
],
"parent_data_slice": [
12,
[
128,
192,
null
],
[
0,
128,
null
]
],
"ss_vec": [
-0.00019999780000000002,
-9.726e-07,
0.0
],
"t_vec": [
0.084598,
0.0979808,
0.125575
]
},
{
"fs_vec": [
-9.726e-07,
0.00019999780000000002,
0.0
],
"n_fs": 128,
"n_ss": 64,
"name": "p12a3",
"parent_data_shape": [
16,
512,
128
],
"parent_data_slice": [
12,
[
192,
256,
null
],
[
0,
128,
null
]
],
"ss_vec": [
-0.00019999780000000002,
-9.726e-07,
0.0
],
"t_vec": [
0.07139740000000001,
0.0979348,
0.125575
]
},
{
"fs_vec": [
-9.726e-07,
0.00019999780000000002,
0.0
],
"n_fs": 128,
"n_ss": 64,
"name": "p12a4",
"parent_data_shape": [
16,
512,
128
],
"parent_data_slice": [
12,
[
256,
320,
null
],
[
0,
128,
null
]
],
"ss_vec": [
-0.00019999780000000002,
-9.726e-07,
0.0
],
"t_vec": [
0.05819740000000001,
0.0978712,
0.125575
]
},
{
"fs_vec": [
-9.726e-07,
0.00019999780000000002,
0.0
],
"n_fs": 128,
"n_ss": 64,
"name": "p12a5",
"parent_data_shape": [
16,
512,
128
],
"parent_data_slice": [
12,
[
320,
384,
null
],
[
0,
128,
null
]
],
"ss_vec": [
-0.00019999780000000002,
-9.726e-07,
0.0
],
"t_vec": [
0.044998,
0.09780660000000001,
0.125575
]
},
{
"fs_vec": [
-9.726e-07,
0.00019999780000000002,
0.0
],
"n_fs": 128,
"n_ss": 64,
"name": "p12a6",
"parent_data_shape": [
16,
512,
128
],
"parent_data_slice": [
12,
[
384,
448,
null
],
[
0,
128,
null
]
],
"ss_vec": [
-0.00019999780000000002,
-9.726e-07,
0.0
],
"t_vec": [
0.031798,
0.0977428,
0.125575
]
},
{
"fs_vec": [
-9.726e-07,
0.00019999780000000002,
0.0
],
"n_fs": 128,
"n_ss": 64,
"name": "p12a7",
"parent_data_shape": [
16,
512,
128
],
"parent_data_slice": [
12,
[
448,
512,
null
],
[
0,
128,
null
]
],
"ss_vec": [
-0.00019999780000000002,
-9.726e-07,
0.0
],
"t_vec": [
0.01859782,
0.0976782,
0.125575
]
},
{
"fs_vec": [
-2.286e-07,
0.0001999998,
0.0
],
"n_fs": 128,
"n_ss": 64,
"name": "p13a0",
"parent_data_shape": [
16,
512,
128
],
"parent_data_slice": [
13,
[
0,
64,
null
],
[
0,
128,
null
]
],
"ss_vec": [
-0.0001999998,
-2.286e-07,
0.0
],
"t_vec": [
0.1107288,
0.0664034,
0.125561
]
},
{
"fs_vec": [
-2.286e-07,
0.0001999998,
0.0
],
"n_fs": 128,
"n_ss": 64,
"name": "p13a1",
"parent_data_shape": [
16,
512,
128
],
"parent_data_slice": [
13,
[
64,
128,
null
],
[
0,
128,
null
]
],
"ss_vec": [
-0.0001999998,
-2.286e-07,
0.0
],
"t_vec": [
0.097529,
0.0663866,
0.125561
]
},
{
"fs_vec": [
-2.286e-07,
0.0001999998,
0.0
],
"n_fs": 128,
"n_ss": 64,
"name": "p13a2",
"parent_data_shape": [
16,
512,
128
],
"parent_data_slice": [
13,
[
128,
192,
null
],
[
0,
128,
null
]
],
"ss_vec": [
-0.0001999998,
-2.286e-07,
0.0
],
"t_vec": [
0.08433,
0.06636900000000001,
0.125561
]
},
{
"fs_vec": [
-2.286e-07,
0.0001999998,
0.0
],
"n_fs": 128,
"n_ss": 64,
"name": "p13a3",
"parent_data_shape": [
16,
512,
128
],
"parent_data_slice": [
13,
[
192,
256,
null
],
[
0,
128,
null
]
],
"ss_vec": [
-0.0001999998,
-2.286e-07,
0.0
],
"t_vec": [
0.0711302,
0.0663514,
0.125561
]
},
{
"fs_vec": [
-2.286e-07,
0.0001999998,
0.0
],
"n_fs": 128,
"n_ss": 64,
"name": "p13a4",
"parent_data_shape": [
16,
512,
128
],
"parent_data_slice": [
13,
[
256,
320,
null
],
[
0,
128,
null
]
],
"ss_vec": [
-0.0001999998,
-2.286e-07,
0.0
],
"t_vec": [
0.057930600000000006,
0.0663342,
0.125561
]
},
{
"fs_vec": [
-2.286e-07,
0.0001999998,
0.0
],
"n_fs": 128,
"n_ss": 64,
"name": "p13a5",
"parent_data_shape": [
16,
512,
128
],
"parent_data_slice": [
13,
[
320,
384,
null
],
[
0,
128,
null
]
],
"ss_vec": [
-0.0001999998,
-2.286e-07,
0.0
],
"t_vec": [
0.044727600000000006,
0.0663164,
0.125561
]
},
{
"fs_vec": [
-2.286e-07,
0.0001999998,
0.0
],
"n_fs": 128,
"n_ss": 64,
"name": "p13a6",
"parent_data_shape": [
16,
512,
128
],
"parent_data_slice": [
13,
[
384,
448,
null
],
[
0,
128,
null
]
],
"ss_vec": [
-0.0001999998,
-2.286e-07,
0.0
],
"t_vec": [
0.0315278,
0.0662992,
0.125561
]
},
{
"fs_vec": [
-2.286e-07,
0.0001999998,
0.0
],
"n_fs": 128,
"n_ss": 64,
"name": "p13a7",
"parent_data_shape": [
16,
512,
128
],
"parent_data_slice": [
13,
[
448,
512,
null
],
[
0,
128,
null
]
],
"ss_vec": [
-0.0001999998,
-2.286e-07,
0.0
],
"t_vec": [
0.01832764,
0.0662818,
0.125561
]
},
{
"fs_vec": [
-9.768000000000001e-07,
0.0001999976,
0.0
],
"n_fs": 128,
"n_ss": 64,
"name": "p14a0",
"parent_data_shape": [
16,
512,
128
],
"parent_data_slice": [
14,
[
0,
64,
null
],
[
0,
128,
null
]
],
"ss_vec": [
-0.0001999976,
-9.768000000000001e-07,
0.0
],
"t_vec": [
0.11119079999999999,
0.0352808,
0.125526
]
},
{
"fs_vec": [
-9.768000000000001e-07,
0.0001999976,
0.0
],
"n_fs": 128,
"n_ss": 64,
"name": "p14a1",
"parent_data_shape": [
16,
512,
128
],
"parent_data_slice": [
14,
[
64,
128,
null
],
[
0,
128,
null
]
],
"ss_vec": [
-0.0001999976,
-9.768000000000001e-07,
0.0
],
"t_vec": [
0.09799160000000001,
0.035216000000000004,
0.125526
]
},
{
"fs_vec": [
-9.768000000000001e-07,
0.0001999976,
0.0
],
"n_fs": 128,
"n_ss": 64,
"name": "p14a2",
"parent_data_shape": [
16,
512,
128
],
"parent_data_slice": [
14,
[
128,
192,
null
],
[
0,
128,
null
]
],
"ss_vec": [
-0.0001999976,
-9.768000000000001e-07,
0.0
],
"t_vec": [
0.08479220000000001,
0.035151,
0.125526
]
},
{
"fs_vec": [
-9.768000000000001e-07,
0.0001999976,
0.0
],
"n_fs": 128,
"n_ss": 64,
"name": "p14a3",
"parent_data_shape": [
16,
512,
128
],
"parent_data_slice": [
14,
[
192,
256,
null
],
[
0,
128,
null
]
],
"ss_vec": [
-0.0001999976,
-9.768000000000001e-07,
0.0
],
"t_vec": [
0.07159320000000001,
0.0350858,
0.125526
]
},
{
"fs_vec": [
-9.768000000000001e-07,
0.0001999976,
0.0
],
"n_fs": 128,
"n_ss": 64,
"name": "p14a4",
"parent_data_shape": [
16,
512,
128
],
"parent_data_slice": [
14,
[
256,
320,
null
],
[
0,
128,
null
]
],
"ss_vec": [
-0.0001999976,
-9.768000000000001e-07,
0.0
],
"t_vec": [
0.0583934,
0.035021,
0.125526
]
},
{
"fs_vec": [
-9.768000000000001e-07,
0.0001999976,
0.0
],
"n_fs": 128,
"n_ss": 64,
"name": "p14a5",
"parent_data_shape": [
16,
512,
128
],
"parent_data_slice": [
14,
[
320,
384,
null
],
[
0,
128,
null
]
],
"ss_vec": [
-0.0001999976,
-9.768000000000001e-07,
0.0
],
"t_vec": [
0.045191,
0.0349554,
0.125526
]
},
{
"fs_vec": [
-9.768000000000001e-07,
0.0001999976,
0.0
],
"n_fs": 128,
"n_ss": 64,
"name": "p14a6",
"parent_data_shape": [
16,
512,
128
],
"parent_data_slice": [
14,
[
384,
448,
null
],
[
0,
128,
null
]
],
"ss_vec": [
-0.0001999976,
-9.768000000000001e-07,
0.0
],
"t_vec": [
0.0319908,
0.0348904,
0.125526
]
},
{
"fs_vec": [
-9.768000000000001e-07,
0.0001999976,
0.0
],
"n_fs": 128,
"n_ss": 64,
"name": "p14a7",
"parent_data_shape": [
16,
512,
128
],
"parent_data_slice": [
14,
[
448,
512,
null
],
[
0,
128,
null
]
],
"ss_vec": [
-0.0001999976,
-9.768000000000001e-07,
0.0
],
"t_vec": [
0.018790440000000002,
0.034825400000000006,
0.125526
]
},
{
"fs_vec": [
-3.9220000000000003e-07,
0.0002000002,
0.0
],
"n_fs": 128,
"n_ss": 64,
"name": "p15a0",
"parent_data_shape": [
16,
512,
128
],
"parent_data_slice": [
15,
[
0,
64,
null
],
[
0,
128,
null
]
],
"ss_vec": [
-0.0002000002,
-3.9220000000000003e-07,
0.0
],
"t_vec": [
0.11119040000000001,
0.00395312,
0.125458
]
},
{
"fs_vec": [
-3.9220000000000003e-07,
0.0002000002,
0.0
],
"n_fs": 128,
"n_ss": 64,
"name": "p15a1",
"parent_data_shape": [
16,
512,
128
],
"parent_data_slice": [
15,
[
64,
128,
null
],
[
0,
128,
null
]
],
"ss_vec": [
-0.0002000002,
-3.9220000000000003e-07,
0.0
],
"t_vec": [
0.0979908,
0.00392602,
0.125458
]
},
{
"fs_vec": [
-3.9220000000000003e-07,
0.0002000002,
0.0
],
"n_fs": 128,
"n_ss": 64,
"name": "p15a2",
"parent_data_shape": [
16,
512,
128
],
"parent_data_slice": [
15,
[
128,
192,
null
],
[
0,
128,
null
]
],
"ss_vec": [
-0.0002000002,
-3.9220000000000003e-07,
0.0
],
"t_vec": [
0.08479120000000001,
0.00389884,
0.125458
]
},
{
"fs_vec": [
-3.9220000000000003e-07,
0.0002000002,
0.0
],
"n_fs": 128,
"n_ss": 64,
"name": "p15a3",
"parent_data_shape": [
16,
512,
128
],
"parent_data_slice": [
15,
[
192,
256,
null
],
[
0,
128,
null
]
],
"ss_vec": [
-0.0002000002,
-3.9220000000000003e-07,
0.0
],
"t_vec": [
0.07159180000000001,
0.00387178,
0.125458
]
},
{
"fs_vec": [
-3.9220000000000003e-07,
0.0002000002,
0.0
],
"n_fs": 128,
"n_ss": 64,
"name": "p15a4",
"parent_data_shape": [
16,
512,
128
],
"parent_data_slice": [
15,
[
256,
320,
null
],
[
0,
128,
null
]
],
"ss_vec": [
-0.0002000002,
-3.9220000000000003e-07,
0.0
],
"t_vec": [
0.0583918,
0.00384464,
0.125458
]
},
{
"fs_vec": [
-3.9220000000000003e-07,
0.0002000002,
0.0
],
"n_fs": 128,
"n_ss": 64,
"name": "p15a5",
"parent_data_shape": [
16,
512,
128
],
"parent_data_slice": [
15,
[
320,
384,
null
],
[
0,
128,
null
]
],
"ss_vec": [
-0.0002000002,
-3.9220000000000003e-07,
0.0
],
"t_vec": [
0.045188,
0.0038175400000000003,
0.125458
]
},
{
"fs_vec": [
-3.9220000000000003e-07,
0.0002000002,
0.0
],
"n_fs": 128,
"n_ss": 64,
"name": "p15a6",
"parent_data_shape": [
16,
512,
128
],
"parent_data_slice": [
15,
[
384,
448,
null
],
[
0,
128,
null
]
],
"ss_vec": [
-0.0002000002,
-3.9220000000000003e-07,
0.0
],
"t_vec": [
0.0319884,
0.00379032,
0.125458
]
},
{
"fs_vec": [
-3.9220000000000003e-07,
0.0002000002,
0.0
],
"n_fs": 128,
"n_ss": 64,
"name": "p15a7",
"parent_data_shape": [
16,
512,
128
],
"parent_data_slice": [
15,
[
448,
512,
null
],
[
0,
128,
null
]
],
"ss_vec": [
-0.0002000002,
-3.9220000000000003e-07,
0.0
],
"t_vec": [
0.01878816,
0.00376326,
0.125458
]
}
]