[
{
"fs_vec": [
-1.625e-07,
-9.999970000000001e-05,
1.9870000000000003e-07
],
"n_fs": 192,
"n_ss": 176,
"name": "None",
"parent_data_shape": null,
"parent_data_slice": null,
"ss_vec": [
9.99998e-05,
-1.622e-07,
1.3630000000000002e-07
],
"t_vec": [
0.0414573935,
0.0422896431,
-6.386181249999999e-06
]
},
{
"fs_vec": [
-1.625e-07,
-9.999970000000001e-05,
1.9870000000000003e-07
],
"n_fs": 192,
"n_ss": 176,
"name": "None",
"parent_data_shape": null,
"parent_data_slice": null,
"ss_vec": [
9.99998e-05,
-1.622e-07,
1.3630000000000002e-07
],
"t_vec": [
0.0414257148,
0.022789707300000003,
-6.386181249999999e-06
]
},
{
"fs_vec": [
-1.625e-07,
-9.999970000000001e-05,
1.9870000000000003e-07
],
"n_fs": 192,
"n_ss": 176,
"name": "None",
"parent_data_shape": null,
"parent_data_slice": null,
"ss_vec": [
9.99998e-05,
-1.622e-07,
1.3630000000000002e-07
],
"t_vec": [
0.0593573534,
0.0422606121,
-6.386181249999999e-06
]
},
{
"fs_vec": [
-1.625e-07,
-9.999970000000001e-05,
1.9870000000000003e-07
],
"n_fs": 192,
"n_ss": 176,
"name": "None",
"parent_data_shape": null,
"parent_data_slice": null,
"ss_vec": [
9.99998e-05,
-1.622e-07,
1.3630000000000002e-07
],
"t_vec": [
0.0593256746,
0.0227606763,
-6.386181249999999e-06
]
},
{
"fs_vec": [
-1.537e-07,
-9.99998e-05,
-8.51e-08
],
"n_fs": 192,
"n_ss": 176,
"name": "None",
"parent_data_shape": null,
"parent_data_slice": null,
"ss_vec": [
9.9999e-05,
-1.541e-07,
4.131e-07
],
"t_vec": [
0.041629838,
0.08290223890000001,
-6.386181249999999e-06
]
},
{
"fs_vec": [
-1.537e-07,
-9.99998e-05,
-8.51e-08
],
"n_fs": 192,
"n_ss": 176,
"name": "None",
"parent_data_shape": null,
"parent_data_slice": null,
"ss_vec": [
9.9999e-05,
-1.541e-07,
4.131e-07
],
"t_vec": [
0.0415998646,
0.06340226900000001,
-6.386181249999999e-06
]
},
{
"fs_vec": [
-1.537e-07,
-9.99998e-05,
-8.51e-08
],
"n_fs": 192,
"n_ss": 176,
"name": "None",
"parent_data_shape": null,
"parent_data_slice": null,
"ss_vec": [
9.9999e-05,
-1.541e-07,
4.131e-07
],
"t_vec": [
0.059529664,
0.08287466210000001,
-6.386181249999999e-06
]
},
{
"fs_vec": [
-1.537e-07,
-9.99998e-05,
-8.51e-08
],
"n_fs": 192,
"n_ss": 176,
"name": "None",
"parent_data_shape": null,
"parent_data_slice": null,
"ss_vec": [
9.9999e-05,
-1.541e-07,
4.131e-07
],
"t_vec": [
0.0594996906,
0.06337469220000001,
-6.386181249999999e-06
]
},
{
"fs_vec": [
-6.183000000000001e-07,
-9.9998e-05,
-1.29e-07
],
"n_fs": 192,
"n_ss": 176,
"name": "None",
"parent_data_shape": null,
"parent_data_slice": null,
"ss_vec": [
9.999810000000001e-05,
-6.182000000000001e-07,
-6.5e-08
],
"t_vec": [
-0.0003493235,
0.0427730418,
-6.386181249999999e-06
]
},
{
"fs_vec": [
-6.183000000000001e-07,
-9.9998e-05,
-1.29e-07
],
"n_fs": 192,
"n_ss": 176,
"name": "None",
"parent_data_shape": null,
"parent_data_slice": null,
"ss_vec": [
9.999810000000001e-05,
-6.182000000000001e-07,
-6.5e-08
],
"t_vec": [
-0.00046989460000000004,
0.0232734307,
-6.386181249999999e-06
]
},
{
"fs_vec": [
-6.183000000000001e-07,
-9.9998e-05,
-1.29e-07
],
"n_fs": 192,
"n_ss": 176,
"name": "None",
"parent_data_shape": null,
"parent_data_slice": null,
"ss_vec": [
9.999810000000001e-05,
-6.182000000000001e-07,
-6.5e-08
],
"t_vec": [
0.017550330700000002,
0.0426623786,
-6.386181249999999e-06
]
},
{
"fs_vec": [
-6.183000000000001e-07,
-9.9998e-05,
-1.29e-07
],
"n_fs": 192,
"n_ss": 176,
"name": "None",
"parent_data_shape": null,
"parent_data_slice": null,
"ss_vec": [
9.999810000000001e-05,
-6.182000000000001e-07,
-6.5e-08
],
"t_vec": [
0.0174297595,
0.0231627675,
-6.386181249999999e-06
]
},
{
"fs_vec": [
-2.986e-07,
-9.99996e-05,
-9.8e-09
],
"n_fs": 192,
"n_ss": 176,
"name": "None",
"parent_data_shape": null,
"parent_data_slice": null,
"ss_vec": [
9.99995e-05,
-2.986e-07,
8.44e-08
],
"t_vec": [
-0.0001332936,
0.0832847597,
-6.386181249999999e-06
]
},
{
"fs_vec": [
-2.986e-07,
-9.99996e-05,
-9.8e-09
],
"n_fs": 192,
"n_ss": 176,
"name": "None",
"parent_data_shape": null,
"parent_data_slice": null,
"ss_vec": [
9.99995e-05,
-2.986e-07,
8.44e-08
],
"t_vec": [
-0.0001915119,
0.06378484670000001,
-6.386181249999999e-06
]
},
{
"fs_vec": [
-2.986e-07,
-9.99996e-05,
-9.8e-09
],
"n_fs": 192,
"n_ss": 176,
"name": "None",
"parent_data_shape": null,
"parent_data_slice": null,
"ss_vec": [
9.99995e-05,
-2.986e-07,
8.44e-08
],
"t_vec": [
0.0177666202,
0.08323131680000001,
-6.386181249999999e-06
]
},
{
"fs_vec": [
-2.986e-07,
-9.99996e-05,
-9.8e-09
],
"n_fs": 192,
"n_ss": 176,
"name": "None",
"parent_data_shape": null,
"parent_data_slice": null,
"ss_vec": [
9.99995e-05,
-2.986e-07,
8.44e-08
],
"t_vec": [
0.017708401900000004,
0.0637314038,
-6.386181249999999e-06
]
},
{
"fs_vec": [
9.999860000000002e-05,
-5.265e-07,
5.0000000000000004e-08
],
"n_fs": 192,
"n_ss": 176,
"name": "None",
"parent_data_shape": null,
"parent_data_slice": null,
"ss_vec": [
5.265e-07,
9.999860000000002e-05,
7.110000000000001e-08
],
"t_vec": [
-0.0423929194,
0.041718869900000004,
-6.386181249999999e-06
]
},
{
"fs_vec": [
9.999860000000002e-05,
-5.265e-07,
5.0000000000000004e-08
],
"n_fs": 192,
"n_ss": 176,
"name": "None",
"parent_data_shape": null,
"parent_data_slice": null,
"ss_vec": [
5.265e-07,
9.999860000000002e-05,
7.110000000000001e-08
],
"t_vec": [
-0.0228931922,
0.041616196700000004,
-6.386181249999999e-06
]
},
{
"fs_vec": [
9.999860000000002e-05,
-5.265e-07,
5.0000000000000004e-08
],
"n_fs": 192,
"n_ss": 176,
"name": "None",
"parent_data_shape": null,
"parent_data_slice": null,
"ss_vec": [
5.265e-07,
9.999860000000002e-05,
7.110000000000001e-08
],
"t_vec": [
-0.0422986771,
0.05961861730000001,
-6.386181249999999e-06
]
},
{
"fs_vec": [
9.999860000000002e-05,
-5.265e-07,
5.0000000000000004e-08
],
"n_fs": 192,
"n_ss": 176,
"name": "None",
"parent_data_shape": null,
"parent_data_slice": null,
"ss_vec": [
5.265e-07,
9.999860000000002e-05,
7.110000000000001e-08
],
"t_vec": [
-0.0227989498,
0.0595159441,
-6.386181249999999e-06
]
},
{
"fs_vec": [
9.999850000000001e-05,
-5.465000000000001e-07,
-9.000000000000001e-10
],
"n_fs": 192,
"n_ss": 176,
"name": "None",
"parent_data_shape": null,
"parent_data_slice": null,
"ss_vec": [
5.465000000000001e-07,
9.99977e-05,
3.9110000000000005e-07
],
"t_vec": [
-0.0829064444,
0.0419428767,
-6.386181249999999e-06
]
},
{
"fs_vec": [
9.999850000000001e-05,
-5.465000000000001e-07,
-9.000000000000001e-10
],
"n_fs": 192,
"n_ss": 176,
"name": "None",
"parent_data_shape": null,
"parent_data_slice": null,
"ss_vec": [
5.465000000000001e-07,
9.99977e-05,
3.9110000000000005e-07
],
"t_vec": [
-0.06340673570000001,
0.041836306600000005,
-6.386181249999999e-06
]
},
{
"fs_vec": [
9.999850000000001e-05,
-5.465000000000001e-07,
-9.000000000000001e-10
],
"n_fs": 192,
"n_ss": 176,
"name": "None",
"parent_data_shape": null,
"parent_data_slice": null,
"ss_vec": [
5.465000000000001e-07,
9.99977e-05,
3.9110000000000005e-07
],
"t_vec": [
-0.0828086187,
0.0598424725,
-6.386181249999999e-06
]
},
{
"fs_vec": [
9.999850000000001e-05,
-5.465000000000001e-07,
-9.000000000000001e-10
],
"n_fs": 192,
"n_ss": 176,
"name": "None",
"parent_data_shape": null,
"parent_data_slice": null,
"ss_vec": [
5.465000000000001e-07,
9.99977e-05,
3.9110000000000005e-07
],
"t_vec": [
-0.06330891000000001,
0.0597359025,
-6.386181249999999e-06
]
},
{
"fs_vec": [
9.99968e-05,
-7.984000000000001e-07,
-1.7899999999999998e-08
],
"n_fs": 192,
"n_ss": 176,
"name": "None",
"parent_data_shape": null,
"parent_data_slice": null,
"ss_vec": [
7.984000000000001e-07,
9.99968e-05,
3.26e-08
],
"t_vec": [
-0.0427947061,
-4.833950000000001e-05,
-6.386181249999999e-06
]
},
{
"fs_vec": [
9.99968e-05,
-7.984000000000001e-07,
-1.7899999999999998e-08
],
"n_fs": 192,
"n_ss": 176,
"name": "None",
"parent_data_shape": null,
"parent_data_slice": null,
"ss_vec": [
7.984000000000001e-07,
9.99968e-05,
3.26e-08
],
"t_vec": [
-0.023295328,
-0.0002040317,
-6.386181249999999e-06
]
},
{
"fs_vec": [
9.99968e-05,
-7.984000000000001e-07,
-1.7899999999999998e-08
],
"n_fs": 192,
"n_ss": 176,
"name": "None",
"parent_data_shape": null,
"parent_data_slice": null,
"ss_vec": [
7.984000000000001e-07,
9.99968e-05,
3.26e-08
],
"t_vec": [
-0.0426517877,
0.017851089,
-6.386181249999999e-06
]
},
{
"fs_vec": [
9.99968e-05,
-7.984000000000001e-07,
-1.7899999999999998e-08
],
"n_fs": 192,
"n_ss": 176,
"name": "None",
"parent_data_shape": null,
"parent_data_slice": null,
"ss_vec": [
7.984000000000001e-07,
9.99968e-05,
3.26e-08
],
"t_vec": [
-0.0231524095,
0.017695396800000002,
-6.386181249999999e-06
]
},
{
"fs_vec": [
9.999780000000001e-05,
-6.549000000000001e-07,
8.980000000000001e-08
],
"n_fs": 192,
"n_ss": 176,
"name": "None",
"parent_data_shape": null,
"parent_data_slice": null,
"ss_vec": [
6.548000000000001e-07,
9.999780000000001e-05,
1.341e-07
],
"t_vec": [
-0.0832224731,
0.00013978980000000003,
-6.386181249999999e-06
]
},
{
"fs_vec": [
9.999780000000001e-05,
-6.549000000000001e-07,
8.980000000000001e-08
],
"n_fs": 192,
"n_ss": 176,
"name": "None",
"parent_data_shape": null,
"parent_data_slice": null,
"ss_vec": [
6.548000000000001e-07,
9.999780000000001e-05,
1.341e-07
],
"t_vec": [
-0.0637228992,
1.2085600000000002e-05,
-6.386181249999999e-06
]
},
{
"fs_vec": [
9.999780000000001e-05,
-6.549000000000001e-07,
8.980000000000001e-08
],
"n_fs": 192,
"n_ss": 176,
"name": "None",
"parent_data_shape": null,
"parent_data_slice": null,
"ss_vec": [
6.548000000000001e-07,
9.999780000000001e-05,
1.341e-07
],
"t_vec": [
-0.0831052688,
0.018039390000000002,
-6.386181249999999e-06
]
},
{
"fs_vec": [
9.999780000000001e-05,
-6.549000000000001e-07,
8.980000000000001e-08
],
"n_fs": 192,
"n_ss": 176,
"name": "None",
"parent_data_shape": null,
"parent_data_slice": null,
"ss_vec": [
6.548000000000001e-07,
9.999780000000001e-05,
1.341e-07
],
"t_vec": [
-0.0636056948,
0.017911685700000003,
-6.386181249999999e-06
]
},
{
"fs_vec": [
1.1590000000000001e-07,
9.99999e-05,
-8.100000000000001e-09
],
"n_fs": 192,
"n_ss": 176,
"name": "None",
"parent_data_shape": null,
"parent_data_slice": null,
"ss_vec": [
-9.99999e-05,
1.1590000000000001e-07,
-4.54e-08
],
"t_vec": [
-0.0416093804,
-0.0422244988,
-6.386181249999999e-06
]
},
{
"fs_vec": [
1.1590000000000001e-07,
9.99999e-05,
-8.100000000000001e-09
],
"n_fs": 192,
"n_ss": 176,
"name": "None",
"parent_data_shape": null,
"parent_data_slice": null,
"ss_vec": [
-9.99999e-05,
1.1590000000000001e-07,
-4.54e-08
],
"t_vec": [
-0.0415867819,
-0.022724512,
-6.386181249999999e-06
]
},
{
"fs_vec": [
1.1590000000000001e-07,
9.99999e-05,
-8.100000000000001e-09
],
"n_fs": 192,
"n_ss": 176,
"name": "None",
"parent_data_shape": null,
"parent_data_slice": null,
"ss_vec": [
-9.99999e-05,
1.1590000000000001e-07,
-4.54e-08
],
"t_vec": [
-0.0595093666,
-0.042203755200000005,
-6.386181249999999e-06
]
},
{
"fs_vec": [
1.1590000000000001e-07,
9.99999e-05,
-8.100000000000001e-09
],
"n_fs": 192,
"n_ss": 176,
"name": "None",
"parent_data_shape": null,
"parent_data_slice": null,
"ss_vec": [
-9.99999e-05,
1.1590000000000001e-07,
-4.54e-08
],
"t_vec": [
-0.0594867681,
-0.0227037684,
-6.386181249999999e-06
]
},
{
"fs_vec": [
3.01e-07,
9.9999e-05,
3.361e-07
],
"n_fs": 192,
"n_ss": 176,
"name": "None",
"parent_data_shape": null,
"parent_data_slice": null,
"ss_vec": [
-9.99995e-05,
3.0070000000000004e-07,
6.78e-08
],
"t_vec": [
-0.0417941702,
-0.0830540342,
-6.386181249999999e-06
]
},
{
"fs_vec": [
3.01e-07,
9.9999e-05,
3.361e-07
],
"n_fs": 192,
"n_ss": 176,
"name": "None",
"parent_data_shape": null,
"parent_data_slice": null,
"ss_vec": [
-9.99995e-05,
3.0070000000000004e-07,
6.78e-08
],
"t_vec": [
-0.0417354822,
-0.0635542327,
-6.386181249999999e-06
]
},
{
"fs_vec": [
3.01e-07,
9.9999e-05,
3.361e-07
],
"n_fs": 192,
"n_ss": 176,
"name": "None",
"parent_data_shape": null,
"parent_data_slice": null,
"ss_vec": [
-9.99995e-05,
3.0070000000000004e-07,
6.78e-08
],
"t_vec": [
-0.059694085099999995,
-0.0830002021,
-6.386181249999999e-06
]
},
{
"fs_vec": [
3.01e-07,
9.9999e-05,
3.361e-07
],
"n_fs": 192,
"n_ss": 176,
"name": "None",
"parent_data_shape": null,
"parent_data_slice": null,
"ss_vec": [
-9.99995e-05,
3.0070000000000004e-07,
6.78e-08
],
"t_vec": [
-0.0596353971,
-0.0635004006,
-6.386181249999999e-06
]
},
{
"fs_vec": [
5.463000000000001e-07,
9.999740000000001e-05,
-4.748e-07
],
"n_fs": 192,
"n_ss": 176,
"name": "None",
"parent_data_shape": null,
"parent_data_slice": null,
"ss_vec": [
-9.99984e-05,
5.458e-07,
-1.2470000000000002e-07
],
"t_vec": [
0.0002872795,
-0.0428140923,
-6.386181249999999e-06
]
},
{
"fs_vec": [
5.463000000000001e-07,
9.999740000000001e-05,
-4.748e-07
],
"n_fs": 192,
"n_ss": 176,
"name": "None",
"parent_data_shape": null,
"parent_data_slice": null,
"ss_vec": [
-9.99984e-05,
5.458e-07,
-1.2470000000000002e-07
],
"t_vec": [
0.0003938153,
-0.0233146032,
-6.386181249999999e-06
]
},
{
"fs_vec": [
5.463000000000001e-07,
9.999740000000001e-05,
-4.748e-07
],
"n_fs": 192,
"n_ss": 176,
"name": "None",
"parent_data_shape": null,
"parent_data_slice": null,
"ss_vec": [
-9.99984e-05,
5.458e-07,
-1.2470000000000002e-07
],
"t_vec": [
-0.01761244,
-0.042716402900000006,
-6.386181249999999e-06
]
},
{
"fs_vec": [
5.463000000000001e-07,
9.999740000000001e-05,
-4.748e-07
],
"n_fs": 192,
"n_ss": 176,
"name": "None",
"parent_data_shape": null,
"parent_data_slice": null,
"ss_vec": [
-9.99984e-05,
5.458e-07,
-1.2470000000000002e-07
],
"t_vec": [
-0.017505904200000002,
-0.0232169137,
-6.386181249999999e-06
]
},
{
"fs_vec": [
5.992e-07,
9.999820000000001e-05,
7.100000000000001e-09
],
"n_fs": 192,
"n_ss": 176,
"name": "None",
"parent_data_shape": null,
"parent_data_slice": null,
"ss_vec": [
-9.9998e-05,
5.992e-07,
1.788e-07
],
"t_vec": [
-6.992e-06,
-0.08317470980000001,
-6.386181249999999e-06
]
},
{
"fs_vec": [
5.992e-07,
9.999820000000001e-05,
7.100000000000001e-09
],
"n_fs": 192,
"n_ss": 176,
"name": "None",
"parent_data_shape": null,
"parent_data_slice": null,
"ss_vec": [
-9.9998e-05,
5.992e-07,
1.788e-07
],
"t_vec": [
0.0001098524,
-0.0636750599,
-6.386181249999999e-06
]
},
{
"fs_vec": [
5.992e-07,
9.999820000000001e-05,
7.100000000000001e-09
],
"n_fs": 192,
"n_ss": 176,
"name": "None",
"parent_data_shape": null,
"parent_data_slice": null,
"ss_vec": [
-9.9998e-05,
5.992e-07,
1.788e-07
],
"t_vec": [
-0.017906642099999998,
-0.08306745509999999,
-6.386181249999999e-06
]
},
{
"fs_vec": [
5.992e-07,
9.999820000000001e-05,
7.100000000000001e-09
],
"n_fs": 192,
"n_ss": 176,
"name": "None",
"parent_data_shape": null,
"parent_data_slice": null,
"ss_vec": [
-9.9998e-05,
5.992e-07,
1.788e-07
],
"t_vec": [
-0.017789797700000002,
-0.06356780520000001,
-6.386181249999999e-06
]
},
{
"fs_vec": [
-9.99995e-05,
1.639e-07,
-2.645e-07
],
"n_fs": 192,
"n_ss": 176,
"name": "None",
"parent_data_shape": null,
"parent_data_slice": null,
"ss_vec": [
-1.638e-07,
-9.99999e-05,
-5.2200000000000004e-08
],
"t_vec": [
0.0425278927,
-0.0417296591,
-6.386181249999999e-06
]
},
{
"fs_vec": [
-9.99995e-05,
1.639e-07,
-2.645e-07
],
"n_fs": 192,
"n_ss": 176,
"name": "None",
"parent_data_shape": null,
"parent_data_slice": null,
"ss_vec": [
-1.638e-07,
-9.99999e-05,
-5.2200000000000004e-08
],
"t_vec": [
0.0230279871,
-0.0416976983,
-6.386181249999999e-06
]
},
{
"fs_vec": [
-9.99995e-05,
1.639e-07,
-2.645e-07
],
"n_fs": 192,
"n_ss": 176,
"name": "None",
"parent_data_shape": null,
"parent_data_slice": null,
"ss_vec": [
-1.638e-07,
-9.99999e-05,
-5.2200000000000004e-08
],
"t_vec": [
0.0424985791,
-0.0596296326,
-6.386181249999999e-06
]
},
{
"fs_vec": [
-9.99995e-05,
1.639e-07,
-2.645e-07
],
"n_fs": 192,
"n_ss": 176,
"name": "None",
"parent_data_shape": null,
"parent_data_slice": null,
"ss_vec": [
-1.638e-07,
-9.99999e-05,
-5.2200000000000004e-08
],
"t_vec": [
0.022998673400000003,
-0.0595976719,
-6.386181249999999e-06
]
},
{
"fs_vec": [
-9.99998e-05,
2.2160000000000003e-07,
2.06e-08
],
"n_fs": 192,
"n_ss": 176,
"name": "None",
"parent_data_shape": null,
"parent_data_slice": null,
"ss_vec": [
-2.2160000000000003e-07,
-9.99991e-05,
3.502e-07
],
"t_vec": [
0.08307417,
-0.04194492910000001,
-6.386181249999999e-06
]
},
{
"fs_vec": [
-9.99998e-05,
2.2160000000000003e-07,
2.06e-08
],
"n_fs": 192,
"n_ss": 176,
"name": "None",
"parent_data_shape": null,
"parent_data_slice": null,
"ss_vec": [
-2.2160000000000003e-07,
-9.99991e-05,
3.502e-07
],
"t_vec": [
0.0635742183,
-0.041901708700000005,
-6.386181249999999e-06
]
},
{
"fs_vec": [
-9.99998e-05,
2.2160000000000003e-07,
2.06e-08
],
"n_fs": 192,
"n_ss": 176,
"name": "None",
"parent_data_shape": null,
"parent_data_slice": null,
"ss_vec": [
-2.2160000000000003e-07,
-9.99991e-05,
3.502e-07
],
"t_vec": [
0.083034509,
-0.05984477540000001,
-6.386181249999999e-06
]
},
{
"fs_vec": [
-9.99998e-05,
2.2160000000000003e-07,
2.06e-08
],
"n_fs": 192,
"n_ss": 176,
"name": "None",
"parent_data_shape": null,
"parent_data_slice": null,
"ss_vec": [
-2.2160000000000003e-07,
-9.99991e-05,
3.502e-07
],
"t_vec": [
0.06353455740000001,
-0.059801555,
-6.386181249999999e-06
]
},
{
"fs_vec": [
-9.9998e-05,
6.384e-07,
-4.5800000000000006e-08
],
"n_fs": 192,
"n_ss": 176,
"name": "None",
"parent_data_shape": null,
"parent_data_slice": null,
"ss_vec": [
-6.385e-07,
-9.99979e-05,
7.060000000000001e-08
],
"t_vec": [
0.0428626142,
7.3416e-05,
-6.386181249999999e-06
]
},
{
"fs_vec": [
-9.9998e-05,
6.384e-07,
-4.5800000000000006e-08
],
"n_fs": 192,
"n_ss": 176,
"name": "None",
"parent_data_shape": null,
"parent_data_slice": null,
"ss_vec": [
-6.385e-07,
-9.99979e-05,
7.060000000000001e-08
],
"t_vec": [
0.0233630136,
0.00019791170000000002,
-6.386181249999999e-06
]
},
{
"fs_vec": [
-9.9998e-05,
6.384e-07,
-4.5800000000000006e-08
],
"n_fs": 192,
"n_ss": 176,
"name": "None",
"parent_data_shape": null,
"parent_data_slice": null,
"ss_vec": [
-6.385e-07,
-9.99979e-05,
7.060000000000001e-08
],
"t_vec": [
0.0427483277,
-0.017826214700000002,
-6.386181249999999e-06
]
},
{
"fs_vec": [
-9.9998e-05,
6.384e-07,
-4.5800000000000006e-08
],
"n_fs": 192,
"n_ss": 176,
"name": "None",
"parent_data_shape": null,
"parent_data_slice": null,
"ss_vec": [
-6.385e-07,
-9.99979e-05,
7.060000000000001e-08
],
"t_vec": [
0.0232487272,
-0.017701719,
-6.386181249999999e-06
]
},
{
"fs_vec": [
-9.9999e-05,
4.5110000000000006e-07,
9.4e-09
],
"n_fs": 192,
"n_ss": 176,
"name": "None",
"parent_data_shape": null,
"parent_data_slice": null,
"ss_vec": [
-4.5110000000000006e-07,
-9.999890000000001e-05,
-1.212e-07
],
"t_vec": [
0.0831236568,
1.17373e-05,
-6.386181249999999e-06
]
},
{
"fs_vec": [
-9.9999e-05,
4.5110000000000006e-07,
9.4e-09
],
"n_fs": 192,
"n_ss": 176,
"name": "None",
"parent_data_shape": null,
"parent_data_slice": null,
"ss_vec": [
-4.5110000000000006e-07,
-9.999890000000001e-05,
-1.212e-07
],
"t_vec": [
0.0636238553,
9.97091e-05,
-6.386181249999999e-06
]
},
{
"fs_vec": [
-9.9999e-05,
4.5110000000000006e-07,
9.4e-09
],
"n_fs": 192,
"n_ss": 176,
"name": "None",
"parent_data_shape": null,
"parent_data_slice": null,
"ss_vec": [
-4.5110000000000006e-07,
-9.999890000000001e-05,
-1.212e-07
],
"t_vec": [
0.0830429012,
-0.017888067400000002,
-6.386181249999999e-06
]
},
{
"fs_vec": [
-9.9999e-05,
4.5110000000000006e-07,
9.4e-09
],
"n_fs": 192,
"n_ss": 176,
"name": "None",
"parent_data_shape": null,
"parent_data_slice": null,
"ss_vec": [
-4.5110000000000006e-07,
-9.999890000000001e-05,
-1.212e-07
],
"t_vec": [
0.06354309970000001,
-0.0178000955,
-6.386181249999999e-06
]
}
]