[
{
"fs_vec": [
-1.625e-07,
-9.999970000000001e-05,
1.9870000000000003e-07
],
"n_fs": 192,
"n_ss": 176,
"name": "None",
"parent_data_shape": null,
"parent_data_slice": null,
"ss_vec": [
9.99998e-05,
-1.622e-07,
1.3630000000000002e-07
],
"t_vec": [
-0.01766260650000004,
0.01933964309999998,
-3.0902100000000004e-05
]
},
{
"fs_vec": [
-1.625e-07,
-9.999970000000001e-05,
1.9870000000000003e-07
],
"n_fs": 192,
"n_ss": 176,
"name": "None",
"parent_data_shape": null,
"parent_data_slice": null,
"ss_vec": [
9.99998e-05,
-1.622e-07,
1.3630000000000002e-07
],
"t_vec": [
-0.01769428520000004,
-0.0001602927000000093,
-3.0902100000000004e-05
]
},
{
"fs_vec": [
-1.625e-07,
-9.999970000000001e-05,
1.9870000000000003e-07
],
"n_fs": 192,
"n_ss": 176,
"name": "None",
"parent_data_shape": null,
"parent_data_slice": null,
"ss_vec": [
9.99998e-05,
-1.622e-07,
1.3630000000000002e-07
],
"t_vec": [
0.00023735339999995453,
0.019310612099999975,
-3.0902100000000004e-05
]
},
{
"fs_vec": [
-1.625e-07,
-9.999970000000001e-05,
1.9870000000000003e-07
],
"n_fs": 192,
"n_ss": 176,
"name": "None",
"parent_data_shape": null,
"parent_data_slice": null,
"ss_vec": [
9.99998e-05,
-1.622e-07,
1.3630000000000002e-07
],
"t_vec": [
0.00020567459999995747,
-0.00018932370000001157,
-3.0902100000000004e-05
]
}
]