[
{
"fs_vec": [
8.9e-05,
0.0,
0.0
],
"n_fs": 3840,
"n_ss": 3840,
"name": "None",
"parent_data_shape": null,
"parent_data_slice": null,
"ss_vec": [
0.0,
8.9e-05,
0.0
],
"t_vec": [
-0.1708355,
-0.1708355,
0.0
]
}
]